pca,tool,model,split,seed,filter,m1,m2,m3,m4
off,cbmc,regression,1,4573,false,11.616790259452205,25.537331730212287,49.56810440786429,82.50141428780442
off,cbmc,regression,2,4573,false,11.483577494905118,25.352601084743814,47.438103542612765,81.17785680188645
off,cbmc,regression,3,4573,false,12.32636700293125,25.924241383699115,51.69998327213619,81.7081587248763
off,cbmc,regression,4,4573,false,9.85470016486757,21.788620114949005,41.95942323762843,69.95879453267088
off,cbmc,regression,5,4573,false,12.256668508533961,25.536741592985173,52.937674846836025,83.06310449255194
off,jbmc,regression,1,4573,false,15.028579613295976,30.287779901806662,69.22615814371675,101.16296004978561
off,jbmc,regression,2,4573,false,13.762940020848045,28.048745896666237,63.671364163540254,92.61262601103692
off,jbmc,regression,3,4573,false,13.959292620923922,28.45870823419698,63.73141990627752,93.17883237373
off,jbmc,regression,4,4573,false,14.246220326493326,28.583528546140396,66.93001943447113,94.38624057681191
off,jbmc,regression,5,4573,false,13.210467603106867,26.771264490519997,62.672510500607956,88.96134343979527
off,jayhorn,regression,1,4573,false,13.99431746307921,27.489546255040604,62.605095068407266,105.32980421550445
off,jayhorn,regression,2,4573,false,12.264755875447067,25.70267754086655,52.941078960959956,93.91825737724568
off,jayhorn,regression,3,4573,false,13.600554819834393,26.668195311857296,62.638727724732895,102.87346540439684
off,jayhorn,regression,4,4573,false,13.377355969098359,27.627093809755976,60.8202062907375,105.6777314772569
off,jayhorn,regression,5,4573,false,14.200965452880698,28.017949260016316,72.11326192054274,111.85572800875657
off,cbmc,classification,1,4573,false,88.05405405405405,0,0,0
off,cbmc,classification,2,4573,false,88.54898648648649,0,0,0
off,cbmc,classification,3,4573,false,86.66722972972973,0,0,0
off,cbmc,classification,4,4573,false,89.81081081081081,0,0,0
off,cbmc,classification,5,4573,false,86.77702702702703,0,0,0
off,jbmc,classification,1,4573,false,81.43068441575905,0,0,0
off,jbmc,classification,2,4573,false,83.42073416700282,0,0,0
off,jbmc,classification,3,4573,false,80.63735377168213,0,0,0
off,jbmc,classification,4,4573,false,81.48981121788319,0,0,0
off,jbmc,classification,5,4573,false,83.99781912356028,0,0,0
off,jayhorn,classification,1,4573,false,73.0202965611526,0,0,0
off,jayhorn,classification,2,4573,false,77.42139026185719,0,0,0
off,jayhorn,classification,3,4573,false,75.84919549900094,0,0,0
off,jayhorn,classification,4,4573,false,74.46831192367145,0,0,0
off,jayhorn,classification,5,4573,false,77.5545013592026,0,0,0
on,cbmc,regression,1,4573,false,11.912281992374197,24.809102878577836,50.828948818584394,80.1487836050167
on,cbmc,regression,2,4573,false,12.015788068935702,24.35154935289708,49.636639698138985,77.97253542805568
on,cbmc,regression,3,4573,false,12.924430424584697,25.014986184827247,54.208416526460596,78.84236346355165
on,cbmc,regression,4,4573,false,11.050930831863615,22.28528923464509,47.052743988802405,71.55349730467901
on,cbmc,regression,5,4573,false,12.475217946121935,23.739929438949225,53.881609902021346,77.21863153343435
on,jbmc,regression,1,4573,false,17.32535280290222,32.79169580990618,79.80578630120837,109.52618593825639
on,jbmc,regression,2,4573,false,15.460291768405764,30.13680007273422,71.52380710586658,99.50705834007564
on,jbmc,regression,3,4573,false,16.16302310763974,31.089760071324203,73.79259398028698,101.79336034459838
on,jbmc,regression,4,4573,false,15.0556462755668,29.777003181177037,70.73277506092353,98.32723700918211
on,jbmc,regression,5,4573,false,16.114180069736314,30.512349523295086,76.44817352201237,101.3930293079034
on,jayhorn,regression,1,4573,false,15.175651713755643,28.76348989951483,67.88992180370778,110.21108648219344
on,jayhorn,regression,2,4573,false,14.735401537368624,28.117760752541006,63.60567338099153,102.7430347297557
on,jayhorn,regression,3,4573,false,14.139011416303282,28.894307367570054,65.11864391819682,111.46076795230697
on,jayhorn,regression,4,4573,false,15.254308487490185,28.916997339458014,69.35377896610112,110.61180379706353
on,jayhorn,regression,5,4573,false,13.491923449235262,27.14313018080052,68.51270871229748,108.36319812823183
on,cbmc,classification,1,4573,false,88.05405405405405,0,0,0
on,cbmc,classification,2,4573,false,88.54898648648649,0,0,0
on,cbmc,classification,3,4573,false,86.66722972972973,0,0,0
on,cbmc,classification,4,4573,false,89.81081081081081,0,0,0
on,cbmc,classification,5,4573,false,86.77702702702703,0,0,0
on,jbmc,classification,1,4573,false,81.43068441575905,0,0,0
on,jbmc,classification,2,4573,false,83.42073416700282,0,0,0
on,jbmc,classification,3,4573,false,80.63735377168213,0,0,0
on,jbmc,classification,4,4573,false,81.48981121788319,0,0,0
on,jbmc,classification,5,4573,false,83.99781912356028,0,0,0
on,jayhorn,classification,1,4573,false,73.0202965611526,0,0,0
on,jayhorn,classification,2,4573,false,77.42139026185719,0,0,0
on,jayhorn,classification,3,4573,false,75.84919549900094,0,0,0
on,jayhorn,classification,4,4573,false,74.46831192367145,0,0,0
on,jayhorn,classification,5,4573,false,77.5545013592026,0,0,0
off,cbmc,regression,1,2348,false,11.483039636893608,25.419641945424456,48.99739901717284,82.12120331686981
off,cbmc,regression,2,2348,false,11.31176299341741,24.938704833092828,46.72834614207165,79.85258013559677
off,cbmc,regression,3,2348,false,11.967368459474725,25.37589354110336,50.194250180868515,79.97987314474626
off,cbmc,regression,4,2348,false,10.11026526127722,22.18981178630587,43.047570402495715,71.24693878212786
off,cbmc,regression,5,2348,false,12.241638346189506,25.464393510558036,52.87275819786801,82.8277786069608
off,jbmc,regression,1,2348,false,14.552448211439419,29.422935024832746,67.03295369125134,98.27432747182122
off,jbmc,regression,2,2348,false,13.824876053243608,28.168608329447377,63.957898266539246,93.008393247862
off,jbmc,regression,3,2348,false,14.246072138935146,28.63334901658074,65.04071733124141,93.75063711108628
off,jbmc,regression,4,2348,false,13.760999911723601,27.949756877502068,64.65041045424603,92.2934504900211
off,jbmc,regression,5,2348,false,13.121823794788824,26.701416290408428,62.2519705034984,88.72923674491065
off,jayhorn,regression,1,2348,false,13.564530034981756,27.517272523483193,60.68239445323007,105.43604105184906
off,jayhorn,regression,2,2348,false,12.385165538587767,25.437255502925606,53.46082982667068,92.94839829414838
off,jayhorn,regression,3,2348,false,13.050700972600591,26.092822185037456,60.10632034271594,100.6539441070482
off,jayhorn,regression,4,2348,false,13.852608457563445,27.892625505247654,62.980943767964185,106.69342959621582
off,jayhorn,regression,5,2348,false,13.670858826621814,27.1689248906447,69.42135212665843,108.46617804377165
off,cbmc,classification,1,2348,false,88.05405405405405,0,0,0
off,cbmc,classification,2,2348,false,88.54898648648649,0,0,0
off,cbmc,classification,3,2348,false,86.66722972972973,0,0,0
off,cbmc,classification,4,2348,false,89.81081081081081,0,0,0
off,cbmc,classification,5,2348,false,86.77702702702703,0,0,0
off,jbmc,classification,1,2348,false,81.43068441575905,0,0,0
off,jbmc,classification,2,2348,false,83.42073416700282,0,0,0
off,jbmc,classification,3,2348,false,80.63735377168213,0,0,0
off,jbmc,classification,4,2348,false,81.48981121788319,0,0,0
off,jbmc,classification,5,2348,false,83.99781912356028,0,0,0
off,jayhorn,classification,1,2348,false,73.0202965611526,0,0,0
off,jayhorn,classification,2,2348,false,77.42139026185719,0,0,0
off,jayhorn,classification,3,2348,false,75.84919549900094,0,0,0
off,jayhorn,classification,4,2348,false,74.46831192367145,0,0,0
off,jayhorn,classification,5,2348,false,77.5545013592026,0,0,0
on,cbmc,regression,1,2348,false,12.051069238385645,24.813915262346505,51.421145160872484,80.16433058820215
on,cbmc,regression,2,2348,false,12.010513843361885,24.71226110843653,49.61485212723708,79.12751779613936
on,cbmc,regression,3,2348,false,13.235980394518391,25.34118462876053,55.51513798219659,79.8704774144373
on,cbmc,regression,4,2348,false,11.113559260728085,22.207425283499994,47.31940382720118,71.30349211247665
on,cbmc,regression,5,2348,false,12.455035928545088,24.00156782800868,53.794441918038395,78.06966011006679
on,jbmc,regression,1,2348,false,18.483936593389075,34.28198542976373,85.14257173048686,114.50384061499507
on,jbmc,regression,2,2348,false,15.694932209374814,30.684071148980692,72.60932204248647,101.31406289200095
on,jbmc,regression,3,2348,false,15.818693866546528,30.37240789297844,72.22055218375438,99.44462273398925
on,jbmc,regression,4,2348,false,15.685737977615572,29.429191666621453,73.69300232802517,97.17872165932825
on,jbmc,regression,5,2348,false,15.78346170153529,29.904697680356833,74.87919420753691,99.37379243881203
on,jayhorn,regression,1,2348,false,16.501350453730094,30.13659544869728,73.82057871978337,115.472320600821
on,jayhorn,regression,2,2348,false,18.059351543470942,31.07888830408654,77.95357410746496,113.56307241146139
on,jayhorn,regression,3,2348,false,14.208887689835164,28.35744052311992,65.4404661475223,109.3897859415838
on,jayhorn,regression,4,2348,false,15.020608816205847,28.54097987051996,68.29126240823838,109.17348120740478
on,jayhorn,regression,5,2348,false,15.995308363762637,29.42868787442447,81.22503116869974,117.48780312175849
on,cbmc,classification,1,2348,false,88.05405405405405,0,0,0
on,cbmc,classification,2,2348,false,88.54898648648649,0,0,0
on,cbmc,classification,3,2348,false,86.66722972972973,0,0,0
on,cbmc,classification,4,2348,false,89.81081081081081,0,0,0
on,cbmc,classification,5,2348,false,86.77702702702703,0,0,0
on,jbmc,classification,1,2348,false,81.43068441575905,0,0,0
on,jbmc,classification,2,2348,false,83.42073416700282,0,0,0
on,jbmc,classification,3,2348,false,80.63735377168213,0,0,0
on,jbmc,classification,4,2348,false,81.48981121788319,0,0,0
on,jbmc,classification,5,2348,false,83.99781912356028,0,0,0
on,jayhorn,classification,1,2348,false,73.0202965611526,0,0,0
on,jayhorn,classification,2,2348,false,77.42139026185719,0,0,0
on,jayhorn,classification,3,2348,false,75.84919549900094,0,0,0
on,jayhorn,classification,4,2348,false,74.46831192367145,0,0,0
on,jayhorn,classification,5,2348,false,77.5545013592026,0,0,0
off,cbmc,regression,1,1037,false,11.468683930922001,25.28165251508675,48.93614413380519,81.67541190530426
off,cbmc,regression,2,1037,false,11.39840701768629,25.169097600309062,47.08626841816021,80.59028712679478
off,cbmc,regression,3,1037,false,12.207203466927155,25.86539629158848,51.20018046595694,81.52269045773622
off,cbmc,regression,4,1037,false,9.928562749883342,21.667221518674047,42.27391595828481,69.56900851554134
off,cbmc,regression,5,1037,false,12.347937756493122,25.609633025075844,53.33187509534673,83.30019772617038
off,jbmc,regression,1,1037,false,14.865768720187484,29.390369968371584,68.47620219818768,98.16555827459118
off,jbmc,regression,2,1037,false,13.769874126411265,28.11159724875993,63.703443353000885,92.8201514664418
off,jbmc,regression,3,1037,false,14.417129327665053,29.06655363077126,65.82168222817268,95.16902545805559
off,jbmc,regression,4,1037,false,14.01817369802603,28.164289807939994,65.85863594288655,93.00186396498016
off,jbmc,regression,5,1037,false,12.987007489257014,26.802589931721105,61.61238100690038,89.06543838585513
off,jayhorn,regression,1,1037,false,13.408059205030625,27.73666525004786,59.982405246156034,106.27667307687292
off,jayhorn,regression,2,1037,false,11.801055613959242,25.4505635280135,50.939506943795784,92.99702616661033
off,jayhorn,regression,3,1037,false,13.916059216368106,27.16199915853964,64.0918150621414,104.77833044472625
off,jayhorn,regression,4,1037,false,12.185221867300834,26.16308666883891,55.400163483695756,100.07768702147754
off,jayhorn,regression,5,1037,false,14.117375315883494,27.99040464532294,71.68878673515803,111.74576196874932
off,cbmc,classification,1,1037,false,88.05405405405405,0,0,0
off,cbmc,classification,2,1037,false,88.54898648648649,0,0,0
off,cbmc,classification,3,1037,false,86.66722972972973,0,0,0
off,cbmc,classification,4,1037,false,89.81081081081081,0,0,0
off,cbmc,classification,5,1037,false,86.77702702702703,0,0,0
off,jbmc,classification,1,1037,false,81.43068441575905,0,0,0
off,jbmc,classification,2,1037,false,83.42073416700282,0,0,0
off,jbmc,classification,3,1037,false,80.63735377168213,0,0,0
off,jbmc,classification,4,1037,false,81.48981121788319,0,0,0
off,jbmc,classification,5,1037,false,83.99781912356028,0,0,0
off,jayhorn,classification,1,1037,false,73.0202965611526,0,0,0
off,jayhorn,classification,2,1037,false,77.42139026185719,0,0,0
off,jayhorn,classification,3,1037,false,75.84919549900094,0,0,0
off,jayhorn,classification,4,1037,false,74.46831192367145,0,0,0
off,jayhorn,classification,5,1037,false,77.5545013592026,0,0,0
on,cbmc,regression,1,1037,false,11.854860132330739,24.863066656596274,50.58393339777037,80.32312006482653
on,cbmc,regression,2,1037,false,12.095372305760753,24.49498299011577,49.96539833355043,78.43180330450717
on,cbmc,regression,3,1037,false,12.892001585914377,24.878189394171706,54.07240155819041,78.41120662781238
on,cbmc,regression,4,1037,false,10.954370856795382,22.0155576621065,46.64161013450748,70.68744449533864
on,cbmc,regression,5,1037,false,12.322161368008517,23.76188242653277,53.220544510581895,77.29003779703051
on,jbmc,regression,1,1037,false,16.501079521178962,31.647069785979284,76.00893563251763,105.70306793139467
on,jbmc,regression,2,1037,false,16.63497326150941,31.787571671421073,76.95822540677295,104.95765114953876
on,jbmc,regression,3,1037,false,15.659100166602215,30.330473480886234,71.49192406614463,99.30732206936052
on,jbmc,regression,4,1037,false,15.60843757081753,29.346329778446478,73.32983809142664,96.90510176319445
on,jbmc,regression,5,1037,false,15.598081548426082,29.787878542799177,73.99972196314728,98.98560056164884
on,jayhorn,regression,1,1037,false,15.01749382465318,28.555171992795174,67.18238535477404,109.41288908286961
on,jayhorn,regression,2,1037,false,17.620880401851366,29.82441908139045,76.06090412150503,108.97920899327555
on,jayhorn,regression,3,1037,false,14.858933882667552,29.7370294421906,68.43431948811882,114.71159685824543
on,jayhorn,regression,4,1037,false,15.465881166998617,29.34879217667628,70.31569506094915,112.26348309330221
on,jayhorn,regression,5,1037,false,14.294370964141297,28.540666887245074,72.58758010128244,113.94256741995224
on,cbmc,classification,1,1037,false,88.05405405405405,0,0,0
on,cbmc,classification,2,1037,false,88.54898648648649,0,0,0
on,cbmc,classification,3,1037,false,86.66722972972973,0,0,0
on,cbmc,classification,4,1037,false,89.81081081081081,0,0,0
on,cbmc,classification,5,1037,false,86.77702702702703,0,0,0
on,jbmc,classification,1,1037,false,81.43068441575905,0,0,0
on,jbmc,classification,2,1037,false,83.42073416700282,0,0,0
on,jbmc,classification,3,1037,false,80.63735377168213,0,0,0
on,jbmc,classification,4,1037,false,81.48981121788319,0,0,0
on,jbmc,classification,5,1037,false,83.99781912356028,0,0,0
on,jayhorn,classification,1,1037,false,73.0202965611526,0,0,0
on,jayhorn,classification,2,1037,false,77.42139026185719,0,0,0
on,jayhorn,classification,3,1037,false,75.84919549900094,0,0,0
on,jayhorn,classification,4,1037,false,74.46831192367145,0,0,0
on,jayhorn,classification,5,1037,false,77.5545013592026,0,0,0
off,cbmc,regression,1,4352,false,11.665540463252604,25.531468709257776,49.77611842360472,82.4824730951279
off,cbmc,regression,2,4352,false,11.272827887371585,24.82630377063572,46.567507101026834,79.49267712911536
off,cbmc,regression,3,4352,false,12.01914175226346,25.3167719580599,50.411400811746574,79.79353343204716
off,cbmc,regression,4,4352,false,9.819954337185692,21.74047315340492,41.811482167372105,69.80420450483685
off,cbmc,regression,5,4352,false,12.411971097205354,25.537743515218175,53.60844096376527,83.06636343499886
off,jbmc,regression,1,4352,false,14.827633867960879,29.75697366424144,68.30054159825376,99.39003610557192
off,jbmc,regression,2,4352,false,13.494135158099006,27.555462104142308,62.42779467336602,90.98387913006658
off,jbmc,regression,3,4352,false,14.54005022118261,29.31044591094924,66.38287994017419,95.96757181880162
off,jbmc,regression,4,4352,false,14.142354885741417,28.4204686906016,66.44205028835543,93.84779737066746
off,jbmc,regression,5,4352,false,13.171597394926398,27.076471942172596,62.48810419467383,89.97555272141012
off,jayhorn,regression,1,4352,false,13.674562632573052,27.567646614458283,61.17463719754403,105.62905599253645
off,jayhorn,regression,2,4352,false,12.290243829489812,24.997147019650455,53.05109825537017,91.34023036143303
off,jayhorn,regression,3,4352,false,13.338027530507086,25.84569191314028,61.429631800756056,99.70063072460533
off,jayhorn,regression,4,4352,false,13.20337896377555,27.24765796792724,60.0292190898272,104.22633310427769
off,jayhorn,regression,5,4352,false,13.559851203185598,26.994062295129662,68.8576494790748,107.76807616838751
off,cbmc,classification,1,4352,false,88.05405405405405,0,0,0
off,cbmc,classification,2,4352,false,88.54898648648649,0,0,0
off,cbmc,classification,3,4352,false,86.66722972972973,0,0,0
off,cbmc,classification,4,4352,false,89.81081081081081,0,0,0
off,cbmc,classification,5,4352,false,86.77702702702703,0,0,0
off,jbmc,classification,1,4352,false,81.43068441575905,0,0,0
off,jbmc,classification,2,4352,false,83.42073416700282,0,0,0
off,jbmc,classification,3,4352,false,80.63735377168213,0,0,0
off,jbmc,classification,4,4352,false,81.48981121788319,0,0,0
off,jbmc,classification,5,4352,false,83.99781912356028,0,0,0
off,jayhorn,classification,1,4352,false,73.0202965611526,0,0,0
off,jayhorn,classification,2,4352,false,77.42139026185719,0,0,0
off,jayhorn,classification,3,4352,false,75.84919549900094,0,0,0
off,jayhorn,classification,4,4352,false,74.46831192367145,0,0,0
off,jayhorn,classification,5,4352,false,77.5545013592026,0,0,0
on,cbmc,regression,1,4352,false,11.997998100594652,25.055409967257546,51.194693994903666,80.94450820850561
on,cbmc,regression,2,4352,false,11.913921884123988,24.393184548017345,49.215835412651046,78.10584939833011
on,cbmc,regression,3,4352,false,13.006036152303613,25.043902987546762,54.550692134267436,78.93350359264748
on,cbmc,regression,4,4352,false,11.407359324524917,22.563225722993344,48.57034814999673,72.4458944174336
on,cbmc,regression,5,4352,false,12.343803347620307,23.93016754015235,53.31401820442726,77.83741710641601
on,jbmc,regression,1,4352,false,17.57891344069584,32.65159427632379,80.97376286736325,109.05823860468958
on,jbmc,regression,2,4352,false,15.709159584112871,30.257839134569057,72.67514201675547,99.90671062427167
on,jbmc,regression,3,4352,false,15.986824737667922,30.187336256115017,72.98815692115951,98.83866553851449
on,jbmc,regression,4,4352,false,15.725978015746193,30.54160272907823,73.88205363232922,100.85203644941318
on,jbmc,regression,5,4352,false,15.639067637343743,30.033394238741746,74.19416633599194,99.80145317684158
on,jayhorn,regression,1,4352,false,14.684001620003631,28.279837955289814,65.69047185261573,108.35791058321591
on,jayhorn,regression,2,4352,false,14.23863161230053,28.04503737360809,61.46135545933527,102.47730159712368
on,jayhorn,regression,3,4352,false,14.239231798483985,27.820307999474043,65.58021900208462,107.31777906437706
on,jayhorn,regression,4,4352,false,13.924634994175577,26.309083616424143,63.308412725602494,100.6361470002815
on,jayhorn,regression,5,4352,false,15.035423930600817,28.603952112638563,76.3506866903806,114.19522027805021
on,cbmc,classification,1,4352,false,88.05405405405405,0,0,0
on,cbmc,classification,2,4352,false,88.54898648648649,0,0,0
on,cbmc,classification,3,4352,false,86.66722972972973,0,0,0
on,cbmc,classification,4,4352,false,89.81081081081081,0,0,0
on,cbmc,classification,5,4352,false,86.77702702702703,0,0,0
on,jbmc,classification,1,4352,false,81.43068441575905,0,0,0
on,jbmc,classification,2,4352,false,83.42073416700282,0,0,0
on,jbmc,classification,3,4352,false,80.63735377168213,0,0,0
on,jbmc,classification,4,4352,false,81.48981121788319,0,0,0
on,jbmc,classification,5,4352,false,83.99781912356028,0,0,0
on,jayhorn,classification,1,4352,false,73.0202965611526,0,0,0
on,jayhorn,classification,2,4352,false,77.42139026185719,0,0,0
on,jayhorn,classification,3,4352,false,75.84919549900094,0,0,0
on,jayhorn,classification,4,4352,false,74.46831192367145,0,0,0
on,jayhorn,classification,5,4352,false,77.5545013592026,0,0,0
off,cbmc,regression,1,6732,false,11.626524731767523,25.468084862238946,49.609640781449805,82.27770397213183
off,cbmc,regression,2,6732,false,11.278587294949045,25.000716631539422,46.59129893533324,80.05113904785584
off,cbmc,regression,3,6732,false,12.248914663169707,25.68572715680114,51.37512805168824,80.95640834494908
off,cbmc,regression,4,6732,false,10.133820208237905,21.965071998368018,43.1478628489759,70.52534537397653
off,cbmc,regression,5,6732,false,12.529254145262351,25.71003701900915,54.11499719956165,83.62678079508636
off,jbmc,regression,1,6732,false,14.600820069900198,29.53363596474375,67.25576902108789,98.64407509934615
off,jbmc,regression,2,6732,false,13.91658949748833,28.0122888659497,64.38219133897526,92.49225052745336
off,jbmc,regression,3,6732,false,13.613774221087128,27.83937142219443,62.153948982547696,91.15101436760136
off,jbmc,regression,4,6732,false,13.56415743833944,27.05736187839794,63.72562687886984,89.34665513762017
off,jbmc,regression,5,6732,false,13.222406396505953,27.220744477774453,62.72914999113536,90.45497268280761
off,jayhorn,regression,1,6732,false,12.944019106553817,26.887113796842634,57.90647159970713,103.02150518843621
off,jayhorn,regression,2,6732,false,11.211770474457264,23.873174444733912,48.39584513611571,87.23320511442763
off,jayhorn,regression,3,6732,false,12.972432835026476,26.21337175452675,59.745848536677755,101.11896814865847
off,jayhorn,regression,4,6732,false,13.19347168126375,27.128517930576926,59.984175587393665,103.77060479054349
off,jayhorn,regression,5,6732,false,13.416511401186026,26.877299404457357,68.12976229988747,107.3019250586346
off,cbmc,classification,1,6732,false,88.05405405405405,0,0,0
off,cbmc,classification,2,6732,false,88.54898648648649,0,0,0
off,cbmc,classification,3,6732,false,86.66722972972973,0,0,0
off,cbmc,classification,4,6732,false,89.81081081081081,0,0,0
off,cbmc,classification,5,6732,false,86.77702702702703,0,0,0
off,jbmc,classification,1,6732,false,81.43068441575905,0,0,0
off,jbmc,classification,2,6732,false,83.42073416700282,0,0,0
off,jbmc,classification,3,6732,false,80.63735377168213,0,0,0
off,jbmc,classification,4,6732,false,81.48981121788319,0,0,0
off,jbmc,classification,5,6732,false,83.99781912356028,0,0,0
off,jayhorn,classification,1,6732,false,73.0202965611526,0,0,0
off,jayhorn,classification,2,6732,false,77.42139026185719,0,0,0
off,jayhorn,classification,3,6732,false,75.84919549900094,0,0,0
off,jayhorn,classification,4,6732,false,74.46831192367145,0,0,0
off,jayhorn,classification,5,6732,false,77.5545013592026,0,0,0
on,cbmc,regression,1,6732,false,12.000637805966278,24.79685555735236,51.205957449657035,80.10921716428541
on,cbmc,regression,2,6732,false,12.24642572059412,24.70260051540681,50.58939268866405,79.0965850237991
on,cbmc,regression,3,6732,false,12.932403186737977,25.027949211522373,54.2418563607491,78.88322039845991
on,cbmc,regression,4,6732,false,11.033033559301195,22.115483449444582,46.97654083480661,71.00828572291616
on,cbmc,regression,5,6732,false,12.264371318921635,23.994921878222314,52.970943991010536,78.04804289553113
on,jbmc,regression,1,6732,false,15.944907578628069,30.769769287424143,73.44704037422834,102.77283284732049
on,jbmc,regression,2,6732,false,15.753021132076697,30.518773912791893,72.8780582969217,100.76827695304277
on,jbmc,regression,3,6732,false,15.952381267703075,30.239800493815025,72.8309045941993,99.01044271019897
on,jbmc,regression,4,6732,false,15.301225883379388,28.872683868395963,71.88653006027866,95.34106614239677
on,jbmc,regression,5,6732,false,15.614694252932651,30.092410266262092,74.07853521404132,99.99756438759701
on,jayhorn,regression,1,6732,false,14.209709205748496,27.514896425266485,63.56867336097756,105.42693671969164
on,jayhorn,regression,2,6732,false,16.898307910022698,30.060786438191094,72.94190462951354,109.84290150999044
on,jayhorn,regression,3,6732,false,14.79975115543714,29.72379069015074,68.16174746542553,114.66052792448205
on,jayhorn,regression,4,6732,false,15.12083191081565,28.328301159961484,68.74692713775184,108.35995359497849
on,jayhorn,regression,5,6732,false,14.653247395401673,28.763974278410682,74.40997380898204,114.83407488100012
on,cbmc,classification,1,6732,false,88.05405405405405,0,0,0
on,cbmc,classification,2,6732,false,88.54898648648649,0,0,0
on,cbmc,classification,3,6732,false,86.66722972972973,0,0,0
on,cbmc,classification,4,6732,false,89.81081081081081,0,0,0
on,cbmc,classification,5,6732,false,86.77702702702703,0,0,0
on,jbmc,classification,1,6732,false,81.43068441575905,0,0,0
on,jbmc,classification,2,6732,false,83.42073416700282,0,0,0
on,jbmc,classification,3,6732,false,80.63735377168213,0,0,0
on,jbmc,classification,4,6732,false,81.48981121788319,0,0,0
on,jbmc,classification,5,6732,false,83.99781912356028,0,0,0
on,jayhorn,classification,1,6732,false,73.0202965611526,0,0,0
on,jayhorn,classification,2,6732,false,77.42139026185719,0,0,0
on,jayhorn,classification,3,6732,false,75.84919549900094,0,0,0
on,jayhorn,classification,4,6732,false,74.46831192367145,0,0,0
on,jayhorn,classification,5,6732,false,77.5545013592026,0,0,0
off,cbmc,regression,1,9671,false,11.612373524419153,25.55179791011113,49.54925848068729,82.54814901771297
off,cbmc,regression,2,9671,false,11.20870027189731,24.823192964928158,46.3025990212791,79.4827164730303
off,cbmc,regression,3,9671,false,12.034630181412995,25.48286609468962,50.47636330456803,80.31702979509005
off,cbmc,regression,4,9671,false,10.094813682264883,22.026509012852262,42.9817805425688,70.72260703856699
off,cbmc,regression,5,9671,false,12.295221674397247,25.494232271849107,53.1041895043358,82.92483484798606
off,jbmc,regression,1,9671,false,14.889849713116114,30.098955618933633,68.58712649493627,100.53227587793008
off,jbmc,regression,2,9671,false,13.984326034747985,28.332398322066364,64.6955602648373,93.54920250139001
off,jbmc,regression,3,9671,false,13.947634777740651,28.385765875403255,63.678195798201955,92.9400062201656
off,jbmc,regression,4,9671,false,14.08905877758192,28.20531219595413,66.1916603973425,93.1373248118762
off,jbmc,regression,5,9671,false,13.290241239541894,27.126743309030175,63.050969024359986,90.14260528382415
off,jayhorn,regression,1,9671,false,13.133183886207085,27.854778864325294,58.752720732259064,106.72924089125607
off,jayhorn,regression,2,9671,false,12.806370859554743,25.881827248947364,55.27897153145014,94.57287510591775
off,jayhorn,regression,3,9671,false,12.870918023999643,25.58859674611729,59.278311830111626,98.70887742217555
off,jayhorn,regression,4,9671,false,13.194086885423653,27.168461723412207,59.98697261574536,103.92339572260812
off,jayhorn,regression,5,9671,false,12.714584590550327,26.08486535273787,64.56534042220764,104.13829995062194
off,cbmc,classification,1,9671,false,88.05405405405405,0,0,0
off,cbmc,classification,2,9671,false,88.54898648648649,0,0,0
off,cbmc,classification,3,9671,false,86.66722972972973,0,0,0
off,cbmc,classification,4,9671,false,89.81081081081081,0,0,0
off,cbmc,classification,5,9671,false,86.77702702702703,0,0,0
off,jbmc,classification,1,9671,false,81.43068441575905,0,0,0
off,jbmc,classification,2,9671,false,83.42073416700282,0,0,0
off,jbmc,classification,3,9671,false,80.63735377168213,0,0,0
off,jbmc,classification,4,9671,false,81.48981121788319,0,0,0
off,jbmc,classification,5,9671,false,83.99781912356028,0,0,0
off,jayhorn,classification,1,9671,false,73.0202965611526,0,0,0
off,jayhorn,classification,2,9671,false,77.42139026185719,0,0,0
off,jayhorn,classification,3,9671,false,75.84919549900094,0,0,0
off,jayhorn,classification,4,9671,false,74.46831192367145,0,0,0
off,jayhorn,classification,5,9671,false,77.5545013592026,0,0,0
on,cbmc,regression,1,9671,false,11.921449147882337,24.68809562424514,50.86806448747416,79.75785515066606
on,cbmc,regression,2,9671,false,11.766638365050188,24.1509958172742,48.6074143146924,77.33037227716292
on,cbmc,regression,3,9671,false,13.160116028255908,25.21139374124107,55.19694313485927,79.46140182061295
on,cbmc,regression,4,9671,false,11.128820065907334,22.209206302030776,47.38438140873592,71.30921059803455
on,cbmc,regression,5,9671,false,12.442519344703669,23.87290630334522,53.7403816450426,77.65116405298848
on,jbmc,regression,1,9671,false,17.52207863776498,32.70070590552035,80.71196466972934,109.22227432465647
on,jbmc,regression,2,9671,false,15.489204175491254,30.195648536476266,71.65756431163776,99.7013668765052
on,jbmc,regression,3,9671,false,15.6566102624812,29.95395580863622,71.48055636081943,98.07453677286651
on,jbmc,regression,4,9671,false,14.895960421278373,29.35852779503802,69.98255661097728,96.94538107744044
on,jbmc,regression,5,9671,false,15.993309151476106,30.159987430016745,75.87474310898902,100.22212439205978
on,jayhorn,regression,1,9671,false,16.664654817908325,30.50737013529998,74.5511384824468,116.89299247316107
on,jayhorn,regression,2,9671,false,17.7092054130513,30.5976028278288,76.44216090636485,111.80444266717754
on,jayhorn,regression,3,9671,false,14.973823314905827,30.130876225076626,68.9634543623761,116.23087414416825
on,jayhorn,regression,4,9671,false,14.612500361544145,27.57025582066819,66.43579556868833,105.46031773877657
on,jayhorn,regression,5,9671,false,14.070533974872705,27.990693737071375,71.45092390081565,111.74691610632314
on,cbmc,classification,1,9671,false,88.05405405405405,0,0,0
on,cbmc,classification,2,9671,false,88.54898648648649,0,0,0
on,cbmc,classification,3,9671,false,86.66722972972973,0,0,0
on,cbmc,classification,4,9671,false,89.81081081081081,0,0,0
on,cbmc,classification,5,9671,false,86.77702702702703,0,0,0
on,jbmc,classification,1,9671,false,81.43068441575905,0,0,0
on,jbmc,classification,2,9671,false,83.42073416700282,0,0,0
on,jbmc,classification,3,9671,false,80.63735377168213,0,0,0
on,jbmc,classification,4,9671,false,81.48981121788319,0,0,0
on,jbmc,classification,5,9671,false,83.99781912356028,0,0,0
on,jayhorn,classification,1,9671,false,73.0202965611526,0,0,0
on,jayhorn,classification,2,9671,false,77.42139026185719,0,0,0
on,jayhorn,classification,3,9671,false,75.84919549900094,0,0,0
on,jayhorn,classification,4,9671,false,74.46831192367145,0,0,0
on,jayhorn,classification,5,9671,false,77.5545013592026,0,0,0
off,cbmc,regression,1,4932,false,11.714900727512235,25.548830610858943,49.98673552848275,82.53856280144312
off,cbmc,regression,2,4932,false,11.252317017987533,24.938097163659794,46.48277769104798,79.85063440616045
off,cbmc,regression,3,4932,false,11.969933151629878,25.42078998090202,50.205007165589805,80.12137797703646
off,cbmc,regression,4,4932,false,10.155280190913876,22.355281044611335,43.23923533933166,71.77822666461853
off,cbmc,regression,5,4932,false,12.347663396859852,25.407219317055812,53.33069011094032,82.64180867842234
off,jbmc,regression,1,4932,false,14.918158893861541,30.033542611643792,68.71752709656519,100.31379259970197
off,jbmc,regression,2,4932,false,13.266328244614789,27.520823230070135,61.37389362275808,90.86950691885586
off,jbmc,regression,3,4932,false,14.11693883895394,28.643621189677503,64.45115675761681,93.78427001835742
off,jbmc,regression,4,4932,false,13.80647130512547,27.783278654197712,64.86403913429947,91.74371942339508
off,jbmc,regression,5,4932,false,13.330207673781302,27.050308458279396,63.24057599701189,89.8886110426923
off,jayhorn,regression,1,4932,false,13.05805079795385,27.733603933191386,58.4166047233657,106.26494323956886
off,jayhorn,regression,2,4932,false,11.60394456375214,24.408601655158176,50.08867291341917,89.18967017435972
off,jayhorn,regression,3,4932,false,13.825225236793264,26.956295237657507,63.673470002685086,103.9848206124727
off,jayhorn,regression,4,4932,false,13.072258341162982,26.60070517592002,59.43307861672564,101.75164271870925
off,jayhorn,regression,5,4932,false,13.698867250475852,27.431381150502784,69.56358040064934,109.51397907105013
off,cbmc,classification,1,4932,false,88.05405405405405,0,0,0
off,cbmc,classification,2,4932,false,88.54898648648649,0,0,0
off,cbmc,classification,3,4932,false,86.66722972972973,0,0,0
off,cbmc,classification,4,4932,false,89.81081081081081,0,0,0
off,cbmc,classification,5,4932,false,86.77702702702703,0,0,0
off,jbmc,classification,1,4932,false,81.43068441575905,0,0,0
off,jbmc,classification,2,4932,false,83.42073416700282,0,0,0
off,jbmc,classification,3,4932,false,80.63735377168213,0,0,0
off,jbmc,classification,4,4932,false,81.48981121788319,0,0,0
off,jbmc,classification,5,4932,false,83.99781912356028,0,0,0
off,jayhorn,classification,1,4932,false,73.0202965611526,0,0,0
off,jayhorn,classification,2,4932,false,77.42139026185719,0,0,0
off,jayhorn,classification,3,4932,false,75.84919549900094,0,0,0
off,jayhorn,classification,4,4932,false,74.46831192367145,0,0,0
off,jayhorn,classification,5,4932,false,77.5545013592026,0,0,0
on,cbmc,regression,1,4932,false,12.012675194213394,25.06944428165373,51.25732021889922,80.98984774508982
on,cbmc,regression,2,4932,false,12.15241143850372,24.64874284259111,50.20102423377553,78.92413524490257
on,cbmc,regression,3,4932,false,13.14430451699435,25.129928494096664,55.13062555178428,79.20463923127747
on,cbmc,regression,4,4932,false,11.176729448829601,22.298356657742506,47.58837037252557,71.59545412262895
on,cbmc,regression,5,4932,false,12.275967314485893,23.593663268164896,53.021028158847706,76.74287301963392
on,jbmc,regression,1,4932,false,15.877439333666143,30.310392672650384,73.13626134416742,101.23848802974634
on,jbmc,regression,2,4932,false,16.41437283344466,31.681293397008382,75.93766365407573,104.60673670518027
on,jbmc,regression,3,4932,false,15.759134219492843,30.099877374222554,71.94863146549689,98.55230972684559
on,jbmc,regression,4,4932,false,15.164377624916682,29.383502111465116,71.24360468157668,97.02784926658387
on,jbmc,regression,5,4932,false,15.601712130281447,29.529989552409013,74.01694600746498,98.12863128955617
on,jayhorn,regression,1,4932,false,14.811199512709276,28.718625063890848,66.2595054040088,110.03918097642074
on,jayhorn,regression,2,4932,false,17.483798881877505,30.21138194896453,75.46918883204275,110.39318145332278
on,jayhorn,regression,3,4932,false,14.443693234438047,28.203765599075915,66.52188677862688,108.7969797243916
on,jayhorn,regression,4,4932,false,13.903619171791059,26.29038397755942,63.21286419899167,100.56461810809053
on,jayhorn,regression,5,4932,false,15.64131996120667,28.98047922498041,79.4274591321327,115.69842502280774
on,cbmc,classification,1,4932,false,88.05405405405405,0,0,0
on,cbmc,classification,2,4932,false,88.54898648648649,0,0,0
on,cbmc,classification,3,4932,false,86.66722972972973,0,0,0
on,cbmc,classification,4,4932,false,89.81081081081081,0,0,0
on,cbmc,classification,5,4932,false,86.77702702702703,0,0,0
on,jbmc,classification,1,4932,false,81.43068441575905,0,0,0
on,jbmc,classification,2,4932,false,83.42073416700282,0,0,0
on,jbmc,classification,3,4932,false,80.63735377168213,0,0,0
on,jbmc,classification,4,4932,false,81.48981121788319,0,0,0
on,jbmc,classification,5,4932,false,83.99781912356028,0,0,0
on,jayhorn,classification,1,4932,false,73.0202965611526,0,0,0
on,jayhorn,classification,2,4932,false,77.42139026185719,0,0,0
on,jayhorn,classification,3,4932,false,75.84919549900094,0,0,0
on,jayhorn,classification,4,4932,false,74.46831192367145,0,0,0
on,jayhorn,classification,5,4932,false,77.5545013592026,0,0,0
off,cbmc,regression,1,4573,true,18.68691078209972,37.256476421088514,42.77023754907833,80.13868387144925
off,cbmc,regression,2,4573,true,18.72752424343817,35.94749816115732,43.992968377566,78.36359414176403
off,cbmc,regression,3,4573,true,18.855194394027812,36.76394178566205,41.60833523782326,77.70256907606615
off,cbmc,regression,4,4573,true,15.935626455487562,32.85035828599888,35.99761564755777,70.25415687752096
off,cbmc,regression,5,4573,true,20.70820656041139,37.83090148298504,47.355622861982596,81.35470794944901
off,jbmc,regression,1,4573,true,27.92048073611754,47.877130191356734,62.410961400538895,101.41582266789777
off,jbmc,regression,2,4573,true,24.557552726627897,44.07962558459267,53.301235483914624,92.03840737292597
off,jbmc,regression,3,4573,true,27.500269564032394,46.77729541616148,59.58281703629157,97.56043039196986
off,jbmc,regression,4,4573,true,25.429991510680175,44.30246090159608,54.37276330230674,91.81992945188432
off,jbmc,regression,5,4573,true,25.407483756061865,44.085269219216336,54.42542270309407,91.44849958073402
off,jayhorn,regression,1,4573,true,17.795201616602554,39.625211784658255,86.22182769498296,124.14131179518466
off,jayhorn,regression,2,4573,true,13.699601144153657,34.663443338469605,53.21643150878006,97.24657385865132
off,jayhorn,regression,3,4573,true,14.353918595939014,35.733815994262876,63.20940464011436,106.7810858789232
off,jayhorn,regression,4,4573,true,16.39129485794349,37.93612799171048,71.78547685282862,113.00386392468492
off,jayhorn,regression,5,4573,true,19.003081209168833,41.1110606581743,70.95630207312423,113.1077708345595
off,cbmc,classification,1,4573,true,81.8871483638153,0,0,0
off,cbmc,classification,2,4573,true,80.86451664214419,0,0,0
off,cbmc,classification,3,4573,true,82.15808591282375,0,0,0
off,cbmc,classification,4,4573,true,86.6902237926973,0,0,0
off,cbmc,classification,5,4573,true,81.82007323568575,0,0,0
off,jbmc,classification,1,4573,true,65.51600786979074,0,0,0
off,jbmc,classification,2,4573,true,72.58775798200741,0,0,0
off,jbmc,classification,3,4573,true,67.02533842415828,0,0,0
off,jbmc,classification,4,4573,true,66.32506292700467,0,0,0
off,jbmc,classification,5,4573,true,71.80560611576265,0,0,0
off,jayhorn,classification,1,4573,true,69.66717095310136,0,0,0
off,jayhorn,classification,2,4573,true,73.74451831942284,0,0,0
off,jayhorn,classification,3,4573,true,66.02322661644695,0,0,0
off,jayhorn,classification,4,4573,true,67.53165546349852,0,0,0
off,jayhorn,classification,5,4573,true,66.97231211794319,0,0,0
on,cbmc,regression,1,4573,true,21.669643673792663,36.99749913269002,49.59705851540726,79.58162370262703
on,cbmc,regression,2,4573,true,21.66621126123514,35.58111792238619,50.896260204343584,77.56490511467489
on,cbmc,regression,3,4573,true,22.930059705906775,37.70946888675732,50.600465385223906,79.70099147904149
on,cbmc,regression,4,4573,true,19.112986178025537,33.170805378397986,43.175078948761474,70.93946874244351
on,cbmc,regression,5,4573,true,21.529295733591322,35.36896150045565,49.2332933936017,76.06034803688298
on,jbmc,regression,1,4573,true,34.88176301083148,49.197118698109314,77.971593162277,104.21189084887345
on,jbmc,regression,2,4573,true,31.977634954698253,45.31653514346292,69.40624214117594,94.62107871717983
on,jbmc,regression,3,4573,true,31.230036685668594,45.882069104096175,67.6638298961466,95.69331380204552
on,jbmc,regression,4,4573,true,30.60643920356958,43.41364466433804,65.44070900075653,89.9777960231794
on,jbmc,regression,5,4573,true,31.299312354488315,44.6568200916639,67.04632074409082,92.63409900306003
on,jayhorn,regression,1,4573,true,20.88188262893687,39.431846321535126,101.17750418175919,123.53551964501419
on,jayhorn,regression,2,4573,true,16.561532453051356,35.02509788378374,64.33367279779254,98.26117777750598
on,jayhorn,regression,3,4573,true,19.622458593222927,37.70725850870671,86.41012675129893,112.67819842480347
on,jayhorn,regression,4,4573,true,18.581574185988696,37.010932060389436,81.37777858171991,110.24789697018919
on,jayhorn,regression,5,4573,true,19.990548095467958,38.028678167411094,74.64344090604366,104.6272936391753
on,cbmc,classification,1,4573,true,81.8871483638153,0,0,0
on,cbmc,classification,2,4573,true,80.86451664214419,0,0,0
on,cbmc,classification,3,4573,true,82.15808591282375,0,0,0
on,cbmc,classification,4,4573,true,86.6902237926973,0,0,0
on,cbmc,classification,5,4573,true,81.82007323568575,0,0,0
on,jbmc,classification,1,4573,true,65.51600786979074,0,0,0
on,jbmc,classification,2,4573,true,72.58775798200741,0,0,0
on,jbmc,classification,3,4573,true,67.02533842415828,0,0,0
on,jbmc,classification,4,4573,true,66.32506292700467,0,0,0
on,jbmc,classification,5,4573,true,71.80560611576265,0,0,0
on,jayhorn,classification,1,4573,true,69.66717095310136,0,0,0
on,jayhorn,classification,2,4573,true,73.74451831942284,0,0,0
on,jayhorn,classification,3,4573,true,66.02322661644695,0,0,0
on,jayhorn,classification,4,4573,true,67.53165546349852,0,0,0
on,jayhorn,classification,5,4573,true,66.97231211794319,0,0,0
off,cbmc,regression,1,2348,true,18.330587867835952,36.914548823323585,41.95469260080151,79.40319758030074
off,cbmc,regression,2,2348,true,18.95738764699622,36.26698438996152,44.53294223168781,79.06005677334008
off,cbmc,regression,3,2348,true,18.76166103049673,36.98701715241659,41.40193229843192,78.174050866443
off,cbmc,regression,4,2348,true,15.409704656966875,31.939855010928955,34.809590136499146,68.30694402317829
off,cbmc,regression,5,2348,true,20.778518350199572,38.119754044339146,47.51641218916294,81.97588045256747
off,jbmc,regression,1,2348,true,29.50675967565427,48.14613199476415,65.95678837255977,101.98563625285311
off,jbmc,regression,2,2348,true,25.566721281847947,45.10502454651528,55.49159750424824,94.17944387506441
off,jbmc,regression,3,2348,true,27.4824578119326,46.819765301099544,59.5442256194334,97.64900713024412
off,jbmc,regression,4,2348,true,26.165202341457196,44.5939607451506,55.944743554928614,92.42408313828705
off,jbmc,regression,5,2348,true,25.996873490910776,45.019034479712914,55.68795565456602,93.38546023778281
off,jayhorn,regression,1,2348,true,22.55606251993112,45.21214113261655,109.28928921245168,141.64453024942873
off,jayhorn,regression,2,2348,true,17.035889062412572,38.13441383803283,66.17632250322437,106.98420972335988
off,jayhorn,regression,3,2348,true,13.338362075631371,34.34066877343255,58.73726537041043,102.61803279068458
off,jayhorn,regression,4,2348,true,14.429267061720203,34.73306661482738,63.192799936755875,103.4626078414388
off,jayhorn,regression,5,2348,true,15.739115667915462,36.91953208274357,58.76886139694073,101.57572943338344
off,cbmc,classification,1,2348,true,81.8871483638153,0,0,0
off,cbmc,classification,2,2348,true,80.86451664214419,0,0,0
off,cbmc,classification,3,2348,true,82.15808591282375,0,0,0
off,cbmc,classification,4,2348,true,86.6902237926973,0,0,0
off,cbmc,classification,5,2348,true,81.82007323568575,0,0,0
off,jbmc,classification,1,2348,true,65.51600786979074,0,0,0
off,jbmc,classification,2,2348,true,72.58775798200741,0,0,0
off,jbmc,classification,3,2348,true,67.02533842415828,0,0,0
off,jbmc,classification,4,2348,true,66.32506292700467,0,0,0
off,jbmc,classification,5,2348,true,71.80560611576265,0,0,0
off,jayhorn,classification,1,2348,true,69.66717095310136,0,0,0
off,jayhorn,classification,2,2348,true,73.74451831942284,0,0,0
off,jayhorn,classification,3,2348,true,66.02322661644695,0,0,0
off,jayhorn,classification,4,2348,true,67.53165546349852,0,0,0
off,jayhorn,classification,5,2348,true,66.97231211794319,0,0,0
on,cbmc,regression,1,2348,true,21.483137347159172,36.91734481846146,49.17018646643481,79.4092117660742
on,cbmc,regression,2,2348,true,21.89897586213332,36.06046816691346,51.44304928300775,78.60986262035408
on,cbmc,regression,3,2348,true,22.522572836703375,36.93484578532572,49.701251624574674,78.06378387497602
on,cbmc,regression,4,2348,true,19.01262039262327,32.77470897503823,42.948358714249956,70.09237238452896
on,cbmc,regression,5,2348,true,21.58014104442251,35.34108144138086,49.34956668636599,76.00039244569352
on,jbmc,regression,1,2348,true,35.048060767690465,48.60305823725308,78.34332038941234,102.95352114059294
on,jbmc,regression,2,2348,true,32.316693310507475,45.40905827500507,70.14215542483879,94.81426732891049
on,jbmc,regression,3,2348,true,31.127084260325066,45.43528281125809,67.4407704272784,94.76148004306646
on,jbmc,regression,4,2348,true,29.968042338586958,42.29491817871368,64.07573010888169,87.65915762487133
on,jbmc,regression,5,2348,true,31.41954037238738,44.42033946526128,67.30386142610938,92.14355422818531
on,jayhorn,regression,1,2348,true,21.757460231344044,41.40409179370002,105.41987821015475,129.7143418914976
on,jayhorn,regression,2,2348,true,16.117286648882775,34.778046878507446,62.60798924234909,97.5680884154116
on,jayhorn,regression,3,2348,true,18.843656901191803,36.93069000169136,82.98056910423743,110.3576282273248
on,jayhorn,regression,4,2348,true,14.006689324862815,30.215875285029533,61.34212586795307,90.00683095071909
on,jayhorn,regression,5,2348,true,19.431314605395464,37.542508449370445,72.55529846144655,103.28970778820285
on,cbmc,classification,1,2348,true,81.8871483638153,0,0,0
on,cbmc,classification,2,2348,true,80.86451664214419,0,0,0
on,cbmc,classification,3,2348,true,82.15808591282375,0,0,0
on,cbmc,classification,4,2348,true,86.6902237926973,0,0,0
on,cbmc,classification,5,2348,true,81.82007323568575,0,0,0
on,jbmc,classification,1,2348,true,65.51600786979074,0,0,0
on,jbmc,classification,2,2348,true,72.58775798200741,0,0,0
on,jbmc,classification,3,2348,true,67.02533842415828,0,0,0
on,jbmc,classification,4,2348,true,66.32506292700467,0,0,0
on,jbmc,classification,5,2348,true,71.80560611576265,0,0,0
on,jayhorn,classification,1,2348,true,69.66717095310136,0,0,0
on,jayhorn,classification,2,2348,true,73.74451831942284,0,0,0
on,jayhorn,classification,3,2348,true,66.02322661644695,0,0,0
on,jayhorn,classification,4,2348,true,67.53165546349852,0,0,0
on,jayhorn,classification,5,2348,true,66.97231211794319,0,0,0
off,cbmc,regression,1,1037,true,18.90005017768395,37.664186534427934,43.258066847698245,81.01566835905383
off,cbmc,regression,2,1037,true,19.332129821061386,36.88661694412562,45.413251897775446,80.41082209708681
off,cbmc,regression,3,1037,true,19.092606125971265,37.047867462325016,42.132238981569564,78.30266127053201
off,cbmc,regression,4,1037,true,16.142882577702093,32.86555026710647,36.465794683312765,70.28664662435175
off,cbmc,regression,5,1037,true,20.985598354321223,38.69285971246484,47.9899637035751,83.20833441022717
off,jbmc,regression,1,1037,true,28.82289791605517,48.71549495054184,64.42814456857134,103.19169042372832
off,jbmc,regression,2,1037,true,22.993277007882362,42.36330396084964,49.90603444842144,88.45472201503043
off,jbmc,regression,3,1037,true,27.425920682774716,46.39637185287578,59.42173076844557,96.7659623396815
off,jbmc,regression,4,1037,true,26.140482872365514,43.92691560612556,55.89188998471345,91.04158572482405
off,jbmc,regression,5,1037,true,25.479981391125865,44.6615323164463,54.58072003482577,92.64387383020002
off,jayhorn,regression,1,1037,true,22.379770744228722,44.98480909119219,108.43511518081422,140.93232464687281
off,jayhorn,regression,2,1037,true,17.2598980814178,38.8482393603714,67.0464909476778,108.9868118798297
off,jayhorn,regression,3,1037,true,15.169148222670701,36.71432729699129,66.7993775806932,109.71108534046145
off,jayhorn,regression,4,1037,true,17.29972794652372,38.57327476841559,75.76394853659662,114.90179213893411
off,jayhorn,regression,5,1037,true,16.23319008904341,36.918502410889985,60.61370400358305,101.5728965245218
off,cbmc,classification,1,1037,true,81.8871483638153,0,0,0
off,cbmc,classification,2,1037,true,80.86451664214419,0,0,0
off,cbmc,classification,3,1037,true,82.15808591282375,0,0,0
off,cbmc,classification,4,1037,true,86.6902237926973,0,0,0
off,cbmc,classification,5,1037,true,81.82007323568575,0,0,0
off,jbmc,classification,1,1037,true,65.51600786979074,0,0,0
off,jbmc,classification,2,1037,true,72.58775798200741,0,0,0
off,jbmc,classification,3,1037,true,67.02533842415828,0,0,0
off,jbmc,classification,4,1037,true,66.32506292700467,0,0,0
off,jbmc,classification,5,1037,true,71.80560611576265,0,0,0
off,jayhorn,classification,1,1037,true,69.66717095310136,0,0,0
off,jayhorn,classification,2,1037,true,73.74451831942284,0,0,0
off,jayhorn,classification,3,1037,true,66.02322661644695,0,0,0
off,jayhorn,classification,4,1037,true,67.53165546349852,0,0,0
off,jayhorn,classification,5,1037,true,66.97231211794319,0,0,0
on,cbmc,regression,1,1037,true,21.391880371258075,36.787051556072306,48.96131927683816,79.12895094786987
on,cbmc,regression,2,1037,true,21.868380419788576,35.92697991890469,51.371177298752194,78.318865487737
on,cbmc,regression,3,1037,true,22.21743798473791,36.66231416643419,49.02790119667645,77.48777363467613
on,cbmc,regression,4,1037,true,19.008187778758735,33.05083843935584,42.938345707817156,70.68290605651461
on,cbmc,regression,5,1037,true,21.11650985490961,35.04121953204338,48.28933273063568,75.35554452764201
on,jbmc,regression,1,1037,true,34.82187264430099,49.4820783938395,77.83771955927118,104.815507269786
on,jbmc,regression,2,1037,true,31.16224574391377,44.26001778253002,67.63647082809464,92.41506689261251
on,jbmc,regression,3,1037,true,32.72613451685634,46.047280051441206,70.90531533455265,96.0378837688435
on,jbmc,regression,4,1037,true,30.525572900382503,43.3304145573702,65.26780590086848,89.80529584159729
on,jbmc,regression,5,1037,true,31.295349906348086,44.94559851076108,67.03783277585903,93.23312796682606
on,jayhorn,regression,1,1037,true,19.151986286438184,38.13246087444706,92.79576018207645,119.46469183958304
on,jayhorn,regression,2,1037,true,16.43137926218077,34.76353291765218,63.828089584476174,97.52737021691897
on,jayhorn,regression,3,1037,true,19.846004588482163,38.38155445797662,87.39454150714239,114.693154053342
on,jayhorn,regression,4,1037,true,14.501639987925525,30.985520972072557,63.5097562885212,92.29944596160885
on,jayhorn,regression,5,1037,true,21.024960336124344,39.54549488861735,78.50587071983291,108.80047125496888
on,cbmc,classification,1,1037,true,81.8871483638153,0,0,0
on,cbmc,classification,2,1037,true,80.86451664214419,0,0,0
on,cbmc,classification,3,1037,true,82.15808591282375,0,0,0
on,cbmc,classification,4,1037,true,86.6902237926973,0,0,0
on,cbmc,classification,5,1037,true,81.82007323568575,0,0,0
on,jbmc,classification,1,1037,true,65.51600786979074,0,0,0
on,jbmc,classification,2,1037,true,72.58775798200741,0,0,0
on,jbmc,classification,3,1037,true,67.02533842415828,0,0,0
on,jbmc,classification,4,1037,true,66.32506292700467,0,0,0
on,jbmc,classification,5,1037,true,71.80560611576265,0,0,0
on,jayhorn,classification,1,1037,true,69.66717095310136,0,0,0
on,jayhorn,classification,2,1037,true,73.74451831942284,0,0,0
on,jayhorn,classification,3,1037,true,66.02322661644695,0,0,0
on,jayhorn,classification,4,1037,true,67.53165546349852,0,0,0
on,jayhorn,classification,5,1037,true,66.97231211794319,0,0,0
off,cbmc,regression,1,4352,true,18.751457343147944,37.334987454367706,42.91797046123271,80.30756111054372
off,cbmc,regression,2,4352,true,19.149496220913438,36.33788453383663,44.984225930885835,79.21461523730643
off,cbmc,regression,3,4352,true,18.89165371564407,36.95107390784012,41.68879114003519,78.09808288507679
off,cbmc,regression,4,4352,true,15.922410419102604,32.7127805384926,35.967761421274375,69.95993151254886
off,cbmc,regression,5,4352,true,20.91789380055281,38.240018561291365,47.83513661582405,82.23450724362424
off,jbmc,regression,1,4352,true,28.193243522298165,46.68275172045458,63.02067109288676,98.88582818578833
off,jbmc,regression,2,4352,true,23.40961748940034,42.255400245519766,50.8096856507179,88.22941869230769
off,jbmc,regression,3,4352,true,28.07767858948881,47.66659892271453,60.83384682124574,99.4151941630798
off,jbmc,regression,4,4352,true,24.88918090969383,43.92241960095813,53.216437049250025,91.03226744162065
off,jbmc,regression,5,4352,true,25.276131648740897,44.18167552576101,54.14405308646762,91.6484804868229
off,jayhorn,regression,1,4352,true,25.315758298499574,47.59848148809335,122.66064734802359,149.12066498224985
off,jayhorn,regression,2,4352,true,17.676921840993213,39.38076518168229,68.66642981344907,110.48078670247162
off,jayhorn,regression,3,4352,true,14.265601122520263,35.22505393718302,62.82048680720302,105.26078463492216
off,jayhorn,regression,4,4352,true,13.612858050889102,33.96160132628149,59.61734658438968,101.16457261474125
off,jayhorn,regression,5,4352,true,17.479378192141365,39.18550510289098,65.26689147934292,107.81004090520791
off,cbmc,classification,1,4352,true,81.8871483638153,0,0,0
off,cbmc,classification,2,4352,true,80.86451664214419,0,0,0
off,cbmc,classification,3,4352,true,82.15808591282375,0,0,0
off,cbmc,classification,4,4352,true,86.6902237926973,0,0,0
off,cbmc,classification,5,4352,true,81.82007323568575,0,0,0
off,jbmc,classification,1,4352,true,65.51600786979074,0,0,0
off,jbmc,classification,2,4352,true,72.58775798200741,0,0,0
off,jbmc,classification,3,4352,true,67.02533842415828,0,0,0
off,jbmc,classification,4,4352,true,66.32506292700467,0,0,0
off,jbmc,classification,5,4352,true,71.80560611576265,0,0,0
off,jayhorn,classification,1,4352,true,69.66717095310136,0,0,0
off,jayhorn,classification,2,4352,true,73.74451831942284,0,0,0
off,jayhorn,classification,3,4352,true,66.02322661644695,0,0,0
off,jayhorn,classification,4,4352,true,67.53165546349852,0,0,0
off,jayhorn,classification,5,4352,true,66.97231211794319,0,0,0
on,cbmc,regression,1,4352,true,21.15368433239252,36.616469543280544,48.41614082094869,78.76202902420839
on,cbmc,regression,2,4352,true,21.784568028015148,35.82876987003843,51.17429297741812,78.10477291374211
on,cbmc,regression,3,4352,true,23.125283235864185,37.36551007310461,51.0312711308996,78.97401601941885
on,cbmc,regression,4,4352,true,18.905899789388002,32.77493538665905,42.70728333088367,70.09285659104475
on,cbmc,regression,5,4352,true,21.28810365248371,35.313068868473,48.68173422323567,75.94015188576776
on,jbmc,regression,1,4352,true,34.387721391435996,48.293583662042494,76.8672564307656,102.2979760292979
on,jbmc,regression,2,4352,true,31.93726830611288,44.56377659167164,69.31862786356868,93.04931631392937
on,jbmc,regression,3,4352,true,30.780471340263883,44.18294654683593,66.68978963596894,92.14956193481504
on,jbmc,regression,4,4352,true,30.675881544838383,41.78754407156992,65.58918612405328,86.60758952288414
on,jbmc,regression,5,4352,true,31.36166311761041,44.30400122589097,67.17988244076889,91.90222741715063
on,jayhorn,regression,1,4352,true,19.32391222773057,38.11966387832827,93.62878074603452,119.42460029650542
on,jayhorn,regression,2,4352,true,15.9192766078069,34.67999390813625,61.838814455573505,97.29300566231763
on,jayhorn,regression,3,4352,true,21.02148568384096,39.83941227091019,92.57093008052891,119.04957768151291
on,jayhorn,regression,4,4352,true,18.5752750369175,37.644007973888655,81.35019153482936,112.13369892653786
on,jayhorn,regression,5,4352,true,19.03694031941039,37.3438201707301,71.08272984700902,102.74306199682269
on,cbmc,classification,1,4352,true,81.8871483638153,0,0,0
on,cbmc,classification,2,4352,true,80.86451664214419,0,0,0
on,cbmc,classification,3,4352,true,82.15808591282375,0,0,0
on,cbmc,classification,4,4352,true,86.6902237926973,0,0,0
on,cbmc,classification,5,4352,true,81.82007323568575,0,0,0
on,jbmc,classification,1,4352,true,65.51600786979074,0,0,0
on,jbmc,classification,2,4352,true,72.58775798200741,0,0,0
on,jbmc,classification,3,4352,true,67.02533842415828,0,0,0
on,jbmc,classification,4,4352,true,66.32506292700467,0,0,0
on,jbmc,classification,5,4352,true,71.80560611576265,0,0,0
on,jayhorn,classification,1,4352,true,69.66717095310136,0,0,0
on,jayhorn,classification,2,4352,true,73.74451831942284,0,0,0
on,jayhorn,classification,3,4352,true,66.02322661644695,0,0,0
on,jayhorn,classification,4,4352,true,67.53165546349852,0,0,0
on,jayhorn,classification,5,4352,true,66.97231211794319,0,0,0
off,cbmc,regression,1,6732,true,18.771738241154946,37.40866273846347,42.96438898570595,80.46603665274361
off,cbmc,regression,2,6732,true,19.620506381369452,37.11473605314435,46.09067944951973,80.908109368512
off,cbmc,regression,3,6732,true,19.388675494813253,37.3747307914796,42.78558433007099,78.99350450383221
off,cbmc,regression,4,6732,true,16.409816187880857,33.638281908143874,37.06878155235557,71.93921946575067
off,cbmc,regression,5,6732,true,20.699364818677882,38.296218594961765,47.33540352595494,82.35536445682231
off,jbmc,regression,1,6732,true,28.92017058704417,48.588265534617086,64.64557925287349,102.92218646992
off,jbmc,regression,2,6732,true,24.04032132494891,42.219958185610025,52.1786043713008,88.15541555129079
off,jbmc,regression,3,6732,true,27.56095571644197,47.33964473025198,59.7143012716456,98.73328659550197
off,jbmc,regression,4,6732,true,25.727674453016963,44.519166170124535,55.009249718592585,92.26906618296414
off,jbmc,regression,5,6732,true,25.356492442422738,44.64894719031483,54.31619410629005,92.6177678106125
off,jayhorn,regression,1,6732,true,23.053647621529315,45.25581009466085,111.70020299797254,141.78134017393776
off,jayhorn,regression,2,6732,true,17.381046115021945,38.44013641497091,67.51709341010567,107.8418992745151
off,jayhorn,regression,3,6732,true,14.202980595070825,35.632833038271436,62.544728920471734,106.47932494474922
off,jayhorn,regression,4,6732,true,14.440278709246316,35.432601771755785,63.24102531342367,105.54637811186133
off,jayhorn,regression,5,6732,true,18.35481172469516,40.10085068467112,68.53570486266193,110.32840692741436
off,cbmc,classification,1,6732,true,81.8871483638153,0,0,0
off,cbmc,classification,2,6732,true,80.86451664214419,0,0,0
off,cbmc,classification,3,6732,true,82.15808591282375,0,0,0
off,cbmc,classification,4,6732,true,86.6902237926973,0,0,0
off,cbmc,classification,5,6732,true,81.82007323568575,0,0,0
off,jbmc,classification,1,6732,true,65.51600786979074,0,0,0
off,jbmc,classification,2,6732,true,72.58775798200741,0,0,0
off,jbmc,classification,3,6732,true,67.02533842415828,0,0,0
off,jbmc,classification,4,6732,true,66.32506292700467,0,0,0
off,jbmc,classification,5,6732,true,71.80560611576265,0,0,0
off,jayhorn,classification,1,6732,true,69.66717095310136,0,0,0
off,jayhorn,classification,2,6732,true,73.74451831942284,0,0,0
off,jayhorn,classification,3,6732,true,66.02322661644695,0,0,0
off,jayhorn,classification,4,6732,true,67.53165546349852,0,0,0
off,jayhorn,classification,5,6732,true,66.97231211794319,0,0,0
on,cbmc,regression,1,6732,true,21.50257353100787,36.90492319411063,49.21467162558977,79.38249285106542
on,cbmc,regression,2,6732,true,21.82536665679973,35.82501057172339,51.27013334385615,78.09657784753482
on,cbmc,regression,3,6732,true,23.17090014744641,37.70773538486499,51.13193536750001,79.69732762951965
on,cbmc,regression,4,6732,true,19.01740008788324,32.87389033287623,42.959155756547695,70.30448278564583
on,cbmc,regression,5,6732,true,21.169265948362156,34.823414113986594,48.40997560996577,74.88715769356705
on,jbmc,regression,1,6732,true,35.99414374159863,49.71159521886203,80.4581101927952,105.30168172370065
on,jbmc,regression,2,6732,true,31.54056270795679,45.216275968214354,68.45759342986564,94.41173722001369
on,jbmc,regression,3,6732,true,31.204754424008346,44.57016109234229,67.60905267415397,92.95715068866548
on,jbmc,regression,4,6732,true,30.21118607448279,43.01625573304192,64.59560432098083,89.15417984263323
on,jbmc,regression,5,6732,true,31.27210879338849,43.652086568834754,66.98804794045144,90.54992497467187
on,jayhorn,regression,1,6732,true,18.439400780667253,37.25973933638181,89.34312019404726,116.7305538580347
on,jayhorn,regression,2,6732,true,15.135351056965906,33.69933713736939,58.79363672044538,94.54182165104748
on,jayhorn,regression,3,6732,true,20.224667096363405,39.49479508032776,89.06203261925428,118.01978008506133
on,jayhorn,regression,4,6732,true,14.975810318252858,32.247423184449985,65.58637949413179,96.05839115298204
on,jayhorn,regression,5,6732,true,18.528074622838503,37.32091007574139,69.18265755435449,102.68003006010555
on,cbmc,classification,1,6732,true,81.8871483638153,0,0,0
on,cbmc,classification,2,6732,true,80.86451664214419,0,0,0
on,cbmc,classification,3,6732,true,82.15808591282375,0,0,0
on,cbmc,classification,4,6732,true,86.6902237926973,0,0,0
on,cbmc,classification,5,6732,true,81.82007323568575,0,0,0
on,jbmc,classification,1,6732,true,65.51600786979074,0,0,0
on,jbmc,classification,2,6732,true,72.58775798200741,0,0,0
on,jbmc,classification,3,6732,true,67.02533842415828,0,0,0
on,jbmc,classification,4,6732,true,66.32506292700467,0,0,0
on,jbmc,classification,5,6732,true,71.80560611576265,0,0,0
on,jayhorn,classification,1,6732,true,69.66717095310136,0,0,0
on,jayhorn,classification,2,6732,true,73.74451831942284,0,0,0
on,jayhorn,classification,3,6732,true,66.02322661644695,0,0,0
on,jayhorn,classification,4,6732,true,67.53165546349852,0,0,0
on,jayhorn,classification,5,6732,true,66.97231211794319,0,0,0
off,cbmc,regression,1,9671,true,18.838469334452896,37.548560065055895,43.11712181273892,80.76695581384564
off,cbmc,regression,2,9671,true,19.833703429216797,37.219207032854285,46.591502241802324,81.13585043179489
off,cbmc,regression,3,9671,true,18.92821088786223,36.843210710855665,41.769462972168725,77.87010821458814
off,cbmc,regression,4,9671,true,16.70425463590821,33.86214759902887,37.73390018534801,72.41798122627712
off,cbmc,regression,5,9671,true,21.239683074975915,38.766305848128816,48.571005821887674,83.36627907140968
off,jbmc,regression,1,9671,true,28.77177731705381,48.54446000334403,64.31387412454855,102.82939531945412
off,jbmc,regression,2,9671,true,25.084788816514838,43.52765992228953,54.445581392300305,90.88590120234996
off,jbmc,regression,3,9671,true,26.89931144398202,45.187351687107544,58.28076515530685,94.24438586383918
off,jbmc,regression,4,9671,true,25.732584910886043,43.466884249344865,55.01974894205121,90.08813876351233
off,jbmc,regression,5,9671,true,25.220478892170046,43.64202055842197,54.02483920326526,90.52904449542527
off,jayhorn,regression,1,9671,true,22.694422898524696,45.2518212303044,109.95967693718404,141.76884351255777
off,jayhorn,regression,2,9671,true,15.346251615120332,36.776221582032214,59.61288503213642,103.17386860266603
off,jayhorn,regression,3,9671,true,15.553429068683375,37.272202351973355,68.49160979788947,111.37814782730342
off,jayhorn,regression,4,9671,true,17.687613342398766,39.145890109908315,77.4626879192052,116.60749458029478
off,jayhorn,regression,5,9671,true,16.035381034860833,37.45370917055421,59.87509751935639,103.04539668754475
off,cbmc,classification,1,9671,true,81.8871483638153,0,0,0
off,cbmc,classification,2,9671,true,80.86451664214419,0,0,0
off,cbmc,classification,3,9671,true,82.15808591282375,0,0,0
off,cbmc,classification,4,9671,true,86.6902237926973,0,0,0
off,cbmc,classification,5,9671,true,81.82007323568575,0,0,0
off,jbmc,classification,1,9671,true,65.51600786979074,0,0,0
off,jbmc,classification,2,9671,true,72.58775798200741,0,0,0
off,jbmc,classification,3,9671,true,67.02533842415828,0,0,0
off,jbmc,classification,4,9671,true,66.32506292700467,0,0,0
off,jbmc,classification,5,9671,true,71.80560611576265,0,0,0
off,jayhorn,classification,1,9671,true,69.66717095310136,0,0,0
off,jayhorn,classification,2,9671,true,73.74451831942284,0,0,0
off,jayhorn,classification,3,9671,true,66.02322661644695,0,0,0
off,jayhorn,classification,4,9671,true,67.53165546349852,0,0,0
off,jayhorn,classification,5,9671,true,66.97231211794319,0,0,0
on,cbmc,regression,1,9671,true,21.292651294700306,36.573746892114755,48.73420569848166,78.67013259800777
on,cbmc,regression,2,9671,true,21.68758432093319,35.75809564636371,50.94646782000093,77.95070694354577
on,cbmc,regression,3,9671,true,22.547781373806398,37.057116089326804,49.75688007585014,78.32220874132976
on,cbmc,regression,4,9671,true,19.128531379544043,33.17556457506431,43.210194618107145,70.94964681558037
on,cbmc,regression,5,9671,true,21.58845522197808,35.55610782803588,49.36857958618329,76.46280302017091
on,jbmc,regression,1,9671,true,34.858801216126025,48.650685535674654,77.92026640696095,103.05440775663631
on,jbmc,regression,2,9671,true,31.72446398388968,45.6307207119513,68.85674416460733,95.27709924729375
on,jbmc,regression,3,9671,true,30.35309184580561,45.371964077988935,65.76381783179887,94.6294201876461
on,jbmc,regression,4,9671,true,29.66986358186698,42.60988906843901,63.43818357434579,88.31195668581321
on,jbmc,regression,5,9671,true,31.17415319221044,44.79225573549675,66.77821704765479,92.91504061093994
on,jayhorn,regression,1,9671,true,19.871736844259356,38.839463869538584,96.28311648839252,121.67965234833086
on,jayhorn,regression,2,9671,true,15.644421429256,33.65597978075551,60.77113287635983,94.42018473399061
on,jayhorn,regression,3,9671,true,18.386051536780524,37.21827124504924,80.96544254132499,111.21698893621453
on,jayhorn,regression,4,9671,true,17.293540380213624,35.80209797209176,75.73685016505377,106.64703072333973
on,jayhorn,regression,5,9671,true,18.082723609325342,36.01843309828632,67.51974506686983,99.09655969654087
on,cbmc,classification,1,9671,true,81.8871483638153,0,0,0
on,cbmc,classification,2,9671,true,80.86451664214419,0,0,0
on,cbmc,classification,3,9671,true,82.15808591282375,0,0,0
on,cbmc,classification,4,9671,true,86.6902237926973,0,0,0
on,cbmc,classification,5,9671,true,81.82007323568575,0,0,0
on,jbmc,classification,1,9671,true,65.51600786979074,0,0,0
on,jbmc,classification,2,9671,true,72.58775798200741,0,0,0
on,jbmc,classification,3,9671,true,67.02533842415828,0,0,0
on,jbmc,classification,4,9671,true,66.32506292700467,0,0,0
on,jbmc,classification,5,9671,true,71.80560611576265,0,0,0
on,jayhorn,classification,1,9671,true,69.66717095310136,0,0,0
on,jayhorn,classification,2,9671,true,73.74451831942284,0,0,0
on,jayhorn,classification,3,9671,true,66.02322661644695,0,0,0
on,jayhorn,classification,4,9671,true,67.53165546349852,0,0,0
on,jayhorn,classification,5,9671,true,66.97231211794319,0,0,0
off,cbmc,regression,1,4932,true,18.540702937004884,37.226144767996274,42.43559988000812,80.07344048313243
off,cbmc,regression,2,4932,true,18.70046175413802,36.13563824058168,43.92939567994063,78.77372929942405
off,cbmc,regression,3,4932,true,19.268298998739606,37.62826819903363,42.5199458275598,79.52936945647221
off,cbmc,regression,4,4932,true,16.506580868712195,33.72171498420085,37.28736710960084,72.11765040897053
off,cbmc,regression,5,4932,true,20.601601205534724,37.937428889235086,47.111837241732005,81.58379331840281
off,jbmc,regression,1,4932,true,29.34165747616202,48.585688394257595,65.58773358811526,102.9167274374207
off,jbmc,regression,2,4932,true,25.669039853782753,44.701654280802664,55.71367607851762,93.3372053953719
off,jbmc,regression,3,4932,true,27.03573340786828,46.71760933349742,58.57634061848696,97.43594692490939
off,jbmc,regression,4,4932,true,27.03789667758913,46.121573490748936,57.81068214770545,95.5901667299456
off,jbmc,regression,5,4932,true,25.21984752409071,44.157201897305924,54.023486748416566,91.59771349274183
off,jayhorn,regression,1,4932,true,22.34735585231315,44.51587210890748,108.27805760508615,139.46319806033333
off,jayhorn,regression,2,4932,true,18.874449883224607,41.0693650718063,73.3182564154554,115.21807007992575
off,jayhorn,regression,3,4932,true,12.789886409987288,33.33613630632285,56.32197925510798,99.61625241391684
off,jayhorn,regression,4,4932,true,16.095422421521693,36.88639639128513,70.48970710917997,109.8769310189907
off,jayhorn,regression,5,4932,true,17.13072643305247,38.680030407172616,63.96504788545765,106.41934178116054
off,cbmc,classification,1,4932,true,81.8871483638153,0,0,0
off,cbmc,classification,2,4932,true,80.86451664214419,0,0,0
off,cbmc,classification,3,4932,true,82.15808591282375,0,0,0
off,cbmc,classification,4,4932,true,86.6902237926973,0,0,0
off,cbmc,classification,5,4932,true,81.82007323568575,0,0,0
off,jbmc,classification,1,4932,true,65.51600786979074,0,0,0
off,jbmc,classification,2,4932,true,72.58775798200741,0,0,0
off,jbmc,classification,3,4932,true,67.02533842415828,0,0,0
off,jbmc,classification,4,4932,true,66.32506292700467,0,0,0
off,jbmc,classification,5,4932,true,71.80560611576265,0,0,0
off,jayhorn,classification,1,4932,true,69.66717095310136,0,0,0
off,jayhorn,classification,2,4932,true,73.74451831942284,0,0,0
off,jayhorn,classification,3,4932,true,66.02322661644695,0,0,0
off,jayhorn,classification,4,4932,true,67.53165546349852,0,0,0
off,jayhorn,classification,5,4932,true,66.97231211794319,0,0,0
on,cbmc,regression,1,4932,true,21.548823117041806,37.055526284996695,49.320526777588086,79.7064401120509
on,cbmc,regression,2,4932,true,21.800521312228433,35.90547029516084,51.21176895762727,78.27197567588838
on,cbmc,regression,3,4932,true,22.53762900125871,36.832128826575214,49.73447652425604,77.84668605589214
on,cbmc,regression,4,4932,true,19.33433305133273,33.127698393693,43.67508813838183,70.84727964545971
on,cbmc,regression,5,4932,true,21.169751811599227,35.09384748671967,48.41108668427103,75.46872004593072
on,jbmc,regression,1,4932,true,34.68363513834551,47.64936528019231,77.52871572334747,100.93335920886632
on,jbmc,regression,2,4932,true,32.143059377467836,45.33793450371907,69.76528956788762,94.66576065380372
on,jbmc,regression,3,4932,true,30.856439531735845,45.01812164720505,66.8543843444867,93.89143353127585
on,jbmc,regression,4,4932,true,31.070155536676186,43.30936446293121,66.43219727588355,89.76166805779005
on,jbmc,regression,5,4932,true,31.877847426021408,43.91825677029051,68.28560189916548,91.10205646864539
on,jayhorn,regression,1,4932,true,19.076612388641813,37.85467874706496,92.43055638340553,118.59443181740639
on,jayhorn,regression,2,4932,true,15.221125085011431,33.63210376717767,59.12682800394963,94.35320176016495
on,jayhorn,regression,3,4932,true,19.039391524625337,37.568843573802,83.8425127562093,112.2645818926828
on,jayhorn,regression,4,4932,true,16.91138192542205,34.14024311441075,74.06319185139964,101.6967094823054
on,jayhorn,regression,5,4932,true,19.394394048787593,38.629848534116014,72.41743944066249,106.28127772475175
on,cbmc,classification,1,4932,true,81.8871483638153,0,0,0
on,cbmc,classification,2,4932,true,80.86451664214419,0,0,0
on,cbmc,classification,3,4932,true,82.15808591282375,0,0,0
on,cbmc,classification,4,4932,true,86.6902237926973,0,0,0
on,cbmc,classification,5,4932,true,81.82007323568575,0,0,0
on,jbmc,classification,1,4932,true,65.51600786979074,0,0,0
on,jbmc,classification,2,4932,true,72.58775798200741,0,0,0
on,jbmc,classification,3,4932,true,67.02533842415828,0,0,0
on,jbmc,classification,4,4932,true,66.32506292700467,0,0,0
on,jbmc,classification,5,4932,true,71.80560611576265,0,0,0
on,jayhorn,classification,1,4932,true,69.66717095310136,0,0,0
on,jayhorn,classification,2,4932,true,73.74451831942284,0,0,0
on,jayhorn,classification,3,4932,true,66.02322661644695,0,0,0
on,jayhorn,classification,4,4932,true,67.53165546349852,0,0,0
on,jayhorn,classification,5,4932,true,66.97231211794319,0,0,0
off,symbiotic,regression,1,4573,false,12.460574536458378,22.84460029010906,53.72239173195508,89.41446866508629
off,symbiotic,regression,1,4573,true,3.843434033065874,18.29360018826569,31.494755812491125,74.28485419452542
off,symbiotic,regression,2,4573,false,11.918847558535111,21.709382084593347,56.12489342110465,83.99690830828969
off,symbiotic,regression,2,4573,true,5.22200838330995,22.094633967181817,21.37227023202491,63.4574022008579
off,symbiotic,regression,3,4573,false,14.496061195627286,25.42758522503651,66.07344664137628,99.32903010655969
off,symbiotic,regression,3,4573,true,7.052806257863928,25.02148363780749,37.44092284457961,81.77987232487058
off,symbiotic,regression,4,4573,false,9.452465749231665,20.28844709324718,46.95185843741565,81.03318894981616
off,symbiotic,regression,4,4573,true,4.436303260949775,19.327253957685386,18.276717962902104,55.72358028074622
off,symbiotic,regression,5,4573,false,12.684896812991088,23.00690830195956,58.412799248854036,92.1087745863244
off,symbiotic,regression,5,4573,true,6.037748574678494,22.865899864178672,39.83933964632859,83.30816200151357
off,symbiotic,regression,1,2348,false,12.6034877960901,23.19276242654877,54.33854647627783,90.77718598312737
off,symbiotic,regression,1,2348,true,3.91610382403227,18.389687396901508,32.090243415957474,74.67503569024048
off,symbiotic,regression,2,2348,false,11.813199364179031,21.642844627002713,55.627404580908774,83.73946474299018
off,symbiotic,regression,2,2348,true,5.275722228839692,22.12450629475742,21.59210649761421,63.543197707063456
off,symbiotic,regression,3,2348,false,14.574766312819152,25.552678781412713,66.43218673573713,99.8176892347255
off,symbiotic,regression,3,2348,true,6.698204421344285,24.55514018865385,35.558463648018716,80.25568182188624
off,symbiotic,regression,4,2348,false,10.302019049902695,21.378558103507494,51.17172099670476,85.38715310807355
off,symbiotic,regression,4,2348,true,4.467516085903272,19.52668185011906,18.405308810944884,56.29856295539716
off,symbiotic,regression,5,2348,false,14.873257760591533,25.68318921468744,68.49000291875721,102.8233370162159
off,symbiotic,regression,5,2348,true,6.133263560603906,23.338265867472405,40.46958350602746,85.02915018742134
off,symbiotic,regression,1,1037,false,14.119076851526053,24.841836348495836,60.87284140004432,97.2317120701602
off,symbiotic,regression,1,1037,true,3.633410780780835,17.56661472968968,29.773734718137625,71.33278307478489
off,symbiotic,regression,2,1037,false,11.780703257102788,21.572079940224093,55.474383029345354,83.46566538363268
off,symbiotic,regression,2,1037,true,5.239347038843943,22.092289913588992,21.443232667228354,63.45066990776623
off,symbiotic,regression,3,1037,false,14.011334684231272,24.92575525770762,63.86404983667418,97.3687069578202
off,symbiotic,regression,3,1037,true,7.3980055850406305,25.910349229075837,39.27346735271957,84.68502837477241
off,symbiotic,regression,4,1037,false,9.796449679958345,20.467321454110614,48.66047979068928,81.74762312092376
off,symbiotic,regression,4,1037,true,5.091220227439814,21.40491629464564,20.974850164778502,61.71381481087461
off,symbiotic,regression,5,1037,false,14.0487114896306,24.485359494785342,64.69304213089289,98.0277935987692
off,symbiotic,regression,5,1037,true,5.69664623021622,22.07110963702514,37.58861787692879,80.41247395100068
off,symbiotic,regression,1,4352,false,12.704279926437684,23.364418051632203,54.773100620967384,91.4490513830597
off,symbiotic,regression,1,4352,true,3.4607776689737677,16.916950891449808,28.359104558041707,68.69469199361757
off,symbiotic,regression,2,4352,false,11.069083559910636,20.90220518042998,52.12342317646365,80.87381783324132
off,symbiotic,regression,2,4352,true,5.266110526431588,22.124572954298866,21.5527683950726,63.54338915813426
off,symbiotic,regression,3,4352,false,13.95529310987898,24.91532957827592,63.60861079549644,97.3279806121217
off,symbiotic,regression,3,4352,true,7.026584169450053,25.181193420391335,37.301718795406565,82.3018655774611
off,symbiotic,regression,4,4352,false,9.40758157774873,20.140703977460348,46.72891181994509,80.44309470738528
off,symbiotic,regression,4,4352,true,4.895377918555837,20.91368055058352,20.168017440743824,60.297503187870724
off,symbiotic,regression,5,4352,false,13.234366777176097,23.530170277158252,60.943058594625235,94.20366794142446
off,symbiotic,regression,5,4352,true,5.504264455508461,22.134931162199276,36.319210453027566,80.64499722758163
off,symbiotic,regression,1,6732,false,13.107849705405663,23.717394154267254,56.51304717748135,92.8306107129575
off,symbiotic,regression,1,6732,true,3.4402124649808523,16.851838188376686,28.19058440850391,68.43028872667064
off,symbiotic,regression,2,6732,false,12.04169129317142,22.04979940245553,56.7033546758571,85.31403479874453
off,symbiotic,regression,2,6732,true,5.229407727064007,22.11215765815723,21.40255374799106,63.50773152099609
off,symbiotic,regression,3,6732,false,13.400878537783354,23.976390025661573,61.081573888559824,93.66015473465534
off,symbiotic,regression,3,6732,true,7.2462660400908305,25.53408967491893,38.46793429435682,83.4552668328361
off,symbiotic,regression,4,6732,false,9.513293046278331,20.19579309083889,47.25399702387896,80.66312369792183
off,symbiotic,regression,4,6732,true,5.1536906521637675,21.286850232944282,21.23221632451618,61.37341137425338
off,symbiotic,regression,5,6732,false,14.182103919825899,24.518158939291027,65.30730217267225,98.15910705474855
off,symbiotic,regression,5,6732,true,5.965273462741672,23.026776929496783,39.36112155482575,83.89429124634792
off,symbiotic,regression,1,9671,false,12.752807905938933,23.338598691926535,54.98232364813185,91.34799361448256
off,symbiotic,regression,1,9671,true,3.904231964373825,18.409999478742996,31.992960278594865,74.75751699640513
off,symbiotic,regression,2,9671,false,11.37536107864617,21.492061894546133,53.56565935004425,83.15606336826302
off,symbiotic,regression,2,9671,true,5.250201187258978,22.09480701861032,21.487655765782936,63.45789921719754
off,symbiotic,regression,3,9671,false,13.599042768547038,24.367921527235485,61.9848119165245,95.18961354733133
off,symbiotic,regression,3,9671,true,7.3486489843915805,25.828752715600906,39.01145013443695,84.41833945453384
off,symbiotic,regression,4,9671,false,9.930194929494547,20.944401074106384,49.32481311804474,83.65310572457219
off,symbiotic,regression,4,9671,true,4.135828319686493,19.29791950681253,17.038818875901264,55.639004342965094
off,symbiotic,regression,5,9671,false,14.602588953604446,25.30257305199484,67.24359761341239,101.29952999820043
off,symbiotic,regression,5,9671,true,5.892592475345514,23.00433659064947,38.88154501948446,83.8125335462283
off,symbiotic,regression,1,4932,false,12.83884377126438,23.480966680164777,55.35325778495578,91.90522630236421
off,symbiotic,regression,1,4932,true,3.763333888239266,17.32775761240494,30.838380685415814,70.36285556198165
off,symbiotic,regression,2,4932,false,11.788569304639125,21.81603600485218,55.51142361380237,84.40956858234965
off,symbiotic,regression,2,4932,true,5.224610633616567,22.111269510745743,21.382920539853245,63.50518069677388
off,symbiotic,regression,3,4932,false,14.096429507790074,24.812657922306187,64.2519143888441,96.92690925923263
off,symbiotic,regression,3,4932,true,7.080421291232383,25.474086597394916,37.587521559459375,83.25915360110116
off,symbiotic,regression,4,4932,false,9.687568809295424,20.143670039238806,48.11965167646696,80.45494132351249
off,symbiotic,regression,4,4932,true,4.278773717175316,19.626171633081242,17.627726477641456,56.58540799402214
off,symbiotic,regression,5,4932,false,14.701647698136302,25.091675714513396,67.6997541469253,100.45519684991383
off,symbiotic,regression,5,4932,true,5.569217532609736,21.798409405718076,36.747795324972095,79.41893531125666
off,symbiotic,classification,1,4573,false,76.6079703429101,0,0,0
off,symbiotic,classification,1,4573,true,91.90202449387653,0,0,0
off,symbiotic,classification,2,4573,false,80.91667368775802,0,0,0
off,symbiotic,classification,2,4573,true,84.10663932325045,0,0,0
off,symbiotic,classification,3,4573,false,76.07970342910102,0,0,0
off,symbiotic,classification,3,4573,true,74.6027397260274,0,0,0
off,symbiotic,classification,4,4573,false,82.50231696014828,0,0,0
off,symbiotic,classification,4,4573,true,74.91659084015772,0,0,0
off,symbiotic,classification,5,4573,false,75.99155747075895,0,0,0
off,symbiotic,classification,5,4573,true,78.90541976620616,0,0,0
off,symbiotic,classification,1,2348,false,76.6079703429101,0,0,0
off,symbiotic,classification,1,2348,true,91.90202449387653,0,0,0
off,symbiotic,classification,2,2348,false,80.91667368775802,0,0,0
off,symbiotic,classification,2,2348,true,84.10663932325045,0,0,0
off,symbiotic,classification,3,2348,false,76.07970342910102,0,0,0
off,symbiotic,classification,3,2348,true,74.6027397260274,0,0,0
off,symbiotic,classification,4,2348,false,82.50231696014828,0,0,0
off,symbiotic,classification,4,2348,true,74.91659084015772,0,0,0
off,symbiotic,classification,5,2348,false,75.99155747075895,0,0,0
off,symbiotic,classification,5,2348,true,78.90541976620616,0,0,0
off,symbiotic,classification,1,1037,false,76.6079703429101,0,0,0
off,symbiotic,classification,1,1037,true,91.90202449387653,0,0,0
off,symbiotic,classification,2,1037,false,80.91667368775802,0,0,0
off,symbiotic,classification,2,1037,true,84.10663932325045,0,0,0
off,symbiotic,classification,3,1037,false,76.07970342910102,0,0,0
off,symbiotic,classification,3,1037,true,74.6027397260274,0,0,0
off,symbiotic,classification,4,1037,false,82.50231696014828,0,0,0
off,symbiotic,classification,4,1037,true,74.91659084015772,0,0,0
off,symbiotic,classification,5,1037,false,75.99155747075895,0,0,0
off,symbiotic,classification,5,1037,true,78.90541976620616,0,0,0
off,symbiotic,classification,1,4352,false,76.6079703429101,0,0,0
off,symbiotic,classification,1,4352,true,91.90202449387653,0,0,0
off,symbiotic,classification,2,4352,false,80.91667368775802,0,0,0
off,symbiotic,classification,2,4352,true,84.10663932325045,0,0,0
off,symbiotic,classification,3,4352,false,76.07970342910102,0,0,0
off,symbiotic,classification,3,4352,true,74.6027397260274,0,0,0
off,symbiotic,classification,4,4352,false,82.50231696014828,0,0,0
off,symbiotic,classification,4,4352,true,74.91659084015772,0,0,0
off,symbiotic,classification,5,4352,false,75.99155747075895,0,0,0
off,symbiotic,classification,5,4352,true,78.90541976620616,0,0,0
off,symbiotic,classification,1,6732,false,76.6079703429101,0,0,0
off,symbiotic,classification,1,6732,true,91.90202449387653,0,0,0
off,symbiotic,classification,2,6732,false,80.91667368775802,0,0,0
off,symbiotic,classification,2,6732,true,84.10663932325045,0,0,0
off,symbiotic,classification,3,6732,false,76.07970342910102,0,0,0
off,symbiotic,classification,3,6732,true,74.6027397260274,0,0,0
off,symbiotic,classification,4,6732,false,82.50231696014828,0,0,0
off,symbiotic,classification,4,6732,true,74.91659084015772,0,0,0
off,symbiotic,classification,5,6732,false,75.99155747075895,0,0,0
off,symbiotic,classification,5,6732,true,78.90541976620616,0,0,0
off,symbiotic,classification,1,9671,false,76.6079703429101,0,0,0
off,symbiotic,classification,1,9671,true,91.90202449387653,0,0,0
off,symbiotic,classification,2,9671,false,80.91667368775802,0,0,0
off,symbiotic,classification,2,9671,true,84.10663932325045,0,0,0
off,symbiotic,classification,3,9671,false,76.07970342910102,0,0,0
off,symbiotic,classification,3,9671,true,74.6027397260274,0,0,0
off,symbiotic,classification,4,9671,false,82.50231696014828,0,0,0
off,symbiotic,classification,4,9671,true,74.91659084015772,0,0,0
off,symbiotic,classification,5,9671,false,75.99155747075895,0,0,0
off,symbiotic,classification,5,9671,true,78.90541976620616,0,0,0
off,symbiotic,classification,1,4932,false,76.6079703429101,0,0,0
off,symbiotic,classification,1,4932,true,91.90202449387653,0,0,0
off,symbiotic,classification,2,4932,false,80.91667368775802,0,0,0
off,symbiotic,classification,2,4932,true,84.10663932325045,0,0,0
off,symbiotic,classification,3,4932,false,76.07970342910102,0,0,0
off,symbiotic,classification,3,4932,true,74.6027397260274,0,0,0
off,symbiotic,classification,4,4932,false,82.50231696014828,0,0,0
off,symbiotic,classification,4,4932,true,74.91659084015772,0,0,0
off,symbiotic,classification,5,4932,false,75.99155747075895,0,0,0
off,symbiotic,classification,5,4932,true,78.90541976620616,0,0,0
on,symbiotic,regression,1,4573,false,14.370688730445234,24.837997044478428,61.957638243412944,97.21668491606687
on,symbiotic,regression,1,4573,true,4.359192404875571,15.880161160047686,35.721102313731045,64.48459812281185
on,symbiotic,regression,2,4573,false,11.570591470015868,20.453017468710797,54.48498354262009,79.13584210977459
on,symbiotic,regression,2,4573,true,6.684273075074794,23.767784901964543,27.356924765141137,68.26281386637604
on,symbiotic,regression,3,4573,false,12.844819318155384,22.585930526917423,58.54704063282159,88.22853422525988
on,symbiotic,regression,3,4573,true,7.522813324983833,23.349921359660563,39.93602872060197,76.31656120916314
on,symbiotic,regression,4,4573,false,8.726558200212823,17.539411285203403,43.346163438419815,70.05338664956193
on,symbiotic,regression,4,4573,true,5.656114560721468,19.222915719256978,23.30210639613452,55.422756365556495
on,symbiotic,regression,5,4573,false,14.331585296115247,24.37837110452575,65.99565035187776,97.59946270821945
on,symbiotic,regression,5,4573,true,8.285288964922792,25.182652383292503,54.66945783828268,91.74887045060927
on,symbiotic,regression,1,2348,false,12.567182593692356,22.531851417460604,54.182020603460906,88.19035995150226
on,symbiotic,regression,1,2348,true,3.8221259734850483,16.418190471941507,31.32014838393568,66.66937468811855
on,symbiotic,regression,2,2348,false,12.587880424646997,22.02558429883763,59.275315315615465,85.22034287189268
on,symbiotic,regression,2,2348,true,7.300732548597996,24.52270130055301,29.87992692985208,70.4309888904297
on,symbiotic,regression,3,2348,false,13.731655496388804,23.575829433473185,62.589264386666066,92.09542514004931
on,symbiotic,regression,3,2348,true,7.141352854552827,23.394402816455095,37.91098627374054,76.46194378959433
on,symbiotic,regression,4,2348,false,9.116102158365898,18.159537851261813,45.28108849010174,72.53020673191006
on,symbiotic,regression,4,2348,true,6.745777481893573,18.426147054795354,27.79130848928242,53.12554421443994
on,symbiotic,regression,5,2348,false,13.105378847494531,22.882521282116844,60.349080878204376,91.61078781549081
on,symbiotic,regression,5,2348,true,7.552774317288782,23.790134183466215,49.83605023906745,86.6754584060249
on,symbiotic,regression,1,1037,false,13.214557247848806,23.560414206145527,56.97310496848543,92.21618636435315
on,symbiotic,regression,1,1037,true,4.38256419906355,16.42443192433698,35.91262087357037,66.69471936474798
on,symbiotic,regression,2,1037,false,12.320010971924365,21.258166817358585,58.01393963218697,82.2510876634858
on,symbiotic,regression,2,1037,true,7.388031379198551,24.649790927474836,30.23721747049886,70.79599957959135
on,symbiotic,regression,3,1037,false,13.809589200040634,23.744817095748715,62.94448835684063,92.75554997869408
on,symbiotic,regression,3,1037,true,7.805190357239397,24.073804590383155,41.435071270647,78.68249118532006
on,symbiotic,regression,4,1037,false,9.977387416297338,19.78881469950704,49.55922549450369,79.03762931031723
on,symbiotic,regression,4,1037,true,7.206784821395549,21.983041436633986,29.690570245590216,63.38064253676037
on,symbiotic,regression,5,1037,false,12.760937847279779,23.023291556789665,58.762961314502974,92.17436538654539
on,symbiotic,regression,5,1037,true,7.799331461013487,25.027026506637082,51.46292715677683,91.18187305181685
on,symbiotic,regression,1,4352,false,13.38938980098857,23.29560200296673,57.72687622355805,91.17970325050699
on,symbiotic,regression,1,4352,true,4.0218673925451744,16.59669763526905,32.95691570316582,67.39423903761771
on,symbiotic,regression,2,4352,false,12.673298255608922,21.280996676255125,59.677541003582,82.33941986736667
on,symbiotic,regression,2,4352,true,7.630725614162314,25.01211114706551,31.230499440320663,71.83660970846788
on,symbiotic,regression,3,4352,false,13.80149487649076,23.960471197811096,62.907594206908925,93.59797023239815
on,symbiotic,regression,3,4352,true,7.09952871059363,22.187160475095478,37.68895627748609,72.5162095569372
on,symbiotic,regression,4,4352,false,9.757224324655358,18.70385091051519,48.46564138786376,74.70422344080897
on,symbiotic,regression,4,4352,true,6.82886175321371,19.538247888243014,28.133599740522598,56.33190970270753
on,symbiotic,regression,5,4352,false,13.770696385319747,23.525686150915934,63.41280779271307,94.18571562171903
on,symbiotic,regression,5,4352,true,8.607672966314155,25.382348114631277,56.79666892849555,92.47642914876677
on,symbiotic,regression,1,6732,false,13.439182142535843,23.638526405727347,57.94155040812533,92.5219199177169
on,symbiotic,regression,1,6732,true,4.854028776864427,17.946771337641305,39.776004926563516,72.8764856758118
on,symbiotic,regression,2,6732,false,11.219997574741829,19.83605424593478,52.834065120372586,76.74871736107518
on,symbiotic,regression,2,6732,true,7.4270543528218145,24.641661112306164,30.39692796430028,70.77265015675216
on,symbiotic,regression,3,6732,false,14.34592004512581,24.32749744172177,65.38909913742627,95.03170294860611
on,symbiotic,regression,3,6732,true,8.26332507230628,24.864804261559026,43.86715091272096,81.26778361058751
on,symbiotic,regression,4,6732,false,9.722374732802152,18.90037786328773,48.29253807845199,75.48916304828882
on,symbiotic,regression,4,6732,true,6.717835091641987,18.442159057665116,27.676191204507745,53.17170939286219
on,symbiotic,regression,5,6732,false,13.468760372720036,23.488768925589007,62.022419841592814,94.03791651975533
on,symbiotic,regression,5,6732,true,8.34699661412007,25.006334985958194,55.07662815429369,91.10648688433542
on,symbiotic,regression,1,9671,false,14.230610203541557,24.372872376222556,61.353705136353064,95.39617264852984
on,symbiotic,regression,1,9671,true,4.167850108121245,17.79124119524778,34.153161024500285,72.24492415529885
on,symbiotic,regression,2,9671,false,11.930978141789646,20.40685234459666,56.182015360868796,78.95722220792082
on,symbiotic,regression,2,9671,true,7.636339177558509,25.118887076407436,31.25347423949018,72.14327797478472
on,symbiotic,regression,3,9671,false,13.372240750228848,23.165422404927593,60.95104206323334,90.49223192553163
on,symbiotic,regression,3,9671,true,7.189887267060678,23.364628693284953,38.168638777945844,76.36463045571352
on,symbiotic,regression,4,9671,false,10.254324546473574,19.706626206887087,50.93481502606647,78.70936388806173
on,symbiotic,regression,4,9671,true,5.734220269733992,19.56941772283809,23.623886926216855,56.42177734682288
on,symbiotic,regression,5,9671,false,13.511956691232067,23.29917577481313,62.22133497024792,93.2788752544655
on,symbiotic,regression,5,9671,true,8.640455609191388,26.049023729660757,57.01298115613081,94.90535258800311
on,symbiotic,regression,1,4932,false,14.22009335919974,24.362259861028768,61.308362922808904,95.35463493742078
on,symbiotic,regression,1,4932,true,4.461808153720072,17.48754083041294,36.561980009190144,71.01168755406104
on,symbiotic,regression,2,4932,false,11.91053148764239,20.784654684752606,56.085733712899305,80.41899704799133
on,symbiotic,regression,2,4932,true,7.559774559892222,24.86440911956126,30.94011593386097,71.41239869962558
on,symbiotic,regression,3,4932,false,13.680747782995766,23.653493546895817,62.35722562530074,92.39880829625874
on,symbiotic,regression,3,4932,true,7.893155217298673,25.10406546658836,41.90204646011025,82.04978163607743
on,symbiotic,regression,4,4932,false,9.09244768121909,17.54891716461869,45.16359304585765,70.09135366198298
on,symbiotic,regression,4,4932,true,6.577252653948272,20.567385095577748,27.09701854359385,59.299077719352546
on,symbiotic,regression,5,4932,false,14.1929877241864,24.332624885024973,65.35742110454426,97.41631649122799
on,symbiotic,regression,5,4932,true,8.600972079462402,26.073378250185453,56.75245395267853,94.99408429562853
on,symbiotic,classification,1,4573,false,76.6079703429101,0,0,0
on,symbiotic,classification,1,4573,true,91.90202449387653,0,0,0
on,symbiotic,classification,2,4573,false,80.91667368775802,0,0,0
on,symbiotic,classification,2,4573,true,84.10663932325045,0,0,0
on,symbiotic,classification,3,4573,false,76.07970342910102,0,0,0
on,symbiotic,classification,3,4573,true,74.6027397260274,0,0,0
on,symbiotic,classification,4,4573,false,82.50231696014828,0,0,0
on,symbiotic,classification,4,4573,true,74.91659084015772,0,0,0
on,symbiotic,classification,5,4573,false,75.99155747075895,0,0,0
on,symbiotic,classification,5,4573,true,78.90541976620616,0,0,0
on,symbiotic,classification,1,2348,false,76.6079703429101,0,0,0
on,symbiotic,classification,1,2348,true,91.90202449387653,0,0,0
on,symbiotic,classification,2,2348,false,80.91667368775802,0,0,0
on,symbiotic,classification,2,2348,true,84.10663932325045,0,0,0
on,symbiotic,classification,3,2348,false,76.07970342910102,0,0,0
on,symbiotic,classification,3,2348,true,74.6027397260274,0,0,0
on,symbiotic,classification,4,2348,false,82.50231696014828,0,0,0
on,symbiotic,classification,4,2348,true,74.91659084015772,0,0,0
on,symbiotic,classification,5,2348,false,75.99155747075895,0,0,0
on,symbiotic,classification,5,2348,true,78.90541976620616,0,0,0
on,symbiotic,classification,1,1037,false,76.6079703429101,0,0,0
on,symbiotic,classification,1,1037,true,91.90202449387653,0,0,0
on,symbiotic,classification,2,1037,false,80.91667368775802,0,0,0
on,symbiotic,classification,2,1037,true,84.10663932325045,0,0,0
on,symbiotic,classification,3,1037,false,76.07970342910102,0,0,0
on,symbiotic,classification,3,1037,true,74.6027397260274,0,0,0
on,symbiotic,classification,4,1037,false,82.50231696014828,0,0,0
on,symbiotic,classification,4,1037,true,74.91659084015772,0,0,0
on,symbiotic,classification,5,1037,false,75.99155747075895,0,0,0
on,symbiotic,classification,5,1037,true,78.90541976620616,0,0,0
on,symbiotic,classification,1,4352,false,76.6079703429101,0,0,0
on,symbiotic,classification,1,4352,true,91.90202449387653,0,0,0
on,symbiotic,classification,2,4352,false,80.91667368775802,0,0,0
on,symbiotic,classification,2,4352,true,84.10663932325045,0,0,0
on,symbiotic,classification,3,4352,false,76.07970342910102,0,0,0
on,symbiotic,classification,3,4352,true,74.6027397260274,0,0,0
on,symbiotic,classification,4,4352,false,82.50231696014828,0,0,0
on,symbiotic,classification,4,4352,true,74.91659084015772,0,0,0
on,symbiotic,classification,5,4352,false,75.99155747075895,0,0,0
on,symbiotic,classification,5,4352,true,78.90541976620616,0,0,0
on,symbiotic,classification,1,6732,false,76.6079703429101,0,0,0
on,symbiotic,classification,1,6732,true,91.90202449387653,0,0,0
on,symbiotic,classification,2,6732,false,80.91667368775802,0,0,0
on,symbiotic,classification,2,6732,true,84.10663932325045,0,0,0
on,symbiotic,classification,3,6732,false,76.07970342910102,0,0,0
on,symbiotic,classification,3,6732,true,74.6027397260274,0,0,0
on,symbiotic,classification,4,6732,false,82.50231696014828,0,0,0
on,symbiotic,classification,4,6732,true,74.91659084015772,0,0,0
on,symbiotic,classification,5,6732,false,75.99155747075895,0,0,0
on,symbiotic,classification,5,6732,true,78.90541976620616,0,0,0
on,symbiotic,classification,1,9671,false,76.6079703429101,0,0,0
on,symbiotic,classification,1,9671,true,91.90202449387653,0,0,0
on,symbiotic,classification,2,9671,false,80.91667368775802,0,0,0
on,symbiotic,classification,2,9671,true,84.10663932325045,0,0,0
on,symbiotic,classification,3,9671,false,76.07970342910102,0,0,0
on,symbiotic,classification,3,9671,true,74.6027397260274,0,0,0
on,symbiotic,classification,4,9671,false,82.50231696014828,0,0,0
on,symbiotic,classification,4,9671,true,74.91659084015772,0,0,0
on,symbiotic,classification,5,9671,false,75.99155747075895,0,0,0
on,symbiotic,classification,5,9671,true,78.90541976620616,0,0,0
on,symbiotic,classification,1,4932,false,76.6079703429101,0,0,0
on,symbiotic,classification,1,4932,true,91.90202449387653,0,0,0
on,symbiotic,classification,2,4932,false,80.91667368775802,0,0,0
on,symbiotic,classification,2,4932,true,84.10663932325045,0,0,0
on,symbiotic,classification,3,4932,false,76.07970342910102,0,0,0
on,symbiotic,classification,3,4932,true,74.6027397260274,0,0,0
on,symbiotic,classification,4,4932,false,82.50231696014828,0,0,0
on,symbiotic,classification,4,4932,true,74.91659084015772,0,0,0
on,symbiotic,classification,5,4932,false,75.99155747075895,0,0,0
on,symbiotic,classification,5,4932,true,78.90541976620616,0,0,0