%!PS-Adobe-3.0
%%DocumentNeededResources: font Helvetica
%%+ font Helvetica-Bold
%%+ font Helvetica-Oblique
%%+ font Helvetica-BoldOblique
%%+ font Symbol
%%DocumentMedia: a4 595 841 0 () ()
%%Title: R Graphics Output
%%Creator: R Software
%%Pages: (atend)
%%Orientation: Landscape
%%BoundingBox: 18 277 577 565
%%EndComments
%%BeginProlog
/bp  { gs sRGB 595.00 0 translate 90 rotate gs } def
% begin .ps.prolog
/gs  { gsave } bind def
/gr  { grestore } bind def
/ep  { showpage gr gr } bind def
/m   { moveto } bind def
/l  { rlineto } bind def
/np  { newpath } bind def
/cp  { closepath } bind def
/f   { fill } bind def
/o   { stroke } bind def
/c   { newpath 0 360 arc } bind def
/r   { 4 2 roll moveto 1 copy 3 -1 roll exch 0 exch rlineto 0 rlineto -1 mul 0 exch rlineto closepath } bind def
/p1  { stroke } bind def
/p2  { gsave bg fill grestore newpath } bind def
/p3  { gsave bg fill grestore stroke } bind def
/p6  { gsave bg eofill grestore newpath } bind def
/p7  { gsave bg eofill grestore stroke } bind def
/t   { 5 -2 roll moveto gsave rotate
       1 index stringwidth pop
       mul neg 0 rmoveto show grestore } bind def
/ta  { 4 -2 roll moveto gsave rotate show } bind def
/tb  { 2 -1 roll 0 rmoveto show } bind def
/cl  { grestore gsave newpath 3 index 3 index moveto 1 index
       4 -1 roll lineto  exch 1 index lineto lineto
       closepath clip newpath } bind def
/rgb { setrgbcolor } bind def
/s   { scalefont setfont } bind def
% end   .ps.prolog
/sRGB { [ /CIEBasedABC
          << /DecodeLMN
               [ { dup 0.03928 le
                        {12.92321 div}
                        {0.055 add 1.055 div 2.4 exp }
                     ifelse
                 } bind dup dup
               ]
             /MatrixLMN [0.412457 0.212673 0.019334
                         0.357576 0.715152 0.119192
                         0.180437 0.072175 0.950301]
             /WhitePoint [0.9505 1.0 1.0890]
           >>
         ] setcolorspace } bind def
/srgb { setcolor } bind def
%%IncludeResource: font Helvetica
/Helvetica findfont
dup length dict begin
  {1 index /FID ne {def} {pop pop} ifelse} forall
  /Encoding ISOLatin1Encoding def
  currentdict
  end
/Font1 exch definefont pop
%%IncludeResource: font Helvetica-Bold
/Helvetica-Bold findfont
dup length dict begin
  {1 index /FID ne {def} {pop pop} ifelse} forall
  /Encoding ISOLatin1Encoding def
  currentdict
  end
/Font2 exch definefont pop
%%IncludeResource: font Helvetica-Oblique
/Helvetica-Oblique findfont
dup length dict begin
  {1 index /FID ne {def} {pop pop} ifelse} forall
  /Encoding ISOLatin1Encoding def
  currentdict
  end
/Font3 exch definefont pop
%%IncludeResource: font Helvetica-BoldOblique
/Helvetica-BoldOblique findfont
dup length dict begin
  {1 index /FID ne {def} {pop pop} ifelse} forall
  /Encoding ISOLatin1Encoding def
  currentdict
  end
/Font4 exch definefont pop
%%IncludeResource: font Symbol
/Symbol findfont
dup length dict begin
  {1 index /FID ne {def} {pop pop} ifelse} forall
  currentdict
  end
/Font5 exch definefont pop
%%EndProlog
%%Page: 1 1
bp
276.94 18.00 564.94 577.28 cl
276.94 18.00 564.94 577.28 cl
276.94 18.00 564.94 577.28 cl
276.94 18.00 564.94 577.28 cl
276.94 18.00 564.94 577.28 cl
276.94 18.00 564.94 577.28 cl
276.94 18.00 564.94 577.28 cl
276.94 18.00 564.94 577.28 cl
/bg { 1 1 1 srgb } def
1 1 1 srgb
1.07 setlinewidth
[] 0 setdash
1 setlinecap
1 setlinejoin
10.00 setmiterlimit
276.94 18.00 288.00 559.28 r p3
276.94 18.00 564.94 577.28 cl
327.73 432.78 542.21 553.50 cl
/bg { 0.9216 0.9216 0.9216 srgb } def
327.73 432.78 214.48 120.73 r p2
1 1 1 srgb
0.53 setlinewidth
[] 0 setdash
0 setlinecap
1 setlinejoin
10.00 setmiterlimit
np
327.73 451.36 m
214.48 0 l
o
np
327.73 491.79 m
214.48 0 l
o
np
327.73 532.22 m
214.48 0 l
o
1.07 setlinewidth
[] 0 setdash
np
327.73 471.58 m
214.48 0 l
o
np
327.73 512.01 m
214.48 0 l
o
np
327.73 552.44 m
214.48 0 l
o
np
352.48 432.78 m
0 120.72 l
o
np
393.72 432.78 m
0 120.72 l
o
np
434.97 432.78 m
0 120.72 l
o
np
476.21 432.78 m
0 120.72 l
o
np
517.46 432.78 m
0 120.72 l
o
0.2000 0.2000 0.2000 srgb
np
434.97 507.19 m
0 3.04 l
o
np
434.97 499.80 m
0 -0.43 l
o
/bg { 1 1 1 srgb } def
1 setlinecap
np
 419.50 507.19 m
0 -7.39 l
30.94 0 l
0 7.39 l
-30.94 0 l
cp p3
2.13 setlinewidth
[] 0 setdash
0 setlinecap
np
419.50 501.86 m
30.94 0 l
o
1.07 setlinewidth
[] 0 setdash
np
476.21 502.13 m
0 0.61 l
o
np
476.21 499.77 m
0 -0.40 l
o
1 setlinecap
np
 460.75 502.13 m
0 -2.36 l
30.93 0 l
0 2.36 l
-30.93 0 l
cp p3
2.13 setlinewidth
[] 0 setdash
0 setlinecap
np
460.75 500.18 m
30.93 0 l
o
1.07 setlinewidth
[] 0 setdash
np
517.46 527.11 m
0 20.90 l
o
np
517.46 500.69 m
0 -36.68 l
o
1 setlinecap
np
 501.99 527.11 m
0 -26.42 l
30.94 0 l
0 26.42 l
-30.94 0 l
cp p3
2.13 setlinewidth
[] 0 setdash
0 setlinecap
np
501.99 502.92 m
30.94 0 l
o
/Font1 findfont 6 s
0 0 0 srgb
434.97 493.57 (125) .5 0 t
476.21 490.76 (100) .5 0 t
517.46 504.80 (139) .5 0 t
276.94 18.00 564.94 577.28 cl
327.73 306.57 542.21 427.30 cl
/bg { 0.9216 0.9216 0.9216 srgb } def
327.73 306.57 214.48 120.73 r p2
1 1 1 srgb
0.53 setlinewidth
[] 0 setdash
0 setlinecap
1 setlinejoin
10.00 setmiterlimit
np
327.73 335.33 m
214.48 0 l
o
np
327.73 374.31 m
214.48 0 l
o
np
327.73 413.30 m
214.48 0 l
o
1.07 setlinewidth
[] 0 setdash
np
327.73 315.84 m
214.48 0 l
o
np
327.73 354.82 m
214.48 0 l
o
np
327.73 393.81 m
214.48 0 l
o
np
352.48 306.57 m
0 120.73 l
o
np
393.72 306.57 m
0 120.73 l
o
np
434.97 306.57 m
0 120.73 l
o
np
476.21 306.57 m
0 120.73 l
o
np
517.46 306.57 m
0 120.73 l
o
0.2000 0.2000 0.2000 srgb
np
352.48 329.94 m
0 0 l
o
np
352.48 322.70 m
0 0 l
o
/bg { 1 1 1 srgb } def
1 setlinecap
np
 337.01 329.94 m
0 -7.24 l
30.93 0 l
0 7.24 l
-30.93 0 l
cp p3
2.13 setlinewidth
[] 0 setdash
0 setlinecap
np
337.01 322.70 m
30.93 0 l
o
1.07 setlinewidth
[] 0 setdash
np
393.72 354.99 m
0 0 l
o
np
393.72 320.28 m
0 -2.83 l
o
1 setlinecap
np
 378.26 354.99 m
0 -34.71 l
30.93 0 l
0 34.71 l
-30.93 0 l
cp p3
2.13 setlinewidth
[] 0 setdash
0 setlinecap
np
378.26 354.99 m
30.93 0 l
o
1.07 setlinewidth
[] 0 setdash
np
434.97 328.40 m
0 12.13 l
o
np
434.97 320.28 m
0 -4.44 l
o
1 setlinecap
np
 419.50 328.40 m
0 -8.12 l
30.94 0 l
0 8.12 l
-30.94 0 l
cp p3
2.13 setlinewidth
[] 0 setdash
0 setlinecap
np
419.50 323.79 m
30.94 0 l
o
1.07 setlinewidth
[] 0 setdash
np
476.21 345.28 m
0 27.86 l
o
np
476.21 323.52 m
0 -11.46 l
o
1 setlinecap
np
 460.75 345.28 m
0 -21.76 l
30.93 0 l
0 21.76 l
-30.93 0 l
cp p3
2.13 setlinewidth
[] 0 setdash
0 setlinecap
np
460.75 332.33 m
30.93 0 l
o
1.07 setlinewidth
[] 0 setdash
np
517.46 408.36 m
0 13.45 l
o
np
517.46 323.79 m
0 -11.73 l
o
1 setlinecap
np
 501.99 408.36 m
0 -84.57 l
30.94 0 l
0 84.57 l
-30.94 0 l
cp p3
2.13 setlinewidth
[] 0 setdash
0 setlinecap
np
501.99 328.40 m
30.94 0 l
o
/Font1 findfont 6 s
0 0 0 srgb
352.48 323.44 (5) .5 0 t
393.72 338.38 (5) .5 0 t
434.97 325.27 (146) .5 0 t
476.21 334.79 (32) .5 0 t
517.46 348.94 (241) .5 0 t
276.94 18.00 564.94 577.28 cl
327.73 180.36 542.21 301.09 cl
/bg { 0.9216 0.9216 0.9216 srgb } def
327.73 180.36 214.48 120.73 r p2
1 1 1 srgb
0.53 setlinewidth
[] 0 setdash
0 setlinecap
1 setlinejoin
10.00 setmiterlimit
np
327.73 190.47 m
214.48 0 l
o
np
327.73 250.05 m
214.48 0 l
o
1.07 setlinewidth
[] 0 setdash
np
327.73 220.26 m
214.48 0 l
o
np
327.73 279.84 m
214.48 0 l
o
np
352.48 180.36 m
0 120.73 l
o
np
393.72 180.36 m
0 120.73 l
o
np
434.97 180.36 m
0 120.73 l
o
np
476.21 180.36 m
0 120.73 l
o
np
517.46 180.36 m
0 120.73 l
o
0.2000 0.2000 0.2000 srgb
np
517.46 248.53 m
0 47.07 l
o
np
517.46 202.83 m
0 -16.98 l
o
/bg { 1 1 1 srgb } def
1 setlinecap
np
 501.99 248.53 m
0 -45.70 l
30.94 0 l
0 45.70 l
-30.94 0 l
cp p3
2.13 setlinewidth
[] 0 setdash
0 setlinecap
np
501.99 241.74 m
30.94 0 l
o
/Font1 findfont 6 s
0 0 0 srgb
517.46 230.77 (2009) .5 0 t
276.94 18.00 564.94 577.28 cl
327.73 54.16 542.21 174.89 cl
/bg { 0.9216 0.9216 0.9216 srgb } def
327.73 54.16 214.48 120.73 r p2
1 1 1 srgb
0.53 setlinewidth
[] 0 setdash
0 setlinecap
1 setlinejoin
10.00 setmiterlimit
np
327.73 63.45 m
214.48 0 l
o
np
327.73 112.53 m
214.48 0 l
o
np
327.73 161.62 m
214.48 0 l
o
1.07 setlinewidth
[] 0 setdash
np
327.73 87.99 m
214.48 0 l
o
np
327.73 137.08 m
214.48 0 l
o
np
352.48 54.16 m
0 120.73 l
o
np
393.72 54.16 m
0 120.73 l
o
np
434.97 54.16 m
0 120.73 l
o
np
476.21 54.16 m
0 120.73 l
o
np
517.46 54.16 m
0 120.73 l
o
0.2000 0.2000 0.2000 srgb
np
352.48 100.02 m
0 0 l
o
np
352.48 100.02 m
0 0 l
o
/bg { 1 1 1 srgb } def
1 setlinecap
np
 337.01 100.02 m
0 0 l
30.93 0 l
0 0 l
-30.93 0 l
cp p3
2.13 setlinewidth
[] 0 setdash
0 setlinecap
np
337.01 100.02 m
30.93 0 l
o
1.07 setlinewidth
[] 0 setdash
np
393.72 87.18 m
0 19.51 l
o
np
393.72 72.67 m
0 -4.21 l
o
1 setlinecap
np
 378.26 87.18 m
0 -14.51 l
30.93 0 l
0 14.51 l
-30.93 0 l
cp p3
2.13 setlinewidth
[] 0 setdash
0 setlinecap
np
378.26 75.50 m
30.93 0 l
o
1.07 setlinewidth
[] 0 setdash
np
434.97 105.17 m
0 5.59 l
o
np
434.97 68.46 m
0 -5.01 l
o
1 setlinecap
np
 419.50 105.17 m
0 -36.71 l
30.94 0 l
0 36.71 l
-30.94 0 l
cp p3
2.13 setlinewidth
[] 0 setdash
0 setlinecap
np
419.50 73.22 m
30.94 0 l
o
1.07 setlinewidth
[] 0 setdash
np
476.21 77.10 m
0 11.00 l
o
np
476.21 69.71 m
0 -8.64 l
o
1 setlinecap
np
 460.75 77.10 m
0 -7.39 l
30.93 0 l
0 7.39 l
-30.93 0 l
cp p3
2.13 setlinewidth
[] 0 setdash
0 setlinecap
np
460.75 73.22 m
30.93 0 l
o
1.07 setlinewidth
[] 0 setdash
np
517.46 136.58 m
0 32.82 l
o
np
517.46 110.10 m
0 -39.26 l
o
1 setlinecap
np
 501.99 136.58 m
0 -26.48 l
30.94 0 l
0 26.48 l
-30.94 0 l
cp p3
2.13 setlinewidth
[] 0 setdash
0 setlinecap
np
501.99 123.38 m
30.94 0 l
o
/Font1 findfont 6 s
0 0 0 srgb
352.48 97.86 (1) .5 0 t
393.72 79.98 (16) .5 0 t
434.97 78.72 (140) .5 0 t
476.21 73.28 (192) .5 0 t
517.46 120.32 (6374) .5 0 t
276.94 18.00 564.94 577.28 cl
542.21 432.78 559.47 553.50 cl
542.21 432.78 559.47 553.50 cl
/bg { 0.8510 0.8510 0.8510 srgb } def
542.21 432.78 17.26 120.73 r p2
/Font1 findfont 9 s
0.1020 0.1020 0.1020 srgb
547.61 493.14 (dyn-allocation) .5 -90.00 t
542.21 432.78 559.47 553.50 cl
542.21 432.78 559.47 553.50 cl
276.94 18.00 564.94 577.28 cl
542.21 306.57 559.47 427.30 cl
542.21 306.57 559.47 427.30 cl
/bg { 0.8510 0.8510 0.8510 srgb } def
542.21 306.57 17.26 120.73 r p2
/Font1 findfont 9 s
0.1020 0.1020 0.1020 srgb
547.61 391.32 (no-o) -90.00 ta
-0.135 (v) tb
-0.225 (erflo) tb
-0.135 (w) tb gr
542.21 306.57 559.47 427.30 cl
542.21 306.57 559.47 427.30 cl
276.94 18.00 564.94 577.28 cl
542.21 180.36 559.47 301.09 cl
542.21 180.36 559.47 301.09 cl
/bg { 0.8510 0.8510 0.8510 srgb } def
542.21 180.36 17.26 120.73 r p2
/Font1 findfont 9 s
0.1020 0.1020 0.1020 srgb
547.61 262.99 (ter) -90.00 ta
0.225 (mination) tb gr
542.21 180.36 559.47 301.09 cl
542.21 180.36 559.47 301.09 cl
276.94 18.00 564.94 577.28 cl
542.21 54.16 559.47 174.89 cl
542.21 54.16 559.47 174.89 cl
/bg { 0.8510 0.8510 0.8510 srgb } def
542.21 54.16 17.26 120.73 r p2
/Font1 findfont 9 s
0.1020 0.1020 0.1020 srgb
547.61 114.52 (unreach-call) .5 -90.00 t
542.21 54.16 559.47 174.89 cl
542.21 54.16 559.47 174.89 cl
276.94 18.00 564.94 577.28 cl
276.94 18.00 564.94 577.28 cl
276.94 18.00 564.94 577.28 cl
276.94 18.00 564.94 577.28 cl
276.94 18.00 564.94 577.28 cl
276.94 18.00 564.94 577.28 cl
276.94 18.00 564.94 577.28 cl
276.94 18.00 564.94 577.28 cl
0.2000 0.2000 0.2000 srgb
1.07 setlinewidth
[] 0 setdash
0 setlinecap
1 setlinejoin
10.00 setmiterlimit
np
352.48 51.42 m
0 2.74 l
o
np
393.72 51.42 m
0 2.74 l
o
np
434.97 51.42 m
0 2.74 l
o
np
476.21 51.42 m
0 2.74 l
o
np
517.46 51.42 m
0 2.74 l
o
276.94 18.00 564.94 577.28 cl
276.94 18.00 564.94 577.28 cl
/Font1 findfont 9 s
0.3020 0.3020 0.3020 srgb
358.94 49.23 (FN) 1 90 t
400.18 49.23 (FP) 1 90 t
441.43 49.23 (TN) 1 90 t
482.68 49.23 (TP) 1 90 t
523.92 49.23 (NA) 1 90 t
276.94 18.00 564.94 577.28 cl
276.94 18.00 564.94 577.28 cl
276.94 18.00 564.94 577.28 cl
276.94 18.00 564.94 577.28 cl
276.94 18.00 564.94 577.28 cl
276.94 18.00 564.94 577.28 cl
276.94 18.00 564.94 577.28 cl
276.94 18.00 564.94 577.28 cl
/Font1 findfont 9 s
0.3020 0.3020 0.3020 srgb
322.80 468.34 (100) 1 0 t
322.80 508.78 (1000) 1 0 t
322.80 549.21 (10000) 1 0 t
276.94 18.00 564.94 577.28 cl
276.94 18.00 564.94 577.28 cl
0.2000 0.2000 0.2000 srgb
1.07 setlinewidth
[] 0 setdash
0 setlinecap
1 setlinejoin
10.00 setmiterlimit
np
324.99 471.58 m
2.74 0 l
o
np
324.99 512.01 m
2.74 0 l
o
np
324.99 552.44 m
2.74 0 l
o
276.94 18.00 564.94 577.28 cl
276.94 18.00 564.94 577.28 cl
276.94 18.00 564.94 577.28 cl
276.94 18.00 564.94 577.28 cl
276.94 18.00 564.94 577.28 cl
276.94 18.00 564.94 577.28 cl
276.94 18.00 564.94 577.28 cl
276.94 18.00 564.94 577.28 cl
/Font1 findfont 9 s
0.3020 0.3020 0.3020 srgb
322.80 312.61 (10) 1 0 t
322.80 351.59 (100) 1 0 t
322.80 390.57 (1000) 1 0 t
276.94 18.00 564.94 577.28 cl
276.94 18.00 564.94 577.28 cl
0.2000 0.2000 0.2000 srgb
1.07 setlinewidth
[] 0 setdash
0 setlinecap
1 setlinejoin
10.00 setmiterlimit
np
324.99 315.84 m
2.74 0 l
o
np
324.99 354.82 m
2.74 0 l
o
np
324.99 393.81 m
2.74 0 l
o
276.94 18.00 564.94 577.28 cl
276.94 18.00 564.94 577.28 cl
276.94 18.00 564.94 577.28 cl
276.94 18.00 564.94 577.28 cl
276.94 18.00 564.94 577.28 cl
276.94 18.00 564.94 577.28 cl
276.94 18.00 564.94 577.28 cl
276.94 18.00 564.94 577.28 cl
/Font1 findfont 9 s
0.3020 0.3020 0.3020 srgb
322.80 217.03 (100) 1 0 t
322.80 276.61 (10000) 1 0 t
276.94 18.00 564.94 577.28 cl
276.94 18.00 564.94 577.28 cl
0.2000 0.2000 0.2000 srgb
1.07 setlinewidth
[] 0 setdash
0 setlinecap
1 setlinejoin
10.00 setmiterlimit
np
324.99 220.26 m
2.74 0 l
o
np
324.99 279.84 m
2.74 0 l
o
276.94 18.00 564.94 577.28 cl
276.94 18.00 564.94 577.28 cl
276.94 18.00 564.94 577.28 cl
276.94 18.00 564.94 577.28 cl
276.94 18.00 564.94 577.28 cl
276.94 18.00 564.94 577.28 cl
276.94 18.00 564.94 577.28 cl
276.94 18.00 564.94 577.28 cl
/Font1 findfont 9 s
0.3020 0.3020 0.3020 srgb
322.80 84.76 (100) 1 0 t
322.80 133.85 (10000) 1 0 t
276.94 18.00 564.94 577.28 cl
276.94 18.00 564.94 577.28 cl
0.2000 0.2000 0.2000 srgb
1.07 setlinewidth
[] 0 setdash
0 setlinecap
1 setlinejoin
10.00 setmiterlimit
np
324.99 87.99 m
2.74 0 l
o
np
324.99 137.08 m
2.74 0 l
o
276.94 18.00 564.94 577.28 cl
276.94 18.00 564.94 577.28 cl
276.94 18.00 564.94 577.28 cl
276.94 18.00 564.94 577.28 cl
276.94 18.00 564.94 577.28 cl
276.94 18.00 564.94 577.28 cl
276.94 18.00 564.94 577.28 cl
276.94 18.00 564.94 577.28 cl
276.94 18.00 564.94 577.28 cl
276.94 18.00 564.94 577.28 cl
276.94 18.00 564.94 577.28 cl
276.94 18.00 564.94 577.28 cl
276.94 18.00 564.94 577.28 cl
276.94 18.00 564.94 577.28 cl
/Font1 findfont 11 s
0 0 0 srgb
434.97 23.63 (Status) .5 0 t
276.94 18.00 564.94 577.28 cl
276.94 18.00 564.94 577.28 cl
/Font1 findfont 11 s
0 0 0 srgb
290.32 303.83 (LoC \(log scale\)) .5 90 t
276.94 18.00 564.94 577.28 cl
276.94 18.00 564.94 577.28 cl
276.94 18.00 564.94 577.28 cl
276.94 18.00 564.94 577.28 cl
276.94 18.00 564.94 577.28 cl
276.94 18.00 564.94 577.28 cl
/Font1 findfont 13 s
0 0 0 srgb
327.73 562.46 (map2check) 0 0 t
276.94 18.00 564.94 577.28 cl
276.94 18.00 564.94 577.28 cl
276.94 18.00 564.94 577.28 cl
276.94 18.00 564.94 577.28 cl
ep
%%Trailer
%%Pages: 1
%%EOF
