%!PS-Adobe-3.0
%%DocumentNeededResources: font Helvetica
%%+ font Helvetica-Bold
%%+ font Helvetica-Oblique
%%+ font Helvetica-BoldOblique
%%+ font Symbol
%%DocumentMedia: a4 595 841 0 () ()
%%Title: R Graphics Output
%%Creator: R Software
%%Pages: (atend)
%%Orientation: Landscape
%%BoundingBox: 18 277 577 565
%%EndComments
%%BeginProlog
/bp  { gs sRGB 595.00 0 translate 90 rotate gs } def
% begin .ps.prolog
/gs  { gsave } bind def
/gr  { grestore } bind def
/ep  { showpage gr gr } bind def
/m   { moveto } bind def
/l  { rlineto } bind def
/np  { newpath } bind def
/cp  { closepath } bind def
/f   { fill } bind def
/o   { stroke } bind def
/c   { newpath 0 360 arc } bind def
/r   { 4 2 roll moveto 1 copy 3 -1 roll exch 0 exch rlineto 0 rlineto -1 mul 0 exch rlineto closepath } bind def
/p1  { stroke } bind def
/p2  { gsave bg fill grestore newpath } bind def
/p3  { gsave bg fill grestore stroke } bind def
/p6  { gsave bg eofill grestore newpath } bind def
/p7  { gsave bg eofill grestore stroke } bind def
/t   { 5 -2 roll moveto gsave rotate
       1 index stringwidth pop
       mul neg 0 rmoveto show grestore } bind def
/ta  { 4 -2 roll moveto gsave rotate show } bind def
/tb  { 2 -1 roll 0 rmoveto show } bind def
/cl  { grestore gsave newpath 3 index 3 index moveto 1 index
       4 -1 roll lineto  exch 1 index lineto lineto
       closepath clip newpath } bind def
/rgb { setrgbcolor } bind def
/s   { scalefont setfont } bind def
% end   .ps.prolog
/sRGB { [ /CIEBasedABC
          << /DecodeLMN
               [ { dup 0.03928 le
                        {12.92321 div}
                        {0.055 add 1.055 div 2.4 exp }
                     ifelse
                 } bind dup dup
               ]
             /MatrixLMN [0.412457 0.212673 0.019334
                         0.357576 0.715152 0.119192
                         0.180437 0.072175 0.950301]
             /WhitePoint [0.9505 1.0 1.0890]
           >>
         ] setcolorspace } bind def
/srgb { setcolor } bind def
%%IncludeResource: font Helvetica
/Helvetica findfont
dup length dict begin
  {1 index /FID ne {def} {pop pop} ifelse} forall
  /Encoding ISOLatin1Encoding def
  currentdict
  end
/Font1 exch definefont pop
%%IncludeResource: font Helvetica-Bold
/Helvetica-Bold findfont
dup length dict begin
  {1 index /FID ne {def} {pop pop} ifelse} forall
  /Encoding ISOLatin1Encoding def
  currentdict
  end
/Font2 exch definefont pop
%%IncludeResource: font Helvetica-Oblique
/Helvetica-Oblique findfont
dup length dict begin
  {1 index /FID ne {def} {pop pop} ifelse} forall
  /Encoding ISOLatin1Encoding def
  currentdict
  end
/Font3 exch definefont pop
%%IncludeResource: font Helvetica-BoldOblique
/Helvetica-BoldOblique findfont
dup length dict begin
  {1 index /FID ne {def} {pop pop} ifelse} forall
  /Encoding ISOLatin1Encoding def
  currentdict
  end
/Font4 exch definefont pop
%%IncludeResource: font Symbol
/Symbol findfont
dup length dict begin
  {1 index /FID ne {def} {pop pop} ifelse} forall
  currentdict
  end
/Font5 exch definefont pop
%%EndProlog
%%Page: 1 1
bp
276.94 18.00 564.94 577.28 cl
276.94 18.00 564.94 577.28 cl
276.94 18.00 564.94 577.28 cl
276.94 18.00 564.94 577.28 cl
276.94 18.00 564.94 577.28 cl
276.94 18.00 564.94 577.28 cl
276.94 18.00 564.94 577.28 cl
276.94 18.00 564.94 577.28 cl
/bg { 1 1 1 srgb } def
1 1 1 srgb
1.07 setlinewidth
[] 0 setdash
1 setlinecap
1 setlinejoin
10.00 setmiterlimit
276.94 18.00 288.00 559.28 r p3
276.94 18.00 564.94 577.28 cl
327.73 432.78 542.21 553.50 cl
/bg { 0.9216 0.9216 0.9216 srgb } def
327.73 432.78 214.48 120.73 r p2
1 1 1 srgb
0.53 setlinewidth
[] 0 setdash
0 setlinecap
1 setlinejoin
10.00 setmiterlimit
np
327.73 451.36 m
214.48 0 l
o
np
327.73 491.79 m
214.48 0 l
o
np
327.73 532.22 m
214.48 0 l
o
1.07 setlinewidth
[] 0 setdash
np
327.73 471.58 m
214.48 0 l
o
np
327.73 512.01 m
214.48 0 l
o
np
327.73 552.44 m
214.48 0 l
o
np
358.37 432.78 m
0 120.72 l
o
np
409.44 432.78 m
0 120.72 l
o
np
460.50 432.78 m
0 120.72 l
o
np
511.57 432.78 m
0 120.72 l
o
0.2000 0.2000 0.2000 srgb
np
409.44 507.47 m
0 40.54 l
o
np
409.44 463.20 m
0 -24.94 l
o
/bg { 1 1 1 srgb } def
1 setlinecap
np
 390.29 507.47 m
0 -44.27 l
38.30 0 l
0 44.27 l
-38.30 0 l
cp p3
2.13 setlinewidth
[] 0 setdash
0 setlinecap
np
390.29 506.91 m
38.30 0 l
o
1.07 setlinewidth
[] 0 setdash
np
460.50 507.69 m
0 22.85 l
o
np
460.50 465.94 m
0 -23.53 l
o
1 setlinecap
np
 441.35 507.69 m
0 -41.75 l
38.30 0 l
0 41.75 l
-38.30 0 l
cp p3
2.13 setlinewidth
[] 0 setdash
0 setlinecap
np
441.35 506.86 m
38.30 0 l
o
1.07 setlinewidth
[] 0 setdash
np
511.57 505.49 m
0 7.51 l
o
np
511.57 500.05 m
0 -0.39 l
o
1 setlinecap
np
 492.42 505.49 m
0 -5.44 l
38.30 0 l
0 5.44 l
-38.30 0 l
cp p3
2.13 setlinewidth
[] 0 setdash
0 setlinecap
np
492.42 500.83 m
38.30 0 l
o
/Font1 findfont 6 s
0 0 0 srgb
409.44 491.68 (92) .5 0 t
460.50 490.01 (67) .5 0 t
511.57 501.83 (205) .5 0 t
276.94 18.00 564.94 577.28 cl
327.73 306.57 542.21 427.30 cl
/bg { 0.9216 0.9216 0.9216 srgb } def
327.73 306.57 214.48 120.73 r p2
1 1 1 srgb
0.53 setlinewidth
[] 0 setdash
0 setlinecap
1 setlinejoin
10.00 setmiterlimit
np
327.73 335.33 m
214.48 0 l
o
np
327.73 374.31 m
214.48 0 l
o
np
327.73 413.30 m
214.48 0 l
o
1.07 setlinewidth
[] 0 setdash
np
327.73 315.84 m
214.48 0 l
o
np
327.73 354.82 m
214.48 0 l
o
np
327.73 393.81 m
214.48 0 l
o
np
358.37 306.57 m
0 120.73 l
o
np
409.44 306.57 m
0 120.73 l
o
np
460.50 306.57 m
0 120.73 l
o
np
511.57 306.57 m
0 120.73 l
o
0.2000 0.2000 0.2000 srgb
np
409.44 328.40 m
0 12.13 l
o
np
409.44 320.28 m
0 -4.44 l
o
/bg { 1 1 1 srgb } def
1 setlinecap
np
 390.29 328.40 m
0 -8.12 l
38.30 0 l
0 8.12 l
-38.30 0 l
cp p3
2.13 setlinewidth
[] 0 setdash
0 setlinecap
np
390.29 323.79 m
38.30 0 l
o
1.07 setlinewidth
[] 0 setdash
np
460.50 329.94 m
0 12.10 l
o
np
460.50 321.53 m
0 -9.47 l
o
1 setlinecap
np
 441.35 329.94 m
0 -8.41 l
38.30 0 l
0 8.41 l
-38.30 0 l
cp p3
2.13 setlinewidth
[] 0 setdash
0 setlinecap
np
441.35 324.82 m
38.30 0 l
o
1.07 setlinewidth
[] 0 setdash
np
511.57 412.65 m
0 9.16 l
o
np
511.57 327.57 m
0 -11.73 l
o
1 setlinecap
np
 492.42 412.65 m
0 -85.08 l
38.30 0 l
0 85.08 l
-38.30 0 l
cp p3
2.13 setlinewidth
[] 0 setdash
0 setlinecap
np
492.42 403.95 m
38.30 0 l
o
/Font1 findfont 6 s
0 0 0 srgb
409.44 326.21 (166) .5 0 t
460.50 325.73 (131) .5 0 t
511.57 369.59 (132) .5 0 t
276.94 18.00 564.94 577.28 cl
327.73 180.36 542.21 301.09 cl
/bg { 0.9216 0.9216 0.9216 srgb } def
327.73 180.36 214.48 120.73 r p2
1 1 1 srgb
0.53 setlinewidth
[] 0 setdash
0 setlinecap
1 setlinejoin
10.00 setmiterlimit
np
327.73 190.47 m
214.48 0 l
o
np
327.73 250.05 m
214.48 0 l
o
1.07 setlinewidth
[] 0 setdash
np
327.73 220.26 m
214.48 0 l
o
np
327.73 279.84 m
214.48 0 l
o
np
358.37 180.36 m
0 120.73 l
o
np
409.44 180.36 m
0 120.73 l
o
np
460.50 180.36 m
0 120.73 l
o
np
511.57 180.36 m
0 120.73 l
o
0.2000 0.2000 0.2000 srgb
np
409.44 248.64 m
0 5.74 l
o
np
409.44 243.46 m
0 -6.07 l
o
/bg { 1 1 1 srgb } def
1 setlinecap
np
 390.29 248.64 m
0 -5.18 l
38.30 0 l
0 5.18 l
-38.30 0 l
cp p3
2.13 setlinewidth
[] 0 setdash
0 setlinecap
np
390.29 247.95 m
38.30 0 l
o
1.07 setlinewidth
[] 0 setdash
np
460.50 262.97 m
0 24.40 l
o
np
460.50 198.07 m
0 -12.22 l
o
1 setlinecap
np
 441.35 262.97 m
0 -64.90 l
38.30 0 l
0 64.90 l
-38.30 0 l
cp p3
2.13 setlinewidth
[] 0 setdash
0 setlinecap
np
441.35 234.21 m
38.30 0 l
o
1.07 setlinewidth
[] 0 setdash
np
511.57 246.03 m
0 49.57 l
o
np
511.57 204.24 m
0 -16.66 l
o
1 setlinecap
np
 492.42 246.03 m
0 -41.79 l
38.30 0 l
0 41.79 l
-38.30 0 l
cp p3
2.13 setlinewidth
[] 0 setdash
0 setlinecap
np
492.42 241.26 m
38.30 0 l
o
/Font1 findfont 6 s
0 0 0 srgb
409.44 239.81 (508) .5 0 t
460.50 225.21 (685) .5 0 t
511.57 229.80 (816) .5 0 t
276.94 18.00 564.94 577.28 cl
327.73 54.16 542.21 174.89 cl
/bg { 0.9216 0.9216 0.9216 srgb } def
327.73 54.16 214.48 120.73 r p2
1 1 1 srgb
0.53 setlinewidth
[] 0 setdash
0 setlinecap
1 setlinejoin
10.00 setmiterlimit
np
327.73 63.45 m
214.48 0 l
o
np
327.73 112.53 m
214.48 0 l
o
np
327.73 161.62 m
214.48 0 l
o
1.07 setlinewidth
[] 0 setdash
np
327.73 87.99 m
214.48 0 l
o
np
327.73 137.08 m
214.48 0 l
o
np
358.37 54.16 m
0 120.73 l
o
np
409.44 54.16 m
0 120.73 l
o
np
460.50 54.16 m
0 120.73 l
o
np
511.57 54.16 m
0 120.73 l
o
0.2000 0.2000 0.2000 srgb
np
358.37 118.28 m
0 0 l
o
np
358.37 102.35 m
0 -15.48 l
o
/bg { 1 1 1 srgb } def
1 setlinecap
np
 339.22 118.28 m
0 -15.93 l
38.30 0 l
0 15.93 l
-38.30 0 l
cp p3
2.13 setlinewidth
[] 0 setdash
0 setlinecap
np
339.22 112.90 m
38.30 0 l
o
1.07 setlinewidth
[] 0 setdash
np
409.44 123.39 m
0 20.25 l
o
np
409.44 109.86 m
0 -18.83 l
o
1 setlinecap
np
 390.29 123.39 m
0 -13.53 l
38.30 0 l
0 13.53 l
-38.30 0 l
cp p3
2.13 setlinewidth
[] 0 setdash
0 setlinecap
np
390.29 110.43 m
38.30 0 l
o
1.07 setlinewidth
[] 0 setdash
np
460.50 129.88 m
0 28.48 l
o
np
460.50 108.96 m
0 -31.28 l
o
1 setlinecap
np
 441.35 129.88 m
0 -20.92 l
38.30 0 l
0 20.92 l
-38.30 0 l
cp p3
2.13 setlinewidth
[] 0 setdash
0 setlinecap
np
441.35 122.31 m
38.30 0 l
o
1.07 setlinewidth
[] 0 setdash
np
511.57 147.36 m
0 22.04 l
o
np
511.57 116.81 m
0 -45.45 l
o
1 setlinecap
np
 492.42 147.36 m
0 -30.55 l
38.30 0 l
0 30.55 l
-38.30 0 l
cp p3
2.13 setlinewidth
[] 0 setdash
0 setlinecap
np
492.42 139.55 m
38.30 0 l
o
/Font1 findfont 6 s
0 0 0 srgb
358.37 105.58 (4) .5 0 t
409.44 110.74 (1832) .5 0 t
460.50 115.90 (2907) .5 0 t
511.57 127.87 (1980) .5 0 t
276.94 18.00 564.94 577.28 cl
542.21 432.78 559.47 553.50 cl
542.21 432.78 559.47 553.50 cl
/bg { 0.8510 0.8510 0.8510 srgb } def
542.21 432.78 17.26 120.73 r p2
/Font1 findfont 9 s
0.1020 0.1020 0.1020 srgb
547.61 493.14 (dyn-allocation) .5 -90.00 t
542.21 432.78 559.47 553.50 cl
542.21 432.78 559.47 553.50 cl
276.94 18.00 564.94 577.28 cl
542.21 306.57 559.47 427.30 cl
542.21 306.57 559.47 427.30 cl
/bg { 0.8510 0.8510 0.8510 srgb } def
542.21 306.57 17.26 120.73 r p2
/Font1 findfont 9 s
0.1020 0.1020 0.1020 srgb
547.61 391.32 (no-o) -90.00 ta
-0.135 (v) tb
-0.225 (erflo) tb
-0.135 (w) tb gr
542.21 306.57 559.47 427.30 cl
542.21 306.57 559.47 427.30 cl
276.94 18.00 564.94 577.28 cl
542.21 180.36 559.47 301.09 cl
542.21 180.36 559.47 301.09 cl
/bg { 0.8510 0.8510 0.8510 srgb } def
542.21 180.36 17.26 120.73 r p2
/Font1 findfont 9 s
0.1020 0.1020 0.1020 srgb
547.61 262.99 (ter) -90.00 ta
0.225 (mination) tb gr
542.21 180.36 559.47 301.09 cl
542.21 180.36 559.47 301.09 cl
276.94 18.00 564.94 577.28 cl
542.21 54.16 559.47 174.89 cl
542.21 54.16 559.47 174.89 cl
/bg { 0.8510 0.8510 0.8510 srgb } def
542.21 54.16 17.26 120.73 r p2
/Font1 findfont 9 s
0.1020 0.1020 0.1020 srgb
547.61 114.52 (unreach-call) .5 -90.00 t
542.21 54.16 559.47 174.89 cl
542.21 54.16 559.47 174.89 cl
276.94 18.00 564.94 577.28 cl
276.94 18.00 564.94 577.28 cl
276.94 18.00 564.94 577.28 cl
276.94 18.00 564.94 577.28 cl
276.94 18.00 564.94 577.28 cl
276.94 18.00 564.94 577.28 cl
276.94 18.00 564.94 577.28 cl
276.94 18.00 564.94 577.28 cl
0.2000 0.2000 0.2000 srgb
1.07 setlinewidth
[] 0 setdash
0 setlinecap
1 setlinejoin
10.00 setmiterlimit
np
358.37 51.42 m
0 2.74 l
o
np
409.44 51.42 m
0 2.74 l
o
np
460.50 51.42 m
0 2.74 l
o
np
511.57 51.42 m
0 2.74 l
o
276.94 18.00 564.94 577.28 cl
276.94 18.00 564.94 577.28 cl
/Font1 findfont 9 s
0.3020 0.3020 0.3020 srgb
364.83 49.23 (FN) 1 90 t
415.90 49.23 (TN) 1 90 t
466.96 49.23 (TP) 1 90 t
518.03 49.23 (NA) 1 90 t
276.94 18.00 564.94 577.28 cl
276.94 18.00 564.94 577.28 cl
276.94 18.00 564.94 577.28 cl
276.94 18.00 564.94 577.28 cl
276.94 18.00 564.94 577.28 cl
276.94 18.00 564.94 577.28 cl
276.94 18.00 564.94 577.28 cl
276.94 18.00 564.94 577.28 cl
/Font1 findfont 9 s
0.3020 0.3020 0.3020 srgb
322.80 468.34 (100) 1 0 t
322.80 508.78 (1000) 1 0 t
322.80 549.21 (10000) 1 0 t
276.94 18.00 564.94 577.28 cl
276.94 18.00 564.94 577.28 cl
0.2000 0.2000 0.2000 srgb
1.07 setlinewidth
[] 0 setdash
0 setlinecap
1 setlinejoin
10.00 setmiterlimit
np
324.99 471.58 m
2.74 0 l
o
np
324.99 512.01 m
2.74 0 l
o
np
324.99 552.44 m
2.74 0 l
o
276.94 18.00 564.94 577.28 cl
276.94 18.00 564.94 577.28 cl
276.94 18.00 564.94 577.28 cl
276.94 18.00 564.94 577.28 cl
276.94 18.00 564.94 577.28 cl
276.94 18.00 564.94 577.28 cl
276.94 18.00 564.94 577.28 cl
276.94 18.00 564.94 577.28 cl
/Font1 findfont 9 s
0.3020 0.3020 0.3020 srgb
322.80 312.61 (10) 1 0 t
322.80 351.59 (100) 1 0 t
322.80 390.57 (1000) 1 0 t
276.94 18.00 564.94 577.28 cl
276.94 18.00 564.94 577.28 cl
0.2000 0.2000 0.2000 srgb
1.07 setlinewidth
[] 0 setdash
0 setlinecap
1 setlinejoin
10.00 setmiterlimit
np
324.99 315.84 m
2.74 0 l
o
np
324.99 354.82 m
2.74 0 l
o
np
324.99 393.81 m
2.74 0 l
o
276.94 18.00 564.94 577.28 cl
276.94 18.00 564.94 577.28 cl
276.94 18.00 564.94 577.28 cl
276.94 18.00 564.94 577.28 cl
276.94 18.00 564.94 577.28 cl
276.94 18.00 564.94 577.28 cl
276.94 18.00 564.94 577.28 cl
276.94 18.00 564.94 577.28 cl
/Font1 findfont 9 s
0.3020 0.3020 0.3020 srgb
322.80 217.03 (100) 1 0 t
322.80 276.61 (10000) 1 0 t
276.94 18.00 564.94 577.28 cl
276.94 18.00 564.94 577.28 cl
0.2000 0.2000 0.2000 srgb
1.07 setlinewidth
[] 0 setdash
0 setlinecap
1 setlinejoin
10.00 setmiterlimit
np
324.99 220.26 m
2.74 0 l
o
np
324.99 279.84 m
2.74 0 l
o
276.94 18.00 564.94 577.28 cl
276.94 18.00 564.94 577.28 cl
276.94 18.00 564.94 577.28 cl
276.94 18.00 564.94 577.28 cl
276.94 18.00 564.94 577.28 cl
276.94 18.00 564.94 577.28 cl
276.94 18.00 564.94 577.28 cl
276.94 18.00 564.94 577.28 cl
/Font1 findfont 9 s
0.3020 0.3020 0.3020 srgb
322.80 84.76 (100) 1 0 t
322.80 133.85 (10000) 1 0 t
276.94 18.00 564.94 577.28 cl
276.94 18.00 564.94 577.28 cl
0.2000 0.2000 0.2000 srgb
1.07 setlinewidth
[] 0 setdash
0 setlinecap
1 setlinejoin
10.00 setmiterlimit
np
324.99 87.99 m
2.74 0 l
o
np
324.99 137.08 m
2.74 0 l
o
276.94 18.00 564.94 577.28 cl
276.94 18.00 564.94 577.28 cl
276.94 18.00 564.94 577.28 cl
276.94 18.00 564.94 577.28 cl
276.94 18.00 564.94 577.28 cl
276.94 18.00 564.94 577.28 cl
276.94 18.00 564.94 577.28 cl
276.94 18.00 564.94 577.28 cl
276.94 18.00 564.94 577.28 cl
276.94 18.00 564.94 577.28 cl
276.94 18.00 564.94 577.28 cl
276.94 18.00 564.94 577.28 cl
276.94 18.00 564.94 577.28 cl
276.94 18.00 564.94 577.28 cl
/Font1 findfont 11 s
0 0 0 srgb
434.97 23.63 (Status) .5 0 t
276.94 18.00 564.94 577.28 cl
276.94 18.00 564.94 577.28 cl
/Font1 findfont 11 s
0 0 0 srgb
290.32 303.83 (LoC \(log scale\)) .5 90 t
276.94 18.00 564.94 577.28 cl
276.94 18.00 564.94 577.28 cl
276.94 18.00 564.94 577.28 cl
276.94 18.00 564.94 577.28 cl
276.94 18.00 564.94 577.28 cl
276.94 18.00 564.94 577.28 cl
/Font1 findfont 13 s
0 0 0 srgb
327.73 562.46 (cpa-seq) 0 0 t
276.94 18.00 564.94 577.28 cl
276.94 18.00 564.94 577.28 cl
276.94 18.00 564.94 577.28 cl
276.94 18.00 564.94 577.28 cl
ep
%%Trailer
%%Pages: 1
%%EOF
