%!PS-Adobe-3.0
%%DocumentNeededResources: font Helvetica
%%+ font Helvetica-Bold
%%+ font Helvetica-Oblique
%%+ font Helvetica-BoldOblique
%%+ font Symbol
%%DocumentMedia: a4 595 841 0 () ()
%%Title: R Graphics Output
%%Creator: R Software
%%Pages: (atend)
%%Orientation: Landscape
%%BoundingBox: 18 277 577 565
%%EndComments
%%BeginProlog
/bp  { gs sRGB 595.00 0 translate 90 rotate gs } def
% begin .ps.prolog
/gs  { gsave } bind def
/gr  { grestore } bind def
/ep  { showpage gr gr } bind def
/m   { moveto } bind def
/l  { rlineto } bind def
/np  { newpath } bind def
/cp  { closepath } bind def
/f   { fill } bind def
/o   { stroke } bind def
/c   { newpath 0 360 arc } bind def
/r   { 4 2 roll moveto 1 copy 3 -1 roll exch 0 exch rlineto 0 rlineto -1 mul 0 exch rlineto closepath } bind def
/p1  { stroke } bind def
/p2  { gsave bg fill grestore newpath } bind def
/p3  { gsave bg fill grestore stroke } bind def
/p6  { gsave bg eofill grestore newpath } bind def
/p7  { gsave bg eofill grestore stroke } bind def
/t   { 5 -2 roll moveto gsave rotate
       1 index stringwidth pop
       mul neg 0 rmoveto show grestore } bind def
/ta  { 4 -2 roll moveto gsave rotate show } bind def
/tb  { 2 -1 roll 0 rmoveto show } bind def
/cl  { grestore gsave newpath 3 index 3 index moveto 1 index
       4 -1 roll lineto  exch 1 index lineto lineto
       closepath clip newpath } bind def
/rgb { setrgbcolor } bind def
/s   { scalefont setfont } bind def
% end   .ps.prolog
/sRGB { [ /CIEBasedABC
          << /DecodeLMN
               [ { dup 0.03928 le
                        {12.92321 div}
                        {0.055 add 1.055 div 2.4 exp }
                     ifelse
                 } bind dup dup
               ]
             /MatrixLMN [0.412457 0.212673 0.019334
                         0.357576 0.715152 0.119192
                         0.180437 0.072175 0.950301]
             /WhitePoint [0.9505 1.0 1.0890]
           >>
         ] setcolorspace } bind def
/srgb { setcolor } bind def
%%IncludeResource: font Helvetica
/Helvetica findfont
dup length dict begin
  {1 index /FID ne {def} {pop pop} ifelse} forall
  /Encoding ISOLatin1Encoding def
  currentdict
  end
/Font1 exch definefont pop
%%IncludeResource: font Helvetica-Bold
/Helvetica-Bold findfont
dup length dict begin
  {1 index /FID ne {def} {pop pop} ifelse} forall
  /Encoding ISOLatin1Encoding def
  currentdict
  end
/Font2 exch definefont pop
%%IncludeResource: font Helvetica-Oblique
/Helvetica-Oblique findfont
dup length dict begin
  {1 index /FID ne {def} {pop pop} ifelse} forall
  /Encoding ISOLatin1Encoding def
  currentdict
  end
/Font3 exch definefont pop
%%IncludeResource: font Helvetica-BoldOblique
/Helvetica-BoldOblique findfont
dup length dict begin
  {1 index /FID ne {def} {pop pop} ifelse} forall
  /Encoding ISOLatin1Encoding def
  currentdict
  end
/Font4 exch definefont pop
%%IncludeResource: font Symbol
/Symbol findfont
dup length dict begin
  {1 index /FID ne {def} {pop pop} ifelse} forall
  currentdict
  end
/Font5 exch definefont pop
%%EndProlog
%%Page: 1 1
bp
276.94 18.00 564.94 577.28 cl
276.94 18.00 564.94 577.28 cl
276.94 18.00 564.94 577.28 cl
276.94 18.00 564.94 577.28 cl
276.94 18.00 564.94 577.28 cl
276.94 18.00 564.94 577.28 cl
276.94 18.00 564.94 577.28 cl
276.94 18.00 564.94 577.28 cl
/bg { 1 1 1 srgb } def
1 1 1 srgb
1.07 setlinewidth
[] 0 setdash
1 setlinecap
1 setlinejoin
10.00 setmiterlimit
276.94 18.00 288.00 559.28 r p3
276.94 18.00 564.94 577.28 cl
327.73 432.67 542.21 553.36 cl
/bg { 0.9216 0.9216 0.9216 srgb } def
327.73 432.67 214.48 120.69 r p2
1 1 1 srgb
0.53 setlinewidth
[] 0 setdash
0 setlinecap
1 setlinejoin
10.00 setmiterlimit
np
327.73 451.25 m
214.48 0 l
o
np
327.73 491.67 m
214.48 0 l
o
np
327.73 532.09 m
214.48 0 l
o
1.07 setlinewidth
[] 0 setdash
np
327.73 471.46 m
214.48 0 l
o
np
327.73 511.88 m
214.48 0 l
o
np
327.73 552.30 m
214.48 0 l
o
np
358.37 432.67 m
0 120.69 l
o
np
409.44 432.67 m
0 120.69 l
o
np
460.50 432.67 m
0 120.69 l
o
np
511.57 432.67 m
0 120.69 l
o
0.2000 0.2000 0.2000 srgb
np
409.44 507.08 m
0 3.03 l
o
np
409.44 499.68 m
0 -0.43 l
o
/bg { 1 1 1 srgb } def
1 setlinecap
np
 390.29 507.08 m
0 -7.40 l
38.30 0 l
0 7.40 l
-38.30 0 l
cp p3
2.13 setlinewidth
[] 0 setdash
0 setlinecap
np
390.29 501.73 m
38.30 0 l
o
1.07 setlinewidth
[] 0 setdash
np
460.50 506.73 m
0 23.68 l
o
np
460.50 480.36 m
0 -38.05 l
o
1 setlinecap
np
 441.35 506.73 m
0 -26.37 l
38.30 0 l
0 26.37 l
-38.30 0 l
cp p3
2.13 setlinewidth
[] 0 setdash
0 setlinecap
np
441.35 500.06 m
38.30 0 l
o
1.07 setlinewidth
[] 0 setdash
np
511.57 527.72 m
0 13.19 l
o
np
511.57 500.70 m
0 -1.06 l
o
1 setlinecap
np
 492.42 527.72 m
0 -27.02 l
38.30 0 l
0 27.02 l
-38.30 0 l
cp p3
2.13 setlinewidth
[] 0 setdash
0 setlinecap
np
492.42 503.77 m
38.30 0 l
o
/Font1 findfont 6 s
0 0 0 srgb
409.44 494.11 (137) .5 0 t
460.50 490.89 (125) .5 0 t
511.57 508.24 (102) .5 0 t
276.94 18.00 564.94 577.28 cl
327.73 306.50 542.21 427.19 cl
/bg { 0.9216 0.9216 0.9216 srgb } def
327.73 306.50 214.48 120.69 r p2
1 1 1 srgb
0.53 setlinewidth
[] 0 setdash
0 setlinecap
1 setlinejoin
10.00 setmiterlimit
np
327.73 335.25 m
214.48 0 l
o
np
327.73 374.22 m
214.48 0 l
o
np
327.73 413.20 m
214.48 0 l
o
1.07 setlinewidth
[] 0 setdash
np
327.73 315.76 m
214.48 0 l
o
np
327.73 354.74 m
214.48 0 l
o
np
327.73 393.71 m
214.48 0 l
o
np
358.37 306.50 m
0 120.69 l
o
np
409.44 306.50 m
0 120.69 l
o
np
460.50 306.50 m
0 120.69 l
o
np
511.57 306.50 m
0 120.69 l
o
0.2000 0.2000 0.2000 srgb
np
409.44 328.32 m
0 12.13 l
o
np
409.44 320.20 m
0 -4.44 l
o
/bg { 1 1 1 srgb } def
1 setlinecap
np
 390.29 328.32 m
0 -8.12 l
38.30 0 l
0 8.12 l
-38.30 0 l
cp p3
2.13 setlinewidth
[] 0 setdash
0 setlinecap
np
390.29 323.72 m
38.30 0 l
o
1.07 setlinewidth
[] 0 setdash
np
460.50 334.07 m
0 7.89 l
o
np
460.50 320.20 m
0 -8.21 l
o
1 setlinecap
np
 441.35 334.07 m
0 -13.87 l
38.30 0 l
0 13.87 l
-38.30 0 l
cp p3
2.13 setlinewidth
[] 0 setdash
0 setlinecap
np
441.35 327.50 m
38.30 0 l
o
1.07 setlinewidth
[] 0 setdash
np
511.57 409.17 m
0 12.54 l
o
np
511.57 323.72 m
0 -9.74 l
o
1 setlinecap
np
 492.42 409.17 m
0 -85.45 l
38.30 0 l
0 85.45 l
-38.30 0 l
cp p3
2.13 setlinewidth
[] 0 setdash
0 setlinecap
np
492.42 330.93 m
38.30 0 l
o
/Font1 findfont 6 s
0 0 0 srgb
409.44 325.17 (169) .5 0 t
460.50 329.14 (60) .5 0 t
511.57 354.35 (200) .5 0 t
276.94 18.00 564.94 577.28 cl
327.73 180.33 542.21 301.02 cl
/bg { 0.9216 0.9216 0.9216 srgb } def
327.73 180.33 214.48 120.69 r p2
1 1 1 srgb
0.53 setlinewidth
[] 0 setdash
0 setlinecap
1 setlinejoin
10.00 setmiterlimit
np
327.73 190.43 m
214.48 0 l
o
np
327.73 249.99 m
214.48 0 l
o
1.07 setlinewidth
[] 0 setdash
np
327.73 220.21 m
214.48 0 l
o
np
327.73 279.78 m
214.48 0 l
o
np
358.37 180.33 m
0 120.69 l
o
np
409.44 180.33 m
0 120.69 l
o
np
460.50 180.33 m
0 120.69 l
o
np
511.57 180.33 m
0 120.69 l
o
0.2000 0.2000 0.2000 srgb
np
511.57 248.47 m
0 47.06 l
o
np
511.57 202.79 m
0 -16.97 l
o
/bg { 1 1 1 srgb } def
1 setlinecap
np
 492.42 248.47 m
0 -45.68 l
38.30 0 l
0 45.68 l
-38.30 0 l
cp p3
2.13 setlinewidth
[] 0 setdash
0 setlinecap
np
492.42 241.68 m
38.30 0 l
o
/Font1 findfont 6 s
0 0 0 srgb
511.57 230.72 (2009) .5 0 t
276.94 18.00 564.94 577.28 cl
327.73 54.16 542.21 174.85 cl
/bg { 0.9216 0.9216 0.9216 srgb } def
327.73 54.16 214.48 120.69 r p2
1 1 1 srgb
0.53 setlinewidth
[] 0 setdash
0 setlinecap
1 setlinejoin
10.00 setmiterlimit
np
327.73 63.45 m
214.48 0 l
o
np
327.73 112.52 m
214.48 0 l
o
np
327.73 161.59 m
214.48 0 l
o
1.07 setlinewidth
[] 0 setdash
np
327.73 87.98 m
214.48 0 l
o
np
327.73 137.05 m
214.48 0 l
o
np
358.37 54.16 m
0 120.69 l
o
np
409.44 54.16 m
0 120.69 l
o
np
460.50 54.16 m
0 120.69 l
o
np
511.57 54.16 m
0 120.69 l
o
0.2000 0.2000 0.2000 srgb
np
358.37 144.32 m
0 0 l
o
np
358.37 144.32 m
0 0 l
o
/bg { 1 1 1 srgb } def
1 setlinecap
np
 339.22 144.32 m
0 0 l
38.30 0 l
0 0 l
-38.30 0 l
cp p3
2.13 setlinewidth
[] 0 setdash
0 setlinecap
np
339.22 144.32 m
38.30 0 l
o
1.07 setlinewidth
[] 0 setdash
np
409.44 123.64 m
0 26.58 l
o
np
409.44 105.69 m
0 -26.70 l
o
1 setlinecap
np
 390.29 123.64 m
0 -17.95 l
38.30 0 l
0 17.95 l
-38.30 0 l
cp p3
2.13 setlinewidth
[] 0 setdash
0 setlinecap
np
390.29 111.48 m
38.30 0 l
o
1.07 setlinewidth
[] 0 setdash
np
460.50 126.96 m
0 29.06 l
o
np
460.50 101.89 m
0 -37.43 l
o
1 setlinecap
np
 441.35 126.96 m
0 -25.07 l
38.30 0 l
0 25.07 l
-38.30 0 l
cp p3
2.13 setlinewidth
[] 0 setdash
0 setlinecap
np
441.35 121.65 m
38.30 0 l
o
1.07 setlinewidth
[] 0 setdash
np
511.57 140.48 m
0 28.88 l
o
np
511.57 110.18 m
0 -44.79 l
o
1 setlinecap
np
 492.42 140.48 m
0 -30.30 l
38.30 0 l
0 30.30 l
-38.30 0 l
cp p3
2.13 setlinewidth
[] 0 setdash
0 setlinecap
np
492.42 125.58 m
38.30 0 l
o
/Font1 findfont 6 s
0 0 0 srgb
358.37 142.17 (1) .5 0 t
409.44 107.51 (903) .5 0 t
460.50 108.63 (1233) .5 0 t
511.57 122.57 (4586) .5 0 t
276.94 18.00 564.94 577.28 cl
542.21 432.67 559.47 553.36 cl
542.21 432.67 559.47 553.36 cl
/bg { 0.8510 0.8510 0.8510 srgb } def
542.21 432.67 17.26 120.69 r p2
/Font1 findfont 9 s
0.1020 0.1020 0.1020 srgb
547.61 493.02 (dyn-allocation) .5 -90.00 t
542.21 432.67 559.47 553.36 cl
542.21 432.67 559.47 553.36 cl
276.94 18.00 564.94 577.28 cl
542.21 306.50 559.47 427.19 cl
542.21 306.50 559.47 427.19 cl
/bg { 0.8510 0.8510 0.8510 srgb } def
542.21 306.50 17.26 120.69 r p2
/Font1 findfont 9 s
0.1020 0.1020 0.1020 srgb
547.61 391.23 (no-o) -90.00 ta
-0.135 (v) tb
-0.225 (erflo) tb
-0.135 (w) tb gr
542.21 306.50 559.47 427.19 cl
542.21 306.50 559.47 427.19 cl
276.94 18.00 564.94 577.28 cl
542.21 180.33 559.47 301.02 cl
542.21 180.33 559.47 301.02 cl
/bg { 0.8510 0.8510 0.8510 srgb } def
542.21 180.33 17.26 120.69 r p2
/Font1 findfont 9 s
0.1020 0.1020 0.1020 srgb
547.61 262.93 (ter) -90.00 ta
0.225 (mination) tb gr
542.21 180.33 559.47 301.02 cl
542.21 180.33 559.47 301.02 cl
276.94 18.00 564.94 577.28 cl
542.21 54.16 559.47 174.85 cl
542.21 54.16 559.47 174.85 cl
/bg { 0.8510 0.8510 0.8510 srgb } def
542.21 54.16 17.26 120.69 r p2
/Font1 findfont 9 s
0.1020 0.1020 0.1020 srgb
547.61 114.50 (unreach-call) .5 -90.00 t
542.21 54.16 559.47 174.85 cl
542.21 54.16 559.47 174.85 cl
276.94 18.00 564.94 577.28 cl
276.94 18.00 564.94 577.28 cl
276.94 18.00 564.94 577.28 cl
276.94 18.00 564.94 577.28 cl
276.94 18.00 564.94 577.28 cl
276.94 18.00 564.94 577.28 cl
276.94 18.00 564.94 577.28 cl
276.94 18.00 564.94 577.28 cl
0.2000 0.2000 0.2000 srgb
1.07 setlinewidth
[] 0 setdash
0 setlinecap
1 setlinejoin
10.00 setmiterlimit
np
358.37 51.42 m
0 2.74 l
o
np
409.44 51.42 m
0 2.74 l
o
np
460.50 51.42 m
0 2.74 l
o
np
511.57 51.42 m
0 2.74 l
o
276.94 18.00 564.94 577.28 cl
276.94 18.00 564.94 577.28 cl
/Font1 findfont 9 s
0.3020 0.3020 0.3020 srgb
364.83 49.23 (FP) 1 90 t
415.90 49.23 (TN) 1 90 t
466.96 49.23 (TP) 1 90 t
518.03 49.23 (NA) 1 90 t
276.94 18.00 564.94 577.28 cl
276.94 18.00 564.94 577.28 cl
276.94 18.00 564.94 577.28 cl
276.94 18.00 564.94 577.28 cl
276.94 18.00 564.94 577.28 cl
276.94 18.00 564.94 577.28 cl
276.94 18.00 564.94 577.28 cl
276.94 18.00 564.94 577.28 cl
/Font1 findfont 9 s
0.3020 0.3020 0.3020 srgb
322.80 468.23 (100) 1 0 t
322.80 508.65 (1000) 1 0 t
322.80 549.07 (10000) 1 0 t
276.94 18.00 564.94 577.28 cl
276.94 18.00 564.94 577.28 cl
0.2000 0.2000 0.2000 srgb
1.07 setlinewidth
[] 0 setdash
0 setlinecap
1 setlinejoin
10.00 setmiterlimit
np
324.99 471.46 m
2.74 0 l
o
np
324.99 511.88 m
2.74 0 l
o
np
324.99 552.30 m
2.74 0 l
o
276.94 18.00 564.94 577.28 cl
276.94 18.00 564.94 577.28 cl
276.94 18.00 564.94 577.28 cl
276.94 18.00 564.94 577.28 cl
276.94 18.00 564.94 577.28 cl
276.94 18.00 564.94 577.28 cl
276.94 18.00 564.94 577.28 cl
276.94 18.00 564.94 577.28 cl
/Font1 findfont 9 s
0.3020 0.3020 0.3020 srgb
322.80 312.53 (10) 1 0 t
322.80 351.51 (100) 1 0 t
322.80 390.48 (1000) 1 0 t
276.94 18.00 564.94 577.28 cl
276.94 18.00 564.94 577.28 cl
0.2000 0.2000 0.2000 srgb
1.07 setlinewidth
[] 0 setdash
0 setlinecap
1 setlinejoin
10.00 setmiterlimit
np
324.99 315.76 m
2.74 0 l
o
np
324.99 354.74 m
2.74 0 l
o
np
324.99 393.71 m
2.74 0 l
o
276.94 18.00 564.94 577.28 cl
276.94 18.00 564.94 577.28 cl
276.94 18.00 564.94 577.28 cl
276.94 18.00 564.94 577.28 cl
276.94 18.00 564.94 577.28 cl
276.94 18.00 564.94 577.28 cl
276.94 18.00 564.94 577.28 cl
276.94 18.00 564.94 577.28 cl
/Font1 findfont 9 s
0.3020 0.3020 0.3020 srgb
322.80 216.98 (100) 1 0 t
322.80 276.55 (10000) 1 0 t
276.94 18.00 564.94 577.28 cl
276.94 18.00 564.94 577.28 cl
0.2000 0.2000 0.2000 srgb
1.07 setlinewidth
[] 0 setdash
0 setlinecap
1 setlinejoin
10.00 setmiterlimit
np
324.99 220.21 m
2.74 0 l
o
np
324.99 279.78 m
2.74 0 l
o
276.94 18.00 564.94 577.28 cl
276.94 18.00 564.94 577.28 cl
276.94 18.00 564.94 577.28 cl
276.94 18.00 564.94 577.28 cl
276.94 18.00 564.94 577.28 cl
276.94 18.00 564.94 577.28 cl
276.94 18.00 564.94 577.28 cl
276.94 18.00 564.94 577.28 cl
/Font1 findfont 9 s
0.3020 0.3020 0.3020 srgb
322.80 84.75 (100) 1 0 t
322.80 133.82 (10000) 1 0 t
276.94 18.00 564.94 577.28 cl
276.94 18.00 564.94 577.28 cl
0.2000 0.2000 0.2000 srgb
1.07 setlinewidth
[] 0 setdash
0 setlinecap
1 setlinejoin
10.00 setmiterlimit
np
324.99 87.98 m
2.74 0 l
o
np
324.99 137.05 m
2.74 0 l
o
276.94 18.00 564.94 577.28 cl
276.94 18.00 564.94 577.28 cl
276.94 18.00 564.94 577.28 cl
276.94 18.00 564.94 577.28 cl
276.94 18.00 564.94 577.28 cl
276.94 18.00 564.94 577.28 cl
276.94 18.00 564.94 577.28 cl
276.94 18.00 564.94 577.28 cl
276.94 18.00 564.94 577.28 cl
276.94 18.00 564.94 577.28 cl
276.94 18.00 564.94 577.28 cl
276.94 18.00 564.94 577.28 cl
276.94 18.00 564.94 577.28 cl
276.94 18.00 564.94 577.28 cl
/Font1 findfont 11 s
0 0 0 srgb
434.97 23.63 (Status) .5 0 t
276.94 18.00 564.94 577.28 cl
276.94 18.00 564.94 577.28 cl
/Font1 findfont 11 s
0 0 0 srgb
290.32 303.76 (LoC \(log scale\)) .5 90 t
276.94 18.00 564.94 577.28 cl
276.94 18.00 564.94 577.28 cl
276.94 18.00 564.94 577.28 cl
276.94 18.00 564.94 577.28 cl
276.94 18.00 564.94 577.28 cl
276.94 18.00 564.94 577.28 cl
/Font1 findfont 13 s
0 0 0 srgb
327.73 562.46 (symbiotic) 0 0 t
276.94 18.00 564.94 577.28 cl
276.94 18.00 564.94 577.28 cl
276.94 18.00 564.94 577.28 cl
276.94 18.00 564.94 577.28 cl
ep
%%Trailer
%%Pages: 1
%%EOF
