%!PS-Adobe-3.0
%%DocumentNeededResources: font Helvetica
%%+ font Helvetica-Bold
%%+ font Helvetica-Oblique
%%+ font Helvetica-BoldOblique
%%+ font Symbol
%%DocumentMedia: a4 595 841 0 () ()
%%Title: R Graphics Output
%%Creator: R Software
%%Pages: (atend)
%%Orientation: Landscape
%%BoundingBox: 18 277 577 565
%%EndComments
%%BeginProlog
/bp  { gs sRGB 595.00 0 translate 90 rotate gs } def
% begin .ps.prolog
/gs  { gsave } bind def
/gr  { grestore } bind def
/ep  { showpage gr gr } bind def
/m   { moveto } bind def
/l  { rlineto } bind def
/np  { newpath } bind def
/cp  { closepath } bind def
/f   { fill } bind def
/o   { stroke } bind def
/c   { newpath 0 360 arc } bind def
/r   { 4 2 roll moveto 1 copy 3 -1 roll exch 0 exch rlineto 0 rlineto -1 mul 0 exch rlineto closepath } bind def
/p1  { stroke } bind def
/p2  { gsave bg fill grestore newpath } bind def
/p3  { gsave bg fill grestore stroke } bind def
/p6  { gsave bg eofill grestore newpath } bind def
/p7  { gsave bg eofill grestore stroke } bind def
/t   { 5 -2 roll moveto gsave rotate
       1 index stringwidth pop
       mul neg 0 rmoveto show grestore } bind def
/ta  { 4 -2 roll moveto gsave rotate show } bind def
/tb  { 2 -1 roll 0 rmoveto show } bind def
/cl  { grestore gsave newpath 3 index 3 index moveto 1 index
       4 -1 roll lineto  exch 1 index lineto lineto
       closepath clip newpath } bind def
/rgb { setrgbcolor } bind def
/s   { scalefont setfont } bind def
% end   .ps.prolog
/sRGB { [ /CIEBasedABC
          << /DecodeLMN
               [ { dup 0.03928 le
                        {12.92321 div}
                        {0.055 add 1.055 div 2.4 exp }
                     ifelse
                 } bind dup dup
               ]
             /MatrixLMN [0.412457 0.212673 0.019334
                         0.357576 0.715152 0.119192
                         0.180437 0.072175 0.950301]
             /WhitePoint [0.9505 1.0 1.0890]
           >>
         ] setcolorspace } bind def
/srgb { setcolor } bind def
%%IncludeResource: font Helvetica
/Helvetica findfont
dup length dict begin
  {1 index /FID ne {def} {pop pop} ifelse} forall
  /Encoding ISOLatin1Encoding def
  currentdict
  end
/Font1 exch definefont pop
%%IncludeResource: font Helvetica-Bold
/Helvetica-Bold findfont
dup length dict begin
  {1 index /FID ne {def} {pop pop} ifelse} forall
  /Encoding ISOLatin1Encoding def
  currentdict
  end
/Font2 exch definefont pop
%%IncludeResource: font Helvetica-Oblique
/Helvetica-Oblique findfont
dup length dict begin
  {1 index /FID ne {def} {pop pop} ifelse} forall
  /Encoding ISOLatin1Encoding def
  currentdict
  end
/Font3 exch definefont pop
%%IncludeResource: font Helvetica-BoldOblique
/Helvetica-BoldOblique findfont
dup length dict begin
  {1 index /FID ne {def} {pop pop} ifelse} forall
  /Encoding ISOLatin1Encoding def
  currentdict
  end
/Font4 exch definefont pop
%%IncludeResource: font Symbol
/Symbol findfont
dup length dict begin
  {1 index /FID ne {def} {pop pop} ifelse} forall
  currentdict
  end
/Font5 exch definefont pop
%%EndProlog
%%Page: 1 1
bp
276.94 18.00 564.94 577.28 cl
276.94 18.00 564.94 577.28 cl
276.94 18.00 564.94 577.28 cl
276.94 18.00 564.94 577.28 cl
276.94 18.00 564.94 577.28 cl
276.94 18.00 564.94 577.28 cl
276.94 18.00 564.94 577.28 cl
276.94 18.00 564.94 577.28 cl
/bg { 1 1 1 srgb } def
1 1 1 srgb
1.07 setlinewidth
[] 0 setdash
1 setlinecap
1 setlinejoin
10.00 setmiterlimit
276.94 18.00 288.00 559.28 r p3
276.94 18.00 564.94 577.28 cl
327.73 434.46 542.21 555.75 cl
/bg { 0.9216 0.9216 0.9216 srgb } def
327.73 434.46 214.48 121.29 r p2
1 1 1 srgb
0.53 setlinewidth
[] 0 setdash
0 setlinecap
1 setlinejoin
10.00 setmiterlimit
np
327.73 453.13 m
214.48 0 l
o
np
327.73 493.75 m
214.48 0 l
o
np
327.73 534.37 m
214.48 0 l
o
1.07 setlinewidth
[] 0 setdash
np
327.73 473.44 m
214.48 0 l
o
np
327.73 514.06 m
214.48 0 l
o
np
327.73 554.68 m
214.48 0 l
o
np
352.48 434.46 m
0 121.29 l
o
np
393.72 434.46 m
0 121.29 l
o
np
434.97 434.46 m
0 121.29 l
o
np
476.21 434.46 m
0 121.29 l
o
np
517.46 434.46 m
0 121.29 l
o
0.2000 0.2000 0.2000 srgb
np
434.97 509.03 m
0 3.25 l
o
np
434.97 501.65 m
0 -0.28 l
o
/bg { 1 1 1 srgb } def
1 setlinecap
np
 419.50 509.03 m
0 -7.38 l
30.94 0 l
0 7.38 l
-30.94 0 l
cp p3
2.13 setlinewidth
[] 0 setdash
0 setlinecap
np
419.50 502.99 m
30.94 0 l
o
1.07 setlinewidth
[] 0 setdash
np
476.21 509.49 m
0 23.19 l
o
np
476.21 469.72 m
0 -25.58 l
o
1 setlinecap
np
 460.75 509.49 m
0 -39.77 l
30.93 0 l
0 39.77 l
-30.93 0 l
cp p3
2.13 setlinewidth
[] 0 setdash
0 setlinecap
np
460.75 508.82 m
30.93 0 l
o
1.07 setlinewidth
[] 0 setdash
np
517.46 523.37 m
0 26.86 l
o
np
517.46 502.15 m
0 -31.37 l
o
1 setlinecap
np
 501.99 523.37 m
0 -21.22 l
30.94 0 l
0 21.22 l
-30.94 0 l
cp p3
2.13 setlinewidth
[] 0 setdash
0 setlinecap
np
501.99 503.14 m
30.94 0 l
o
/Font1 findfont 6 s
0 0 0 srgb
434.97 491.26 (113) .5 0 t
476.21 492.10 (65) .5 0 t
517.46 506.27 (186) .5 0 t
276.94 18.00 564.94 577.28 cl
327.73 307.69 542.21 428.98 cl
/bg { 0.9216 0.9216 0.9216 srgb } def
327.73 307.69 214.48 121.29 r p2
1 1 1 srgb
0.53 setlinewidth
[] 0 setdash
0 setlinecap
1 setlinejoin
10.00 setmiterlimit
np
327.73 336.58 m
214.48 0 l
o
np
327.73 375.75 m
214.48 0 l
o
np
327.73 414.92 m
214.48 0 l
o
1.07 setlinewidth
[] 0 setdash
np
327.73 317.00 m
214.48 0 l
o
np
327.73 356.17 m
214.48 0 l
o
np
327.73 395.33 m
214.48 0 l
o
np
352.48 307.69 m
0 121.29 l
o
np
393.72 307.69 m
0 121.29 l
o
np
434.97 307.69 m
0 121.29 l
o
np
476.21 307.69 m
0 121.29 l
o
np
517.46 307.69 m
0 121.29 l
o
0.2000 0.2000 0.2000 srgb
np
434.97 329.62 m
0 12.19 l
o
np
434.97 321.46 m
0 -4.46 l
o
/bg { 1 1 1 srgb } def
1 setlinecap
np
 419.50 329.62 m
0 -8.16 l
30.94 0 l
0 8.16 l
-30.94 0 l
cp p3
2.13 setlinewidth
[] 0 setdash
0 setlinecap
np
419.50 325.00 m
30.94 0 l
o
1.07 setlinewidth
[] 0 setdash
np
476.21 342.57 m
0 13.77 l
o
np
476.21 326.46 m
0 -13.25 l
o
1 setlinecap
np
 460.75 342.57 m
0 -16.11 l
30.93 0 l
0 16.11 l
-30.93 0 l
cp p3
2.13 setlinewidth
[] 0 setdash
0 setlinecap
np
460.75 333.25 m
30.93 0 l
o
1.07 setlinewidth
[] 0 setdash
np
517.46 410.33 m
0 13.14 l
o
np
517.46 325.00 m
0 -11.79 l
o
1 setlinecap
np
 501.99 410.33 m
0 -85.33 l
30.94 0 l
0 85.33 l
-30.94 0 l
cp p3
2.13 setlinewidth
[] 0 setdash
0 setlinecap
np
501.99 330.41 m
30.94 0 l
o
/Font1 findfont 6 s
0 0 0 srgb
434.97 326.44 (169) .5 0 t
476.21 336.34 (35) .5 0 t
517.46 352.08 (225) .5 0 t
276.94 18.00 564.94 577.28 cl
327.73 180.93 542.21 302.21 cl
/bg { 0.9216 0.9216 0.9216 srgb } def
327.73 180.93 214.48 121.29 r p2
1 1 1 srgb
0.53 setlinewidth
[] 0 setdash
0 setlinecap
1 setlinejoin
10.00 setmiterlimit
np
327.73 191.08 m
214.48 0 l
o
np
327.73 250.93 m
214.48 0 l
o
1.07 setlinewidth
[] 0 setdash
np
327.73 221.00 m
214.48 0 l
o
np
327.73 280.86 m
214.48 0 l
o
np
352.48 180.93 m
0 121.28 l
o
np
393.72 180.93 m
0 121.28 l
o
np
434.97 180.93 m
0 121.28 l
o
np
476.21 180.93 m
0 121.28 l
o
np
517.46 180.93 m
0 121.28 l
o
0.2000 0.2000 0.2000 srgb
np
476.21 264.41 m
0 24.02 l
o
np
476.21 201.32 m
0 -14.88 l
o
/bg { 1 1 1 srgb } def
1 setlinecap
np
 460.75 264.41 m
0 -63.09 l
30.93 0 l
0 63.09 l
-30.93 0 l
cp p3
2.13 setlinewidth
[] 0 setdash
0 setlinecap
np
460.75 243.85 m
30.93 0 l
o
1.07 setlinewidth
[] 0 setdash
np
517.46 248.68 m
0 48.02 l
o
np
517.46 205.02 m
0 -16.85 l
o
1 setlinecap
np
 501.99 248.68 m
0 -43.66 l
30.94 0 l
0 43.66 l
-30.94 0 l
cp p3
2.13 setlinewidth
[] 0 setdash
0 setlinecap
np
501.99 242.43 m
30.94 0 l
o
/Font1 findfont 6 s
0 0 0 srgb
476.21 233.47 (715) .5 0 t
517.46 230.52 (1294) .5 0 t
276.94 18.00 564.94 577.28 cl
327.73 54.16 542.21 175.45 cl
/bg { 0.9216 0.9216 0.9216 srgb } def
327.73 54.16 214.48 121.29 r p2
1 1 1 srgb
0.53 setlinewidth
[] 0 setdash
0 setlinecap
1 setlinejoin
10.00 setmiterlimit
np
327.73 63.49 m
214.48 0 l
o
np
327.73 112.81 m
214.48 0 l
o
np
327.73 162.12 m
214.48 0 l
o
1.07 setlinewidth
[] 0 setdash
np
327.73 88.15 m
214.48 0 l
o
np
327.73 137.46 m
214.48 0 l
o
np
352.48 54.16 m
0 121.29 l
o
np
393.72 54.16 m
0 121.29 l
o
np
434.97 54.16 m
0 121.29 l
o
np
476.21 54.16 m
0 121.29 l
o
np
517.46 54.16 m
0 121.29 l
o
0.2000 0.2000 0.2000 srgb
np
352.48 143.99 m
0 0.46 l
o
np
352.48 122.96 m
0 -18.49 l
o
/bg { 1 1 1 srgb } def
1 setlinecap
np
 337.01 143.99 m
0 -21.03 l
30.93 0 l
0 21.03 l
-30.93 0 l
cp p3
2.13 setlinewidth
[] 0 setdash
0 setlinecap
np
337.01 128.65 m
30.93 0 l
o
1.07 setlinewidth
[] 0 setdash
np
393.72 122.29 m
0 0 l
o
np
393.72 115.93 m
0 -7.89 l
o
1 setlinecap
np
 378.26 122.29 m
0 -6.36 l
30.93 0 l
0 6.36 l
-30.93 0 l
cp p3
2.13 setlinewidth
[] 0 setdash
0 setlinecap
np
378.26 118.56 m
30.93 0 l
o
1.07 setlinewidth
[] 0 setdash
np
434.97 124.16 m
0 22.69 l
o
np
434.97 108.91 m
0 -22.38 l
o
1 setlinecap
np
 419.50 124.16 m
0 -15.25 l
30.94 0 l
0 15.25 l
-30.94 0 l
cp p3
2.13 setlinewidth
[] 0 setdash
0 setlinecap
np
419.50 111.49 m
30.94 0 l
o
1.07 setlinewidth
[] 0 setdash
np
476.21 116.57 m
0 17.27 l
o
np
476.21 75.26 m
0 -15.59 l
o
1 setlinecap
np
 460.75 116.57 m
0 -41.31 l
30.93 0 l
0 41.31 l
-30.93 0 l
cp p3
2.13 setlinewidth
[] 0 setdash
0 setlinecap
np
460.75 108.08 m
30.93 0 l
o
1.07 setlinewidth
[] 0 setdash
np
517.46 140.28 m
0 29.65 l
o
np
517.46 110.67 m
0 -44.37 l
o
1 setlinecap
np
 501.99 140.28 m
0 -29.61 l
30.94 0 l
0 29.61 l
-30.94 0 l
cp p3
2.13 setlinewidth
[] 0 setdash
0 setlinecap
np
501.99 126.64 m
30.94 0 l
o
/Font1 findfont 6 s
0 0 0 srgb
352.48 128.37 (20) .5 0 t
393.72 117.50 (4) .5 0 t
434.97 110.55 (1254) .5 0 t
476.21 96.86 (601) .5 0 t
517.46 122.95 (4844) .5 0 t
276.94 18.00 564.94 577.28 cl
542.21 434.46 559.47 555.75 cl
542.21 434.46 559.47 555.75 cl
/bg { 0.8510 0.8510 0.8510 srgb } def
542.21 434.46 17.26 121.29 r p2
/Font1 findfont 9 s
0.1020 0.1020 0.1020 srgb
547.61 495.10 (dyn-allocation) .5 -90.00 t
542.21 434.46 559.47 555.75 cl
542.21 434.46 559.47 555.75 cl
276.94 18.00 564.94 577.28 cl
542.21 307.69 559.47 428.98 cl
542.21 307.69 559.47 428.98 cl
/bg { 0.8510 0.8510 0.8510 srgb } def
542.21 307.69 17.26 121.29 r p2
/Font1 findfont 9 s
0.1020 0.1020 0.1020 srgb
547.61 392.72 (no-o) -90.00 ta
-0.135 (v) tb
-0.225 (erflo) tb
-0.135 (w) tb gr
542.21 307.69 559.47 428.98 cl
542.21 307.69 559.47 428.98 cl
276.94 18.00 564.94 577.28 cl
542.21 180.93 559.47 302.21 cl
542.21 180.93 559.47 302.21 cl
/bg { 0.8510 0.8510 0.8510 srgb } def
542.21 180.93 17.26 121.29 r p2
/Font1 findfont 9 s
0.1020 0.1020 0.1020 srgb
547.61 263.83 (ter) -90.00 ta
0.225 (mination) tb gr
542.21 180.93 559.47 302.21 cl
542.21 180.93 559.47 302.21 cl
276.94 18.00 564.94 577.28 cl
542.21 54.16 559.47 175.45 cl
542.21 54.16 559.47 175.45 cl
/bg { 0.8510 0.8510 0.8510 srgb } def
542.21 54.16 17.26 121.29 r p2
/Font1 findfont 9 s
0.1020 0.1020 0.1020 srgb
547.61 114.80 (unreach-call) .5 -90.00 t
542.21 54.16 559.47 175.45 cl
542.21 54.16 559.47 175.45 cl
276.94 18.00 564.94 577.28 cl
276.94 18.00 564.94 577.28 cl
276.94 18.00 564.94 577.28 cl
276.94 18.00 564.94 577.28 cl
276.94 18.00 564.94 577.28 cl
276.94 18.00 564.94 577.28 cl
276.94 18.00 564.94 577.28 cl
276.94 18.00 564.94 577.28 cl
0.2000 0.2000 0.2000 srgb
1.07 setlinewidth
[] 0 setdash
0 setlinecap
1 setlinejoin
10.00 setmiterlimit
np
352.48 51.42 m
0 2.74 l
o
np
393.72 51.42 m
0 2.74 l
o
np
434.97 51.42 m
0 2.74 l
o
np
476.21 51.42 m
0 2.74 l
o
np
517.46 51.42 m
0 2.74 l
o
276.94 18.00 564.94 577.28 cl
276.94 18.00 564.94 577.28 cl
/Font1 findfont 9 s
0.3020 0.3020 0.3020 srgb
358.94 49.23 (FN) 1 90 t
400.18 49.23 (FP) 1 90 t
441.43 49.23 (TN) 1 90 t
482.68 49.23 (TP) 1 90 t
523.92 49.23 (NA) 1 90 t
276.94 18.00 564.94 577.28 cl
276.94 18.00 564.94 577.28 cl
276.94 18.00 564.94 577.28 cl
276.94 18.00 564.94 577.28 cl
276.94 18.00 564.94 577.28 cl
276.94 18.00 564.94 577.28 cl
276.94 18.00 564.94 577.28 cl
276.94 18.00 564.94 577.28 cl
/Font1 findfont 9 s
0.3020 0.3020 0.3020 srgb
322.80 470.21 (100) 1 0 t
322.80 510.83 (1000) 1 0 t
322.80 551.45 (10000) 1 0 t
276.94 18.00 564.94 577.28 cl
276.94 18.00 564.94 577.28 cl
0.2000 0.2000 0.2000 srgb
1.07 setlinewidth
[] 0 setdash
0 setlinecap
1 setlinejoin
10.00 setmiterlimit
np
324.99 473.44 m
2.74 0 l
o
np
324.99 514.06 m
2.74 0 l
o
np
324.99 554.68 m
2.74 0 l
o
276.94 18.00 564.94 577.28 cl
276.94 18.00 564.94 577.28 cl
276.94 18.00 564.94 577.28 cl
276.94 18.00 564.94 577.28 cl
276.94 18.00 564.94 577.28 cl
276.94 18.00 564.94 577.28 cl
276.94 18.00 564.94 577.28 cl
276.94 18.00 564.94 577.28 cl
/Font1 findfont 9 s
0.3020 0.3020 0.3020 srgb
322.80 313.77 (10) 1 0 t
322.80 352.94 (100) 1 0 t
322.80 392.10 (1000) 1 0 t
276.94 18.00 564.94 577.28 cl
276.94 18.00 564.94 577.28 cl
0.2000 0.2000 0.2000 srgb
1.07 setlinewidth
[] 0 setdash
0 setlinecap
1 setlinejoin
10.00 setmiterlimit
np
324.99 317.00 m
2.74 0 l
o
np
324.99 356.17 m
2.74 0 l
o
np
324.99 395.33 m
2.74 0 l
o
276.94 18.00 564.94 577.28 cl
276.94 18.00 564.94 577.28 cl
276.94 18.00 564.94 577.28 cl
276.94 18.00 564.94 577.28 cl
276.94 18.00 564.94 577.28 cl
276.94 18.00 564.94 577.28 cl
276.94 18.00 564.94 577.28 cl
276.94 18.00 564.94 577.28 cl
/Font1 findfont 9 s
0.3020 0.3020 0.3020 srgb
322.80 217.77 (100) 1 0 t
322.80 277.63 (10000) 1 0 t
276.94 18.00 564.94 577.28 cl
276.94 18.00 564.94 577.28 cl
0.2000 0.2000 0.2000 srgb
1.07 setlinewidth
[] 0 setdash
0 setlinecap
1 setlinejoin
10.00 setmiterlimit
np
324.99 221.00 m
2.74 0 l
o
np
324.99 280.86 m
2.74 0 l
o
276.94 18.00 564.94 577.28 cl
276.94 18.00 564.94 577.28 cl
276.94 18.00 564.94 577.28 cl
276.94 18.00 564.94 577.28 cl
276.94 18.00 564.94 577.28 cl
276.94 18.00 564.94 577.28 cl
276.94 18.00 564.94 577.28 cl
276.94 18.00 564.94 577.28 cl
/Font1 findfont 9 s
0.3020 0.3020 0.3020 srgb
322.80 84.92 (100) 1 0 t
322.80 134.23 (10000) 1 0 t
276.94 18.00 564.94 577.28 cl
276.94 18.00 564.94 577.28 cl
0.2000 0.2000 0.2000 srgb
1.07 setlinewidth
[] 0 setdash
0 setlinecap
1 setlinejoin
10.00 setmiterlimit
np
324.99 88.15 m
2.74 0 l
o
np
324.99 137.46 m
2.74 0 l
o
276.94 18.00 564.94 577.28 cl
276.94 18.00 564.94 577.28 cl
276.94 18.00 564.94 577.28 cl
276.94 18.00 564.94 577.28 cl
276.94 18.00 564.94 577.28 cl
276.94 18.00 564.94 577.28 cl
276.94 18.00 564.94 577.28 cl
276.94 18.00 564.94 577.28 cl
276.94 18.00 564.94 577.28 cl
276.94 18.00 564.94 577.28 cl
276.94 18.00 564.94 577.28 cl
276.94 18.00 564.94 577.28 cl
276.94 18.00 564.94 577.28 cl
276.94 18.00 564.94 577.28 cl
/Font1 findfont 11 s
0 0 0 srgb
434.97 23.63 (Status) .5 0 t
276.94 18.00 564.94 577.28 cl
276.94 18.00 564.94 577.28 cl
/Font1 findfont 11 s
0 0 0 srgb
290.32 304.95 (LoC \(log scale\)) .5 90 t
276.94 18.00 564.94 577.28 cl
276.94 18.00 564.94 577.28 cl
276.94 18.00 564.94 577.28 cl
276.94 18.00 564.94 577.28 cl
276.94 18.00 564.94 577.28 cl
276.94 18.00 564.94 577.28 cl
/Font1 findfont 13 s
0 0 0 srgb
327.73 562.46 (esbmc-incr) 0 0 t
276.94 18.00 564.94 577.28 cl
276.94 18.00 564.94 577.28 cl
276.94 18.00 564.94 577.28 cl
276.94 18.00 564.94 577.28 cl
ep
%%Trailer
%%Pages: 1
%%EOF
