1,1,1,1,1,0,0,0,0,1,1,100,1,1000,100,lifo,tso,--arrays-uf-always,--reachability-slice,--round-to-plus-inf,--cprover-smt2,77,150,0,61,1497,9,7,5,0,178,3886,TN,ReachSafety :: seq-mthreaded/rekh_aso_true-unreach-call.3.M1.c
0,1,0,0,1,1,0,1,0,0,1,1000,20,2000,100,lifo,tso,--arrays-uf-never,--reachability-slice,--round-to-zero,0,0,1,0,4,8,7,1,4,0,34,23,TP,NoOverflows :: bitvector/jain_7_false-no-overflow.i
1,1,1,1,1,0,0,0,0,1,1,100,1,1000,100,lifo,tso,--arrays-uf-always,--reachability-slice,--round-to-plus-inf,--cprover-smt2,0,3,0,108,0,17,13,28,0,466,523,TN,Termination :: termination-memory-alloca/cstrncpy-alloca_true-termination.c.i
1,1,1,1,1,0,1,0,1,0,1,100,1,2000,20,fifo,sc,0,--reachability-slice,--round-to-minus-inf,0,29,73,0,19,75,8,2,5,0,85,511,TN,ReachSafety :: seq-mthreaded/pals_STARTPALS_Triplicated_true-unreach-call.ufo.UNBOUNDED.pals.c
1,1,1,1,1,1,1,0,1,0,0,2000,10,5000,20,lifo,pso,0,0,--round-to-plus-inf,--boolector,0,3,0,4,3,7,1,4,0,34,19,TN,ReachSafety :: recursive-simple/fibo_25_true-unreach-call.c
0,1,0,0,1,1,0,1,0,0,1,1000,20,2000,100,lifo,tso,--arrays-uf-never,--reachability-slice,--round-to-zero,0,0,2,0,3,6,7,1,4,0,33,14,TP,NoOverflows :: termination-crafted/Binary_Search_false-no-overflow.c
1,1,1,1,1,0,0,0,0,1,1,100,1,1000,100,lifo,tso,--arrays-uf-always,--reachability-slice,--round-to-plus-inf,--cprover-smt2,10,325,0,6,60,7,1,4,0,46,1542,TN,ReachSafety :: eca-rers2012/Problem15_label16_true-unreach-call.c
0,0,1,0,1,1,0,0,1,1,0,5000,100,0,10,fifo,pso,0,0,--round-to-minus-inf,0,10,686,0,7,65,7,1,4,0,47,3497,TN,ReachSafety :: eca-rers2012/Problem18_label24_true-unreach-call.c
1,1,1,1,1,0,0,0,0,1,1,100,1,1000,100,lifo,tso,--arrays-uf-always,--reachability-slice,--round-to-plus-inf,--cprover-smt2,3,4,0,147,97,17,16,33,0,458,391,TN,Termination :: termination-15/cstrncmp_diffterm_alloca_true-termination.c.i
0,1,1,1,0,0,1,1,1,1,1,0,1,5000,0,fifo,pso,--arrays-uf-always,0,--round-to-nearest,--boolector,37,1,0,166,786,16,15,54,0,573,823,TP,ConcurrencySafety :: pthread-wmm/mix050_tso.oepc_false-unreach-call.i
0,1,1,1,0,0,1,1,1,1,1,0,1,5000,0,fifo,pso,--arrays-uf-always,0,--round-to-nearest,--boolector,33,1,0,165,1393,16,15,54,0,568,796,TP,ConcurrencySafety :: pthread-wmm/mix025_power.oepc_false-unreach-call.i
0,1,1,1,0,0,1,1,1,1,1,0,1,5000,0,fifo,pso,--arrays-uf-always,0,--round-to-nearest,--boolector,36,1,0,166,0,16,15,54,0,572,821,TP,ConcurrencySafety :: pthread-wmm/mix051_power.opt_false-unreach-call.i
1,0,1,1,0,0,0,0,1,1,1,0,20,5000,100,fifo,sc,--arrays-uf-always,0,--round-to-zero,--cvc4,21,60,4,127,401,17,19,30,0,518,813,TN,ConcurrencySafety :: seq-pthread/cs_time_var_mutex_true-unreach-call.i
0,0,1,0,1,0,1,0,1,0,0,1000,100,0,5,fifo,pso,--arrays-uf-always,0,--round-to-nearest,--boolector,11,1516,0,10,60,7,1,4,0,51,8276,TP,ReachSafety :: eca-rers2012/Problem19_label19_false-unreach-call.c
1,1,1,1,1,0,0,0,0,1,1,100,1,1000,100,lifo,tso,--arrays-uf-always,--reachability-slice,--round-to-plus-inf,--cprover-smt2,0,0,1,108,0,17,13,28,0,466,505,TN,Termination :: termination-memory-alloca/easySum-alloca_true-termination.c.i
0,1,1,1,0,0,1,1,1,1,1,0,1,5000,0,fifo,pso,--arrays-uf-always,0,--round-to-nearest,--boolector,37,1,0,165,0,16,15,54,0,572,816,TP,ConcurrencySafety :: pthread-wmm/mix002_rmo.opt_false-unreach-call.i
0,1,1,1,0,0,1,1,1,1,1,0,1,5000,0,fifo,pso,--arrays-uf-always,0,--round-to-nearest,--boolector,35,1,0,165,785,16,15,54,0,570,803,TP,ConcurrencySafety :: pthread-wmm/mix003_rmo.oepc_false-unreach-call.i
1,1,1,1,1,0,0,0,0,1,1,100,1,1000,100,lifo,tso,--arrays-uf-always,--reachability-slice,--round-to-plus-inf,--cprover-smt2,10,325,0,6,64,7,1,4,0,46,1542,TN,ReachSafety :: eca-rers2012/Problem15_label06_true-unreach-call.c
0,1,1,1,0,0,1,1,1,1,1,0,1,5000,0,fifo,pso,--arrays-uf-always,0,--round-to-nearest,--boolector,31,1,0,165,1267,16,15,54,0,566,787,TP,ConcurrencySafety :: pthread-wmm/rfi008_pso.oepc_false-unreach-call.i
0,1,1,1,0,0,1,1,1,1,1,0,1,5000,0,fifo,pso,--arrays-uf-always,0,--round-to-nearest,--boolector,2,102,0,17,48,9,26,154,0,1259,1682,TP,ReachSafety :: ssh/s3_srvr.blast.02_false-unreach-call.i.cil.c
0,0,1,0,1,1,0,0,1,1,0,5000,100,0,10,fifo,pso,0,0,--round-to-minus-inf,0,11,1516,0,10,60,7,1,4,0,51,8276,TN,ReachSafety :: eca-rers2012/Problem19_label35_true-unreach-call.c
1,1,1,1,1,0,0,0,0,1,1,100,1,1000,100,lifo,tso,--arrays-uf-always,--reachability-slice,--round-to-plus-inf,--cprover-smt2,0,3,0,108,498,17,13,28,0,466,527,TN,Termination :: termination-memory-alloca/HarrisLalNoriRajamani-2010SAS-Fig1-alloca_true-termination.c.i
1,1,1,1,1,1,1,0,1,0,0,2000,10,5000,20,lifo,pso,0,0,--round-to-plus-inf,--boolector,10,326,0,6,64,7,1,4,0,46,1493,TP,ReachSafety :: eca-rers2012/Problem16_label37_false-unreach-call.c
0,1,1,1,0,0,1,1,1,1,1,0,1,5000,0,fifo,pso,--arrays-uf-always,0,--round-to-nearest,--boolector,0,2,4,107,200,17,13,28,0,462,506,TP,MemSafety :: array-memsafety/lis_unsafe_false-valid-deref.i
0,1,1,1,0,0,1,1,1,1,1,0,1,5000,0,fifo,pso,--arrays-uf-always,0,--round-to-nearest,--boolector,37,1,0,165,796,16,15,54,0,572,813,TP,ConcurrencySafety :: pthread-wmm/mix032_rmo.oepc_false-unreach-call.i
1,0,0,0,0,1,0,1,1,1,0,100,20,5000,20,lifo,sc,0,--reachability-slice,--round-to-plus-inf,--cvc4,0,3,1,107,423,17,13,28,0,462,504,TP,MemSafety :: array-memsafety/reverse_array_unsafe_false-valid-deref.i
0,1,1,1,0,0,1,1,1,1,1,0,1,5000,0,fifo,pso,--arrays-uf-always,0,--round-to-nearest,--boolector,29,1,0,164,798,16,15,54,0,563,766,TP,ConcurrencySafety :: pthread-wmm/rfi007_rmo.oepc_false-unreach-call.i
1,1,1,1,1,0,0,0,0,1,1,100,1,1000,100,lifo,tso,--arrays-uf-always,--reachability-slice,--round-to-plus-inf,--cprover-smt2,10,137,0,5,63,7,1,4,0,45,511,TN,ReachSafety :: eca-rers2012/Problem10_label37_true-unreach-call.c
1,1,1,1,1,0,0,0,0,1,1,100,1,1000,100,lifo,tso,--arrays-uf-always,--reachability-slice,--round-to-plus-inf,--cprover-smt2,42,1101,0,9,67,7,1,4,0,81,9464,TN,ReachSafety :: eca-rers2012/Problem06_label53_true-unreach-call.c
1,1,1,1,1,0,0,0,0,1,1,100,1,1000,100,lifo,tso,--arrays-uf-always,--reachability-slice,--round-to-plus-inf,--cprover-smt2,3,1,0,146,110,17,16,33,0,457,379,TN,Termination :: termination-15/cstrlen_malloc_true-termination.c.i
1,1,1,1,1,0,0,0,0,1,1,100,1,1000,100,lifo,tso,--arrays-uf-always,--reachability-slice,--round-to-plus-inf,--cprover-smt2,3,3,1,147,96,17,16,33,0,458,392,TN,Termination :: termination-15/cstrpbrk_diffterm_alloca_true-termination.c.i
1,1,1,1,1,1,1,0,1,0,0,2000,10,5000,20,lifo,pso,0,0,--round-to-plus-inf,--boolector,0,3,0,4,3,7,1,4,0,34,19,TN,ReachSafety :: recursive-simple/fibo_20_true-unreach-call.c
1,1,1,1,1,0,0,0,0,1,1,100,1,1000,100,lifo,tso,--arrays-uf-always,--reachability-slice,--round-to-plus-inf,--cprover-smt2,14,1,0,165,0,16,15,54,0,549,733,TN,ConcurrencySafety :: pthread-wmm/safe005_tso.opt_true-unreach-call.i
1,1,1,1,1,0,0,0,0,1,1,100,1,1000,100,lifo,tso,--arrays-uf-always,--reachability-slice,--round-to-plus-inf,--cprover-smt2,20,812,0,8,0,7,1,4,0,58,4808,TN,ReachSafety :: eca-rers2012/Problem04_label01_true-unreach-call.c
0,1,0,0,1,1,0,1,0,0,1,1000,20,2000,100,lifo,tso,--arrays-uf-never,--reachability-slice,--round-to-zero,0,0,1,0,2,4,7,1,4,0,35,19,TP,NoOverflows :: termination-crafted/Pure3Phase_false-no-overflow.c
1,0,1,1,0,0,0,0,1,1,1,0,20,5000,100,fifo,sc,--arrays-uf-always,0,--round-to-zero,--cvc4,41,18367,0,79,137,7,1,4,0,150,184963,TN,ReachSafety :: eca-rers2012/Problem09_label16_true-unreach-call.c
1,1,1,1,1,0,0,0,0,1,1,100,1,1000,100,lifo,tso,--arrays-uf-always,--reachability-slice,--round-to-plus-inf,--cprover-smt2,11,904,0,8,59,7,1,4,0,49,4974,TN,ReachSafety :: eca-rers2012/Problem13_label20_true-unreach-call.c
1,1,1,1,0,0,1,0,0,0,0,5000,5,2000,10,fifo,tso,0,0,--round-to-plus-inf,0,42,216,0,5,63,7,1,4,0,77,1654,TP,ReachSafety :: eca-rers2012/Problem03_label31_false-unreach-call.c
1,1,1,1,1,1,1,0,1,0,0,2000,10,5000,20,lifo,pso,0,0,--round-to-plus-inf,--boolector,10,137,0,5,55,7,1,4,0,45,511,TP,ReachSafety :: eca-rers2012/Problem10_label24_false-unreach-call.c
1,1,1,1,1,0,0,0,0,1,1,100,1,1000,100,lifo,tso,--arrays-uf-always,--reachability-slice,--round-to-plus-inf,--cprover-smt2,11,746,0,8,58,7,1,4,0,49,4062,TN,ReachSafety :: eca-rers2012/Problem12_label16_true-unreach-call.c
1,0,0,0,0,1,0,1,1,1,0,100,20,5000,20,lifo,sc,0,--reachability-slice,--round-to-plus-inf,--cvc4,21,4,0,464,0,17,25,82,0,1118,1717,TP,ReachSafety :: ldv-races/race-2_3-container_of_false-unreach-call.i
0,1,0,0,1,1,0,1,0,0,1,1000,20,2000,100,lifo,tso,--arrays-uf-never,--reachability-slice,--round-to-zero,0,0,4,0,2,5,7,1,4,0,35,23,TP,NoOverflows :: termination-crafted-lit/ChawdharyCookGulwaniSagivYang-ESOP2008-aaron1_false-no-overflow.c
0,1,1,1,0,0,1,1,1,1,1,0,1,5000,0,fifo,pso,--arrays-uf-always,0,--round-to-nearest,--boolector,32,1,0,165,819,16,15,54,0,567,791,TP,ConcurrencySafety :: pthread-wmm/safe008_pso.opt_false-unreach-call.i
0,1,1,1,0,0,1,1,1,1,1,0,1,5000,0,fifo,pso,--arrays-uf-always,0,--round-to-nearest,--boolector,37,1,0,166,786,16,15,54,0,573,823,TP,ConcurrencySafety :: pthread-wmm/mix050_tso.opt_false-unreach-call.i
1,1,1,1,1,0,0,0,0,1,1,100,1,1000,100,lifo,tso,--arrays-uf-always,--reachability-slice,--round-to-plus-inf,--cprover-smt2,11,904,0,8,59,7,1,4,0,49,4974,TN,ReachSafety :: eca-rers2012/Problem13_label46_true-unreach-call.c
0,1,1,1,0,0,1,1,1,1,1,0,1,5000,0,fifo,pso,--arrays-uf-always,0,--round-to-nearest,--boolector,36,1,0,165,806,16,15,54,0,571,811,TP,ConcurrencySafety :: pthread-wmm/mix015_pso.opt_false-unreach-call.i
0,1,1,1,0,0,1,1,1,1,1,0,1,5000,0,fifo,pso,--arrays-uf-always,0,--round-to-nearest,--boolector,33,1,0,166,1369,16,15,54,0,569,792,TP,ConcurrencySafety :: pthread-wmm/mix025_rmo.opt_false-unreach-call.i
1,1,1,1,1,0,0,0,0,1,1,100,1,1000,100,lifo,tso,--arrays-uf-always,--reachability-slice,--round-to-plus-inf,--cprover-smt2,14,1,0,165,0,16,15,54,0,549,731,TN,ConcurrencySafety :: pthread-wmm/safe003_tso.oepc_true-unreach-call.i
1,1,1,1,1,0,0,0,0,1,1,100,1,1000,100,lifo,tso,--arrays-uf-always,--reachability-slice,--round-to-plus-inf,--cprover-smt2,14,1898,0,12,58,7,1,4,0,56,11122,TN,ReachSafety :: eca-rers2012/Problem05_label49_true-unreach-call.c
1,1,1,1,1,0,0,0,0,1,1,100,1,1000,100,lifo,tso,--arrays-uf-always,--reachability-slice,--round-to-plus-inf,--cprover-smt2,11,904,0,8,59,7,1,4,0,49,4974,TN,ReachSafety :: eca-rers2012/Problem13_label37_true-unreach-call.c
0,1,1,0,1,1,0,1,0,0,0,2000,1,2000,0,lifo,tso,--arrays-uf-never,--reachability-slice,--round-to-minus-inf,--cprover-smt2,0,2,2,3,4,7,1,4,0,33,27,TP,ReachSafety :: array-examples/sorting_bubblesort_false-unreach-call_ground.i
0,1,1,1,0,0,1,1,1,1,1,0,1,5000,0,fifo,pso,--arrays-uf-always,0,--round-to-nearest,--boolector,29,1,0,164,1295,16,15,54,0,563,763,TP,ConcurrencySafety :: pthread-wmm/podwr000_pso.oepc_false-unreach-call.i
0,0,1,0,1,0,1,0,1,0,0,1000,100,0,5,fifo,pso,--arrays-uf-always,0,--round-to-nearest,--boolector,11,1516,0,10,60,7,1,4,0,51,8276,TP,ReachSafety :: eca-rers2012/Problem19_label11_false-unreach-call.c
0,0,0,1,1,1,0,0,0,1,1,5000,1,2000,10,fifo,pso,--arrays-uf-never,0,--round-to-zero,--z3,8,2,0,155,0,15,15,55,0,532,657,TN,ConcurrencySafety :: pthread-ext/30_Function_Pointer3_vs_true-unreach-call.i
1,0,1,1,0,0,0,0,1,1,1,0,20,5000,100,fifo,sc,--arrays-uf-always,0,--round-to-zero,--cvc4,23,10142,0,50,108,7,1,4,0,103,73637,TN,ReachSafety :: eca-rers2012/Problem07_label50_true-unreach-call.c
0,1,0,0,1,1,0,1,0,0,1,1000,20,2000,100,lifo,tso,--arrays-uf-never,--reachability-slice,--round-to-zero,0,0,0,0,2,2,7,1,4,0,35,12,TP,NoOverflows :: termination-crafted-lit/ChenFlurMukhopadhyay-SAS2012-Ex2.17_false-no-overflow.c
0,1,1,1,0,0,1,1,1,1,1,0,1,5000,0,fifo,pso,--arrays-uf-always,0,--round-to-nearest,--boolector,35,1,0,165,0,16,15,54,0,570,806,TP,ConcurrencySafety :: pthread-wmm/mix011_pso.oepc_false-unreach-call.i
0,1,1,1,0,0,1,1,1,1,1,0,1,5000,0,fifo,pso,--arrays-uf-always,0,--round-to-nearest,--boolector,30,1,0,165,0,16,15,54,0,565,779,TP,ConcurrencySafety :: pthread-wmm/rfi010_pso.opt_false-unreach-call.i
0,1,1,1,0,0,1,1,1,1,1,0,1,5000,0,fifo,pso,--arrays-uf-always,0,--round-to-nearest,--boolector,32,1,0,165,1440,16,15,54,0,567,791,TP,ConcurrencySafety :: pthread-wmm/safe021_power.oepc_false-unreach-call.i
0,1,0,0,1,1,0,1,0,0,1,1000,20,2000,100,lifo,tso,--arrays-uf-never,--reachability-slice,--round-to-zero,0,0,0,0,2,4,7,1,4,0,35,18,TP,NoOverflows :: termination-crafted-lit/NoriSharma-FSE2013-Fig7_false-no-overflow.c
0,1,1,1,0,0,1,1,1,1,1,0,1,5000,0,fifo,pso,--arrays-uf-always,0,--round-to-nearest,--boolector,33,1,0,166,1263,16,15,54,0,569,791,TP,ConcurrencySafety :: pthread-wmm/safe024_power.opt_false-unreach-call.i
0,1,0,0,1,1,0,1,0,0,1,1000,20,2000,100,lifo,tso,--arrays-uf-never,--reachability-slice,--round-to-zero,0,0,1,0,3,4,7,1,4,0,33,16,TP,ReachSafety :: floats-esbmc-regression/digits_bad_while_false-unreach-call.i
1,1,1,1,1,0,0,0,0,1,1,100,1,1000,100,lifo,tso,--arrays-uf-always,--reachability-slice,--round-to-plus-inf,--cprover-smt2,0,1,1,108,336,17,13,28,0,466,507,TN,Termination :: termination-memory-alloca/openbsd_cstrlen-alloca_true-termination.c.i
0,1,1,1,0,0,1,1,1,1,1,0,1,5000,0,fifo,pso,--arrays-uf-always,0,--round-to-nearest,--boolector,50,1,0,165,1293,16,15,54,0,585,810,TP,ConcurrencySafety :: pthread-wmm/safe012_power.opt_false-unreach-call.i
0,1,0,0,1,1,0,1,0,0,1,1000,20,2000,100,lifo,tso,--arrays-uf-never,--reachability-slice,--round-to-zero,0,0,2,4,3,2,7,2,5,0,35,29,TP,MemSafety :: ldv-memsafety/ArraysOfVariableLength2_false-valid-deref-read.c
1,0,1,1,0,0,0,0,1,1,1,0,20,5000,100,fifo,sc,--arrays-uf-always,0,--round-to-zero,--cvc4,23,10142,0,50,108,7,1,4,0,103,73637,TN,ReachSafety :: eca-rers2012/Problem07_label14_true-unreach-call.c
1,1,1,1,0,0,1,0,0,0,0,5000,5,2000,10,fifo,tso,0,0,--round-to-plus-inf,0,80,199,0,63,730,9,12,5,0,188,2859,TP,ReachSafety :: seq-mthreaded/rekcba_aso_false-unreach-call.4.M1.c
0,1,1,1,0,0,1,1,1,1,1,0,1,5000,0,fifo,pso,--arrays-uf-always,0,--round-to-nearest,--boolector,39,1,0,166,863,16,15,54,0,575,831,TP,ConcurrencySafety :: pthread-wmm/mix004_power.opt_false-unreach-call.i
0,1,1,1,0,0,1,1,1,1,1,0,1,5000,0,fifo,pso,--arrays-uf-always,0,--round-to-nearest,--boolector,37,1,0,166,0,16,15,54,0,573,826,TP,ConcurrencySafety :: pthread-wmm/mix018_pso.oepc_false-unreach-call.i
1,1,1,1,1,0,0,0,0,1,1,100,1,1000,100,lifo,tso,--arrays-uf-always,--reachability-slice,--round-to-plus-inf,--cprover-smt2,20,812,0,8,0,7,1,4,0,58,4808,TN,ReachSafety :: eca-rers2012/Problem04_label51_true-unreach-call.c
0,1,1,1,0,0,1,1,1,1,1,0,1,5000,0,fifo,pso,--arrays-uf-always,0,--round-to-nearest,--boolector,50,1,0,166,1242,16,15,54,0,586,796,TP,ConcurrencySafety :: pthread-wmm/safe007_rmo.opt_false-unreach-call.i
0,1,1,1,0,0,1,1,1,1,1,0,1,5000,0,fifo,pso,--arrays-uf-always,0,--round-to-nearest,--boolector,35,1,0,165,0,16,15,54,0,570,806,TP,ConcurrencySafety :: pthread-wmm/mix024_rmo.oepc_false-unreach-call.i
0,0,1,0,1,0,1,0,1,0,0,1000,100,0,5,fifo,pso,--arrays-uf-always,0,--round-to-nearest,--boolector,11,746,0,8,66,7,1,4,0,49,4062,TP,ReachSafety :: eca-rers2012/Problem12_label00_false-unreach-call.c
0,1,1,1,0,0,1,1,1,1,1,0,1,5000,0,fifo,pso,--arrays-uf-always,0,--round-to-nearest,--boolector,38,1,0,166,786,16,15,54,0,574,831,TP,ConcurrencySafety :: pthread-wmm/mix039_pso.oepc_false-unreach-call.i
0,0,1,0,1,0,1,0,1,0,0,1000,100,0,5,fifo,pso,--arrays-uf-always,0,--round-to-nearest,--boolector,10,686,0,7,65,7,1,4,0,47,3497,TP,ReachSafety :: eca-rers2012/Problem18_label01_false-unreach-call.c
1,1,1,1,1,0,0,0,0,1,1,100,1,1000,100,lifo,tso,--arrays-uf-always,--reachability-slice,--round-to-plus-inf,--cprover-smt2,13,1,0,165,0,16,15,54,0,548,726,TN,ConcurrencySafety :: pthread-wmm/safe026_tso.oepc_true-unreach-call.i
1,1,1,1,1,0,0,0,0,1,1,100,1,1000,100,lifo,tso,--arrays-uf-always,--reachability-slice,--round-to-plus-inf,--cprover-smt2,0,2,0,5,13,8,1,6,0,39,41,TN,Termination :: termination-recursive-malloc/chunk3_true-termination.c.i
0,1,1,1,0,0,1,1,1,1,1,0,1,5000,0,fifo,pso,--arrays-uf-always,0,--round-to-nearest,--boolector,37,1,0,166,0,16,15,54,0,573,826,TP,ConcurrencySafety :: pthread-wmm/mix026_tso.oepc_false-unreach-call.i
1,1,1,1,1,0,0,0,0,1,1,100,1,1000,100,lifo,tso,--arrays-uf-always,--reachability-slice,--round-to-plus-inf,--cprover-smt2,14,1898,0,12,64,7,1,4,0,56,11122,TN,ReachSafety :: eca-rers2012/Problem05_label34_true-unreach-call.c
0,1,0,0,1,1,0,1,0,0,1,1000,20,2000,100,lifo,tso,--arrays-uf-never,--reachability-slice,--round-to-zero,0,1,24,1,151,551,17,13,39,0,576,823,TP,MemSafety :: ldv-memsafety/memleaks_test15_false-valid-memtrack.i
0,1,1,1,0,0,1,1,1,1,1,0,1,5000,0,fifo,pso,--arrays-uf-always,0,--round-to-nearest,--boolector,32,1,0,165,817,16,15,54,0,567,791,TP,ConcurrencySafety :: pthread-wmm/safe021_rmo.oepc_false-unreach-call.i
1,1,1,1,1,0,0,0,0,1,1,100,1,1000,100,lifo,tso,--arrays-uf-always,--reachability-slice,--round-to-plus-inf,--cprover-smt2,15,1,0,166,0,16,15,54,0,551,745,TN,ConcurrencySafety :: pthread-wmm/safe027_tso.opt_true-unreach-call.i
0,1,0,0,1,1,0,1,0,0,1,1000,20,2000,100,lifo,tso,--arrays-uf-never,--reachability-slice,--round-to-zero,0,0,3,0,2,6,7,1,4,0,35,24,TP,NoOverflows :: termination-crafted-lit/AliasDarteFeautrierGonnord-SAS2010-counterex1a_false-no-overflow.c
0,1,1,1,0,0,1,1,1,1,1,0,1,5000,0,fifo,pso,--arrays-uf-always,0,--round-to-nearest,--boolector,37,1,0,166,1291,16,15,54,0,573,829,TP,ConcurrencySafety :: pthread-wmm/mix040_power.oepc_false-unreach-call.i
0,1,1,1,0,0,1,1,1,1,1,0,1,5000,0,fifo,pso,--arrays-uf-always,0,--round-to-nearest,--boolector,50,1,0,165,1293,16,15,54,0,585,810,TP,ConcurrencySafety :: pthread-wmm/thin001_power.opt_false-unreach-call.i
0,1,1,1,0,0,1,1,1,1,1,0,1,5000,0,fifo,pso,--arrays-uf-always,0,--round-to-nearest,--boolector,37,1,0,166,856,16,15,54,0,573,819,TP,ConcurrencySafety :: pthread-wmm/mix044_pso.opt_false-unreach-call.i
0,1,1,1,0,0,1,1,1,1,1,0,1,5000,0,fifo,pso,--arrays-uf-always,0,--round-to-nearest,--boolector,33,1,0,165,813,16,15,54,0,568,799,TP,ConcurrencySafety :: pthread-wmm/mix019_pso.opt_false-unreach-call.i
1,1,1,1,1,0,0,0,0,1,1,100,1,1000,100,lifo,tso,--arrays-uf-always,--reachability-slice,--round-to-plus-inf,--cprover-smt2,14,1898,0,12,58,7,1,4,0,56,11122,TN,ReachSafety :: eca-rers2012/Problem05_label31_true-unreach-call.c
1,1,1,1,1,0,0,0,0,1,1,100,1,1000,100,lifo,tso,--arrays-uf-always,--reachability-slice,--round-to-plus-inf,--cprover-smt2,14,1898,0,12,58,7,1,4,0,56,11122,TN,ReachSafety :: eca-rers2012/Problem05_label25_true-unreach-call.c
0,1,0,0,1,1,0,1,0,0,1,1000,20,2000,100,lifo,tso,--arrays-uf-never,--reachability-slice,--round-to-zero,0,0,3,0,4,4,7,1,4,0,34,15,TP,NoOverflows :: recursive-simple/id_b3_o2_false-no-overflow.c
0,1,0,0,1,1,0,1,0,0,1,1000,20,2000,100,lifo,tso,--arrays-uf-never,--reachability-slice,--round-to-zero,0,0,1,0,2,6,7,1,4,0,32,17,TP,NoOverflows :: termination-crafted-lit/AliasDarteFeautrierGonnord-SAS2010-aaron3_false-no-overflow.c
0,1,1,1,0,0,1,1,1,1,1,0,1,5000,0,fifo,pso,--arrays-uf-always,0,--round-to-nearest,--boolector,28,1,0,164,798,16,15,54,0,562,761,TP,ConcurrencySafety :: pthread-wmm/mix054_pso.oepc_false-unreach-call.i